<?xml version="1.0" encoding="utf-8"?>
<!-- Generator: Adobe Illustrator 25.4.1, SVG Export Plug-In . SVG Version: 6.00 Build 0)  -->
<svg version="1.1" id="Layer_1" xmlns="http://www.w3.org/2000/svg" xmlns:xlink="http://www.w3.org/1999/xlink" x="0px" y="0px"
	 viewBox="0 0 429 312" style="enable-background:new 0 0 429 312;" xml:space="preserve">
<style type="text/css">
	
		.st0{clip-path:url(#SVGID_00000109013983476372552950000001837848034297876390_);fill:url(#SVGID_00000103958044320647706810000005906305036928752805_);}
	.st1{clip-path:url(#SVGID_00000109013983476372552950000001837848034297876390_);fill:none;stroke:#9ECC3B;}
</style>
<g>
	<defs>
		<rect id="SVGID_1_" width="429" height="312"/>
	</defs>
	<clipPath id="SVGID_00000075131159340022042850000006311537694553851781_">
		<use xlink:href="#SVGID_1_"  style="overflow:visible;"/>
	</clipPath>
	
		<linearGradient id="SVGID_00000074431557597350817320000007181415386412570758_" gradientUnits="userSpaceOnUse" x1="180.9181" y1="250.8714" x2="487.769" y2="328.1285">
		<stop  offset="0" style="stop-color:#9ECC3B"/>
		<stop  offset="0.99" style="stop-color:#009155"/>
	</linearGradient>
	
		<path style="clip-path:url(#SVGID_00000075131159340022042850000006311537694553851781_);fill:url(#SVGID_00000074431557597350817320000007181415386412570758_);" d="
		M506.8,258.7l-42.4,147.5c-1.2,4.4-3.6,8.3-6.9,11.4c-3.3,3.1-7.3,5.4-11.7,6.5l-150,37.3c-4.4,1.1-9.1,1-13.5-0.2
		c-4.4-1.2-8.4-3.6-11.5-6.8l-89.5-91.8l-17.9-18.4c-3.2-3.2-5.4-7.3-6.5-11.7c-1.1-4.4-1-9,0.2-13.3l7.1-24.6l35.4-122.8
		c1.2-4.3,3.6-8.3,6.9-11.4c3.3-3.1,7.3-5.4,11.7-6.5l150-37.3c4.4-1.1,9.1-1,13.4,0.2c4.4,1.2,8.4,3.6,11.5,6.9l107.5,110.2
		c3.2,3.3,5.4,7.3,6.5,11.7C508.2,249.7,508.1,254.3,506.8,258.7z"/>
	<path style="clip-path:url(#SVGID_00000075131159340022042850000006311537694553851781_);fill:none;stroke:#9ECC3B;" d="M659.7,207
		c-1-3.9-2.5-7.6-4.4-11.1c-2-3.5-4.4-6.7-7.2-9.6l-193-197.9c-5.6-5.8-12.7-10-20.5-12.2c-7.8-2.2-16-2.3-23.8-0.4l-269.1,67
		c-7.8,2-15,6-20.8,11.6c-5.5,5.2-9.5,11.7-11.8,18.9l-0.4,1.5L32.5,339.4l-0.4,23.7l11.6,20.7l192.8,197.8v0
		c5.6,5.8,12.7,10,20.5,12.2c4.1,1.2,8.4,1.8,12.7,1.8c3.8,0,7.5-0.5,11.2-1.4l269.1-67c7.8-2,15-5.9,20.8-11.5
		c5.8-5.6,10-12.6,12.3-20.3l76.2-264.8C661.5,223,661.6,214.8,659.7,207z"/>
</g>
</svg>
