<svg width="60" height="60" viewBox="0 0 60 60" fill="none" xmlns="http://www.w3.org/2000/svg">
<path d="M57.1875 50.625H56.25V16.875C56.25 15.8804 55.8549 14.9266 55.1516 14.2233C54.4484 13.5201 53.4946 13.125 52.5 13.125H47.8125V0.9375C47.8125 0.68886 47.7137 0.450403 47.5379 0.274587C47.3621 0.0987721 47.1236 0 46.875 0L13.125 0C12.8764 0 12.6379 0.0987721 12.4621 0.274587C12.2863 0.450403 12.1875 0.68886 12.1875 0.9375V13.125H7.5C6.50544 13.125 5.55161 13.5201 4.84835 14.2233C4.14509 14.9266 3.75 15.8804 3.75 16.875V50.625H2.8125C2.06658 50.625 1.35121 50.9213 0.823762 51.4488C0.296316 51.9762 0 52.6916 0 53.4375L0 55.3125C0 56.5557 0.49386 57.748 1.37294 58.6271C2.25201 59.5061 3.4443 60 4.6875 60H55.3125C56.5557 60 57.748 59.5061 58.6271 58.6271C59.5061 57.748 60 56.5557 60 55.3125V53.4375C60 52.6916 59.7037 51.9762 59.1762 51.4488C58.6488 50.9213 57.9334 50.625 57.1875 50.625ZM9.375 46.875V18.75H12.1875V46.875H9.375ZM14.0625 7.5H45.9375V46.875H14.0625V7.5ZM47.8125 18.75H50.625V46.875H47.8125V18.75ZM14.0625 1.875H45.9375V5.625H14.0625V1.875ZM5.625 16.875C5.625 16.3777 5.82254 15.9008 6.17417 15.5492C6.52581 15.1975 7.00272 15 7.5 15H12.1875V16.875H8.4375C8.18886 16.875 7.9504 16.9738 7.77459 17.1496C7.59877 17.3254 7.5 17.5639 7.5 17.8125V47.8125C7.5 48.0611 7.59877 48.2996 7.77459 48.4754C7.9504 48.6512 8.18886 48.75 8.4375 48.75H51.5625C51.8111 48.75 52.0496 48.6512 52.2254 48.4754C52.4012 48.2996 52.5 48.0611 52.5 47.8125V17.8125C52.5 17.5639 52.4012 17.3254 52.2254 17.1496C52.0496 16.9738 51.8111 16.875 51.5625 16.875H47.8125V15H52.5C52.9973 15 53.4742 15.1975 53.8258 15.5492C54.1775 15.9008 54.375 16.3777 54.375 16.875V50.625H5.625V16.875ZM37.6219 52.5L36.9937 53.4375H23.0063L22.3781 52.5H37.6219ZM58.125 55.3125C58.125 56.0584 57.8287 56.7738 57.3012 57.3012C56.7738 57.8287 56.0584 58.125 55.3125 58.125H4.6875C3.94158 58.125 3.22621 57.8287 2.69876 57.3012C2.17132 56.7738 1.875 56.0584 1.875 55.3125V53.4375C1.875 53.1889 1.97377 52.9504 2.14959 52.7746C2.3254 52.5988 2.56386 52.5 2.8125 52.5H20.1187L21.7219 54.8906C22.1156 55.4906 21.3 55.3125 37.5 55.3125C38.1469 55.3125 38.1938 55.0219 39.8813 52.5H57.1875C57.4361 52.5 57.6746 52.5988 57.8504 52.7746C58.0262 52.9504 58.125 53.1889 58.125 53.4375V55.3125Z" fill="url(#paint0_linear_4_349)"/>
<path d="M16.875 2.8125C16.6264 2.8125 16.3879 2.91127 16.2121 3.08709C16.0363 3.2629 15.9375 3.50136 15.9375 3.75C15.9375 3.99864 16.0363 4.2371 16.2121 4.41291C16.3879 4.58873 16.6264 4.6875 16.875 4.6875C17.1236 4.6875 17.3621 4.58873 17.5379 4.41291C17.7137 4.2371 17.8125 3.99864 17.8125 3.75C17.8125 3.50136 17.7137 3.2629 17.5379 3.08709C17.3621 2.91127 17.1236 2.8125 16.875 2.8125Z" fill="url(#paint1_linear_4_349)"/>
<path d="M20.625 2.8125C20.3764 2.8125 20.1379 2.91127 19.9621 3.08709C19.7863 3.2629 19.6875 3.50136 19.6875 3.75C19.6875 3.99864 19.7863 4.2371 19.9621 4.41291C20.1379 4.58873 20.3764 4.6875 20.625 4.6875C20.8736 4.6875 21.1121 4.58873 21.2879 4.41291C21.4637 4.2371 21.5625 3.99864 21.5625 3.75C21.5625 3.50136 21.4637 3.2629 21.2879 3.08709C21.1121 2.91127 20.8736 2.8125 20.625 2.8125Z" fill="url(#paint2_linear_4_349)"/>
<path d="M24.375 2.8125C24.1264 2.8125 23.8879 2.91127 23.7121 3.08709C23.5363 3.2629 23.4375 3.50136 23.4375 3.75C23.4375 3.99864 23.5363 4.2371 23.7121 4.41291C23.8879 4.58873 24.1264 4.6875 24.375 4.6875C24.6236 4.6875 24.8621 4.58873 25.0379 4.41291C25.2137 4.2371 25.3125 3.99864 25.3125 3.75C25.3125 3.50136 25.2137 3.2629 25.0379 3.08709C24.8621 2.91127 24.6236 2.8125 24.375 2.8125Z" fill="url(#paint3_linear_4_349)"/>
<path d="M32.2219 17.1844C31.9888 16.8043 31.6622 16.4904 31.2732 16.2726C30.8842 16.0548 30.4458 15.9404 30 15.9404C29.5542 15.9404 29.1158 16.0548 28.7268 16.2726C28.3378 16.4904 28.0111 16.8043 27.7781 17.1844C16.3875 35.8781 16.875 34.7719 16.875 35.8125C16.875 36.5087 17.1515 37.1764 17.6438 37.6687C18.1361 38.161 18.8038 38.4375 19.5 38.4375H40.5C40.965 38.4366 41.4214 38.3123 41.8225 38.0771C42.2236 37.842 42.5551 37.5045 42.783 37.0992C43.0109 36.6939 43.1271 36.2354 43.1197 35.7704C43.1122 35.3055 42.9814 34.8509 42.7406 34.4531L32.2219 17.1844ZM40.5 36.5625H19.5C19.3011 36.5625 19.1103 36.4835 18.9696 36.3429C18.829 36.2022 18.75 36.0114 18.75 35.8125C18.75 35.5031 18.1406 36.6 29.3719 18.1594C29.4384 18.0528 29.531 17.965 29.6409 17.9041C29.7508 17.8431 29.8743 17.8112 30 17.8112C30.1256 17.8112 30.2492 17.8431 30.3591 17.9041C30.469 17.965 30.5615 18.0528 30.6281 18.1594C41.8593 36.6094 41.25 35.5031 41.25 35.8125C41.25 36.0114 41.171 36.2022 41.0303 36.3429C40.8897 36.4835 40.6989 36.5625 40.5 36.5625Z" fill="url(#paint4_linear_4_349)"/>
<path d="M29.0625 23.4375V30.9375C29.0625 31.1861 29.1613 31.4246 29.3371 31.6004C29.5129 31.7762 29.7514 31.875 30 31.875C30.2486 31.875 30.4871 31.7762 30.6629 31.6004C30.8387 31.4246 30.9375 31.1861 30.9375 30.9375V23.4375C30.9375 23.1889 30.8387 22.9504 30.6629 22.7746C30.4871 22.5988 30.2486 22.5 30 22.5C29.7514 22.5 29.5129 22.5988 29.3371 22.7746C29.1613 22.9504 29.0625 23.1889 29.0625 23.4375Z" fill="url(#paint5_linear_4_349)"/>
<path d="M30 32.8125C29.7514 32.8125 29.5129 32.9113 29.3371 33.0871C29.1613 33.2629 29.0625 33.5014 29.0625 33.75C29.0625 33.9986 29.1613 34.2371 29.3371 34.4129C29.5129 34.5887 29.7514 34.6875 30 34.6875C30.2486 34.6875 30.4871 34.5887 30.6629 34.4129C30.8387 34.2371 30.9375 33.9986 30.9375 33.75C30.9375 33.5014 30.8387 33.2629 30.6629 33.0871C30.4871 32.9113 30.2486 32.8125 30 32.8125Z" fill="url(#paint6_linear_4_349)"/>
<defs>
<linearGradient id="paint0_linear_4_349" x1="1.33249" y1="37.2346" x2="59.6448" y2="22.7893" gradientUnits="userSpaceOnUse">
<stop stop-color="#5BC2A9"/>
<stop offset="1" stop-color="#3BA6DD"/>
</linearGradient>
<linearGradient id="paint1_linear_4_349" x1="15.9791" y1="3.97608" x2="17.8014" y2="3.52467" gradientUnits="userSpaceOnUse">
<stop stop-color="#5BC2A9"/>
<stop offset="1" stop-color="#3BA6DD"/>
</linearGradient>
<linearGradient id="paint2_linear_4_349" x1="19.7291" y1="3.97608" x2="21.5514" y2="3.52467" gradientUnits="userSpaceOnUse">
<stop stop-color="#5BC2A9"/>
<stop offset="1" stop-color="#3BA6DD"/>
</linearGradient>
<linearGradient id="paint3_linear_4_349" x1="23.4791" y1="3.97608" x2="25.3014" y2="3.52467" gradientUnits="userSpaceOnUse">
<stop stop-color="#5BC2A9"/>
<stop offset="1" stop-color="#3BA6DD"/>
</linearGradient>
<linearGradient id="paint4_linear_4_349" x1="17.4549" y1="29.9016" x2="42.4427" y2="22.6795" gradientUnits="userSpaceOnUse">
<stop stop-color="#5BC2A9"/>
<stop offset="1" stop-color="#3BA6DD"/>
</linearGradient>
<linearGradient id="paint5_linear_4_349" x1="29.1041" y1="28.3179" x2="31.0335" y2="28.2223" gradientUnits="userSpaceOnUse">
<stop stop-color="#5BC2A9"/>
<stop offset="1" stop-color="#3BA6DD"/>
</linearGradient>
<linearGradient id="paint6_linear_4_349" x1="29.1041" y1="33.9761" x2="30.9264" y2="33.5247" gradientUnits="userSpaceOnUse">
<stop stop-color="#5BC2A9"/>
<stop offset="1" stop-color="#3BA6DD"/>
</linearGradient>
</defs>
</svg>
