<svg width="60" height="60" viewBox="0 0 60 60" fill="none" xmlns="http://www.w3.org/2000/svg">
<g clip-path="url(#clip0_4_310)">
<path d="M27.1875 3.75C27.1875 3.50136 27.0887 3.2629 26.9129 3.08709C26.7371 2.91127 26.4986 2.8125 26.25 2.8125C26.0014 2.8125 25.7629 2.91127 25.5871 3.08709C25.4113 3.2629 25.3125 3.50136 25.3125 3.75C25.3125 3.99864 25.4113 4.2371 25.5871 4.41291C25.7629 4.58873 26.0014 4.6875 26.25 4.6875C26.4986 4.6875 26.7371 4.58873 26.9129 4.41291C27.0887 4.2371 27.1875 3.99864 27.1875 3.75Z" fill="url(#paint0_linear_4_310)"/>
<path d="M34.6875 3.75C34.6875 3.50136 34.5887 3.2629 34.4129 3.08709C34.2371 2.91127 33.9986 2.8125 33.75 2.8125C33.5014 2.8125 33.2629 2.91127 33.0871 3.08709C32.9113 3.2629 32.8125 3.50136 32.8125 3.75C32.8125 3.99864 32.9113 4.2371 33.0871 4.41291C33.2629 4.58873 33.5014 4.6875 33.75 4.6875C33.9986 4.6875 34.2371 4.58873 34.4129 4.41291C34.5887 4.2371 34.6875 3.99864 34.6875 3.75Z" fill="url(#paint1_linear_4_310)"/>
<path d="M59.0625 11.25H48.75V4.6875C48.75 3.4443 48.2561 2.25201 47.3771 1.37294C46.498 0.49386 45.3057 0 44.0625 0L15.9375 0C14.6943 0 13.502 0.49386 12.6229 1.37294C11.7439 2.25201 11.25 3.4443 11.25 4.6875V11.25C11.25 11.25 11.25 11.9389 11.25 12.1875V29.0625V30V37.5H0.9375C0.68886 37.5 0.450403 37.5988 0.274587 37.7746C0.098772 37.9504 0 38.1889 0 38.4375L0 49.6875C0 49.9361 0.098772 50.1746 0.274587 50.3504C0.450403 50.5262 0.68886 50.625 0.9375 50.625H11.25V55.3125C11.25 56.5557 11.7439 57.748 12.6229 58.6271C13.502 59.5061 14.6943 60 15.9375 60H44.0625C45.3057 60 46.498 59.5061 47.3771 58.6271C48.2561 57.748 48.75 56.5557 48.75 55.3125V51.1781C58.7531 48.3188 58.6688 34.1531 48.75 31.3406V26.25H59.0625C59.3111 26.25 59.5496 26.1512 59.7254 25.9754C59.9012 25.7996 60 25.5611 60 25.3125V12.1875C60 11.9389 59.9012 11.7004 59.7254 11.5246C59.5496 11.3488 59.3111 11.25 59.0625 11.25ZM13.125 4.6875C13.125 3.94158 13.4213 3.22621 13.9488 2.69876C14.4762 2.17132 15.1916 1.875 15.9375 1.875H44.0625C44.8084 1.875 45.5238 2.17132 46.0512 2.69876C46.5787 3.22621 46.875 3.94158 46.875 4.6875V11.25H45V4.6875C45 4.43886 44.9012 4.2004 44.7254 4.02459C44.5496 3.84877 44.3111 3.75 44.0625 3.75H37.5C37.2514 3.75 37.0129 3.84877 36.8371 4.02459C36.6613 4.2004 36.5625 4.43886 36.5625 4.6875C36.5625 4.93614 36.4637 5.1746 36.2879 5.35041C36.1121 5.52623 35.8736 5.625 35.625 5.625H24.375C24.1264 5.625 23.8879 5.52623 23.7121 5.35041C23.5363 5.1746 23.4375 4.93614 23.4375 4.6875C23.4375 4.43886 23.3387 4.2004 23.1629 4.02459C22.9871 3.84877 22.7486 3.75 22.5 3.75H15.9375C15.6889 3.75 15.4504 3.84877 15.2746 4.02459C15.0988 4.2004 15 4.43886 15 4.6875V11.25H13.125V4.6875ZM32.8125 11.25C32.5639 11.25 32.3254 11.3488 32.1496 11.5246C31.9738 11.7004 31.875 11.9389 31.875 12.1875V25.3125C31.875 25.5611 31.9738 25.7996 32.1496 25.9754C32.3254 26.1512 32.5639 26.25 32.8125 26.25H43.125V31.3406C33.2438 34.1531 33.1406 48.1125 42.9187 51.1125C43.2094 51.1969 43.125 50.7656 43.125 54.375H16.875V50.625H29.0625C29.3111 50.625 29.5496 50.5262 29.7254 50.3504C29.9012 50.1746 30 49.9361 30 49.6875V38.4375C30 38.1889 29.9012 37.9504 29.7254 37.7746C29.5496 37.5988 29.3111 37.5 29.0625 37.5H16.875V30V29.0859V12.2051V11.5246V11.2682V11.25V5.625H21.7219C21.9158 6.17358 22.2752 6.64851 22.7503 6.98432C23.2255 7.32014 23.7931 7.50031 24.375 7.5H35.625C36.2069 7.50031 36.7745 7.32014 37.2497 6.98432C37.7248 6.64851 38.0842 6.17358 38.2781 5.625H43.125V11.25H32.8125ZM48.4125 39.5437C48.4125 40.2002 48.1517 40.8297 47.6876 41.2938C47.2234 41.758 46.5939 42.0187 45.9375 42.0188C45.2811 42.0187 44.6516 41.758 44.1874 41.2938C43.7233 40.8297 43.4625 40.2002 43.4625 39.5437V38.6906C43.4625 38.0342 43.7233 37.4047 44.1874 36.9405C44.6516 36.4764 45.2811 36.2156 45.9375 36.2156C46.5939 36.2156 47.2234 36.4764 47.6876 36.9405C48.1517 37.4047 48.4125 38.0342 48.4125 38.6906V39.5437ZM50.625 47.2969L50.8781 48.0469C49.438 49.1104 47.6949 49.6843 45.9047 49.6843C44.1144 49.6843 42.3713 49.1104 40.9313 48.0469L41.1937 47.2875C41.5283 46.3017 42.1635 45.4456 43.01 44.8396C43.8565 44.2336 44.8717 43.9082 45.9127 43.9092C46.9538 43.9103 47.9683 44.2377 48.8136 44.8453C49.6589 45.453 50.2924 46.3104 50.625 47.2969ZM13.125 13.125H15.2746V28.125H13.125V13.125ZM13.125 30H15V37.5H13.125V30ZM1.875 39.375H28.125V48.75H1.875V39.375ZM44.0625 58.125H15.9375C15.1916 58.125 14.4762 57.8287 13.9488 57.3012C13.4213 56.7738 13.125 56.0584 13.125 55.3125V50.625H15V55.3125C15 55.5611 15.0988 55.7996 15.2746 55.9754C15.4504 56.1512 15.6889 56.25 15.9375 56.25H44.0625C44.3111 56.25 44.5496 56.1512 44.7254 55.9754C44.9012 55.7996 45 55.5611 45 55.3125V51.5625C45.6233 51.6281 46.2517 51.6281 46.875 51.5625V55.3125C46.875 56.0584 46.5787 56.7738 46.0512 57.3012C45.5238 57.8287 44.8084 58.125 44.0625 58.125ZM52.4156 46.65C52.1271 45.7901 51.6689 44.9969 51.0683 44.3174C50.4676 43.6378 49.7367 43.0857 48.9187 42.6938C49.4393 42.1766 49.8336 41.5464 50.071 40.8522C50.3084 40.1579 50.3825 39.4182 50.2875 38.6906C50.2875 37.5369 49.8292 36.4305 49.0134 35.6147C48.1976 34.7989 47.0912 34.3406 45.9375 34.3406C44.7838 34.3406 43.6774 34.7989 42.8616 35.6147C42.0458 36.4305 41.5875 37.5369 41.5875 38.6906C41.5875 40.0594 41.5875 41.3719 42.9563 42.6938C42.1374 43.0844 41.4057 43.636 40.8049 44.3158C40.2041 44.9955 39.7465 45.7894 39.4594 46.65C38.4315 45.4183 37.7761 43.9192 37.57 42.3283C37.3638 40.7374 37.6154 39.1208 38.2953 37.6678C38.9753 36.2148 40.0553 34.9858 41.4088 34.1248C42.7624 33.2638 44.3333 32.8065 45.9375 32.8065C47.5417 32.8065 49.1126 33.2638 50.4662 34.1248C51.8197 34.9858 52.8997 36.2148 53.5796 37.6678C54.2596 39.1208 54.5112 40.7374 54.305 42.3283C54.0989 43.9192 53.4434 45.4183 52.4156 46.65ZM46.875 30.9844C46.2517 30.9187 45.6233 30.9187 45 30.9844V26.25H46.875V30.9844ZM58.125 24.4219H33.75V13.125H58.125V24.4219Z" fill="url(#paint2_linear_4_310)"/>
<path d="M20.625 45H5.625C5.37636 45 5.1379 45.0988 4.96209 45.2746C4.78627 45.4504 4.6875 45.6889 4.6875 45.9375C4.6875 46.1861 4.78627 46.4246 4.96209 46.6004C5.1379 46.7762 5.37636 46.875 5.625 46.875H20.625C20.8736 46.875 21.1121 46.7762 21.2879 46.6004C21.4637 46.4246 21.5625 46.1861 21.5625 45.9375C21.5625 45.6889 21.4637 45.4504 21.2879 45.2746C21.1121 45.0988 20.8736 45 20.625 45Z" fill="url(#paint3_linear_4_310)"/>
<path d="M5.625 43.125H24.375C24.6236 43.125 24.8621 43.0262 25.0379 42.8504C25.2137 42.6746 25.3125 42.4361 25.3125 42.1875C25.3125 41.9389 25.2137 41.7004 25.0379 41.5246C24.8621 41.3488 24.6236 41.25 24.375 41.25H5.625C5.37636 41.25 5.1379 41.3488 4.96209 41.5246C4.78627 41.7004 4.6875 41.9389 4.6875 42.1875C4.6875 42.4361 4.78627 42.6746 4.96209 42.8504C5.1379 43.0262 5.37636 43.125 5.625 43.125Z" fill="url(#paint4_linear_4_310)"/>
<path d="M36.8011 16.875H52.8239C53.0363 16.875 53.2401 16.7762 53.3904 16.6004C53.5406 16.4246 53.625 16.1861 53.625 15.9375C53.625 15.6889 53.5406 15.4504 53.3904 15.2746C53.2401 15.0988 53.0363 15 52.8239 15H36.8011C36.5887 15 36.3849 15.0988 36.2346 15.2746C36.0844 15.4504 36 15.6889 36 15.9375C36 16.1861 36.0844 16.4246 36.2346 16.6004C36.3849 16.7762 36.5887 16.875 36.8011 16.875Z" fill="url(#paint5_linear_4_310)"/>
<path d="M36.5966 20.625H48.5284C48.6866 20.625 48.8384 20.5262 48.9503 20.3504C49.0621 20.1746 49.125 19.9361 49.125 19.6875C49.125 19.4389 49.0621 19.2004 48.9503 19.0246C48.8384 18.8488 48.6866 18.75 48.5284 18.75H36.5966C36.4384 18.75 36.2866 18.8488 36.1747 19.0246C36.0629 19.2004 36 19.4389 36 19.6875C36 19.9361 36.0629 20.1746 36.1747 20.3504C36.2866 20.5262 36.4384 20.625 36.5966 20.625Z" fill="url(#paint6_linear_4_310)"/>
</g>
<defs>
<linearGradient id="paint0_linear_4_310" x1="25.3543" y1="3.97553" x2="27.1769" y2="3.52348" gradientUnits="userSpaceOnUse">
<stop stop-color="#EE2A7B"/>
<stop offset="1" stop-color="#9D1F5D"/>
</linearGradient>
<linearGradient id="paint1_linear_4_310" x1="32.8543" y1="3.97553" x2="34.6769" y2="3.52348" gradientUnits="userSpaceOnUse">
<stop stop-color="#EE2A7B"/>
<stop offset="1" stop-color="#9D1F5D"/>
</linearGradient>
<linearGradient id="paint2_linear_4_310" x1="1.33712" y1="37.2169" x2="59.6596" y2="22.7515" gradientUnits="userSpaceOnUse">
<stop stop-color="#EE2A7B"/>
<stop offset="1" stop-color="#9D1F5D"/>
</linearGradient>
<linearGradient id="paint3_linear_4_310" x1="5.06356" y1="46.163" x2="7.97394" y2="39.6664" gradientUnits="userSpaceOnUse">
<stop stop-color="#EE2A7B"/>
<stop offset="1" stop-color="#9D1F5D"/>
</linearGradient>
<linearGradient id="paint4_linear_4_310" x1="5.14713" y1="42.413" x2="7.66762" y2="35.5365" gradientUnits="userSpaceOnUse">
<stop stop-color="#EE2A7B"/>
<stop offset="1" stop-color="#9D1F5D"/>
</linearGradient>
<linearGradient id="paint5_linear_4_310" x1="36.3928" y1="16.163" x2="39.2187" y2="9.5747" gradientUnits="userSpaceOnUse">
<stop stop-color="#EE2A7B"/>
<stop offset="1" stop-color="#9D1F5D"/>
</linearGradient>
<linearGradient id="paint6_linear_4_310" x1="36.2925" y1="19.913" x2="39.6662" y2="14.0558" gradientUnits="userSpaceOnUse">
<stop stop-color="#EE2A7B"/>
<stop offset="1" stop-color="#9D1F5D"/>
</linearGradient>
<clipPath id="clip0_4_310">
<rect width="60" height="60" fill="white"/>
</clipPath>
</defs>
</svg>
