<svg width="60" height="60" viewBox="0 0 60 60" fill="none" xmlns="http://www.w3.org/2000/svg">
<g clip-path="url(#clip0_4_396)">
<path d="M54.9282 40.8281C56.4169 37.4156 57.1853 33.7325 57.1853 30.0094C57.1853 26.2862 56.4169 22.6032 54.9282 19.1906C63.9938 13.8375 60.0844 0 49.6875 0C47.8976 0.00386666 46.1396 0.473529 44.5862 1.3628C43.0329 2.25207 41.7377 3.53033 40.8282 5.07187C37.4129 3.58102 33.7265 2.81149 30 2.81149C26.2735 2.81149 22.5872 3.58102 19.1719 5.07187C18.2623 3.53033 16.9672 2.25207 15.4138 1.3628C13.8605 0.473529 12.1024 0.00386666 10.3125 0C-0.0937214 0 -3.97497 13.8469 5.06253 19.1906C3.57379 22.6032 2.80538 26.2862 2.80538 30.0094C2.80538 33.7325 3.57379 37.4156 5.06253 40.8281C3.68269 41.613 2.50266 42.7057 1.61436 44.0214C0.726055 45.337 0.153467 46.8399 -0.0588082 48.4131C-0.271083 49.9862 -0.117313 51.5872 0.390524 53.0912C0.898361 54.5952 1.74655 55.9616 2.86903 57.0841C3.99151 58.2066 5.35798 59.0548 6.86198 59.5626C8.36598 60.0705 9.96692 60.2242 11.5401 60.012C13.1133 59.7997 14.6162 59.2271 15.9318 58.3388C17.2474 57.4505 18.3402 56.2705 19.125 54.8906C22.5403 56.3815 26.2267 57.151 29.9532 57.151C33.6797 57.151 37.366 56.3815 40.7813 54.8906C46.1438 63.8906 60 60.15 60 49.6875C59.9962 47.8976 59.5265 46.1396 58.6372 44.5862C57.748 43.0329 56.4697 41.7377 54.9282 40.8281ZM44.7188 17.1094L44.9719 16.35C45.3055 15.3639 45.9399 14.5071 46.7857 13.9003C47.6316 13.2934 48.6465 12.9671 49.6875 12.9671C50.7286 12.9671 51.7434 13.2934 52.5893 13.9003C53.4352 14.5071 54.0696 15.3639 54.4032 16.35L54.6563 17.1C53.2186 18.1641 51.4777 18.7392 49.6891 18.7409C47.9005 18.7426 46.1584 18.1708 44.7188 17.1094ZM47.2125 8.60625V7.75313C47.2125 7.09671 47.4733 6.46719 47.9374 6.00304C48.4016 5.53888 49.0311 5.27813 49.6875 5.27813C50.3439 5.27813 50.9735 5.53888 51.4376 6.00304C51.9018 6.46719 52.1625 7.09671 52.1625 7.75313V8.60625C52.1625 9.26266 51.9018 9.89219 51.4376 10.3563C50.9735 10.8205 50.3439 11.0812 49.6875 11.0812C49.0311 11.0812 48.4016 10.8205 47.9374 10.3563C47.4733 9.89219 47.2125 9.26266 47.2125 8.60625ZM49.6875 1.875C51.2906 1.87596 52.8603 2.33358 54.2127 3.1943C55.5651 4.05501 56.6443 5.28319 57.324 6.73505C58.0037 8.18691 58.2558 9.80236 58.0506 11.3923C57.8455 12.9822 57.1916 14.4807 56.1657 15.7125C55.8726 14.8547 55.4116 14.064 54.8096 13.3863C54.2076 12.7087 53.4767 12.1577 52.6594 11.7656C53.1842 11.2492 53.5818 10.618 53.821 9.92167C54.0601 9.22535 54.1343 8.48299 54.0375 7.75313C54.0375 6.59943 53.5792 5.49299 52.7634 4.67721C51.9477 3.86143 50.8412 3.40313 49.6875 3.40313C48.5338 3.40313 47.4274 3.86143 46.6116 4.67721C45.7958 5.49299 45.3375 6.59943 45.3375 7.75313C45.3375 9.12188 45.3375 10.4438 46.7157 11.7656C45.8993 12.159 45.1691 12.7104 44.5672 13.3879C43.9654 14.0654 43.5039 14.8555 43.2094 15.7125C42.1834 14.4807 41.5296 12.9822 41.3244 11.3923C41.1193 9.80236 41.3713 8.18691 42.051 6.73505C42.7307 5.28319 43.81 4.05501 45.1624 3.1943C46.5148 2.33358 48.0844 1.87596 49.6875 1.875ZM10.3125 1.875C11.9139 1.87743 13.4815 2.33554 14.8322 3.19579C16.183 4.05604 17.261 5.28291 17.9403 6.73306C18.6197 8.1832 18.8723 9.79673 18.6687 11.3851C18.4652 12.9735 17.8138 14.4712 16.7907 15.7031C16.4961 14.8473 16.0344 14.0586 15.4325 13.3827C14.8306 12.7067 14.1004 12.1571 13.2844 11.7656C13.8092 11.2492 14.2068 10.618 14.446 9.92167C14.6851 9.22535 14.7593 8.48299 14.6625 7.75313C14.6625 6.59943 14.2042 5.49299 13.3884 4.67721C12.5727 3.86143 11.4662 3.40313 10.3125 3.40313C9.15884 3.40313 8.0524 3.86143 7.23662 4.67721C6.42083 5.49299 5.96253 6.59943 5.96253 7.75313C5.96253 9.12188 5.96253 10.4438 7.34065 11.7656C6.52461 12.1571 5.79445 12.7067 5.19255 13.3827C4.59065 14.0586 4.129 14.8473 3.8344 15.7031C2.81129 14.4712 2.15989 12.9735 1.95631 11.3851C1.75274 9.79673 2.00538 8.1832 2.68474 6.73306C3.36409 5.28291 4.4421 4.05604 5.79281 3.19579C7.14352 2.33554 8.71114 1.87743 10.3125 1.875ZM5.3344 17.1187L5.62503 16.35C5.95862 15.3639 6.59298 14.5071 7.43887 13.9003C8.28476 13.2934 9.29961 12.9671 10.3407 12.9671C11.3817 12.9671 12.3965 13.2934 13.2424 13.9003C14.0883 14.5071 14.7227 15.3639 15.0563 16.35L15.3188 17.1094C13.8721 18.1732 12.1238 18.7477 10.3281 18.7494C8.53244 18.7511 6.78305 18.1798 5.3344 17.1187ZM7.83753 8.60625V7.75313C7.83753 7.09671 8.09829 6.46719 8.56244 6.00304C9.02659 5.53888 9.65612 5.27813 10.3125 5.27813C10.9689 5.27813 11.5985 5.53888 12.0626 6.00304C12.5268 6.46719 12.7875 7.09671 12.7875 7.75313V8.60625C12.7875 9.26266 12.5268 9.89219 12.0626 10.3563C11.5985 10.8205 10.9689 11.0812 10.3125 11.0812C9.65612 11.0812 9.02659 10.8205 8.56244 10.3563C8.09829 9.89219 7.83753 9.26266 7.83753 8.60625ZM7.83753 47.9813V47.1281C7.83753 46.4717 8.09829 45.8422 8.56244 45.378C9.02659 44.9139 9.65612 44.6531 10.3125 44.6531C10.9689 44.6531 11.5985 44.9139 12.0626 45.378C12.5268 45.8422 12.7875 46.4717 12.7875 47.1281V47.9813C12.7875 48.6377 12.5268 49.2672 12.0626 49.7313C11.5985 50.1955 10.9689 50.4562 10.3125 50.4562C9.65612 50.4562 9.02659 50.1955 8.56244 49.7313C8.09829 49.2672 7.83753 48.6377 7.83753 47.9813ZM5.34378 56.4844L5.62503 55.725C5.95862 54.7388 6.59298 53.8821 7.43887 53.2753C8.28476 52.6684 9.29961 52.3421 10.3407 52.3421C11.3817 52.3421 12.3965 52.6684 13.2424 53.2753C14.0883 53.8821 14.7227 54.7388 15.0563 55.725L15.3094 56.475C13.8698 57.5471 12.1231 58.1269 10.3281 58.1286C8.53318 58.1303 6.78542 57.5538 5.34378 56.4844ZM16.7907 55.0875C16.4976 54.2297 16.0366 53.439 15.4346 52.7613C14.8326 52.0837 14.1017 51.5327 13.2844 51.1406C13.8092 50.6242 14.2068 49.993 14.446 49.2967C14.6851 48.6003 14.7593 47.858 14.6625 47.1281C14.6625 45.9744 14.2042 44.868 13.3884 44.0522C12.5727 43.2364 11.4662 42.7781 10.3125 42.7781C9.15884 42.7781 8.0524 43.2364 7.23662 44.0522C6.42083 44.868 5.96253 45.9744 5.96253 47.1281C5.96253 48.4969 5.96253 49.8187 7.34065 51.1406C6.52429 51.534 5.79406 52.0854 5.19222 52.7629C4.59037 53.4404 4.12886 54.2305 3.8344 55.0875C2.80658 53.8558 2.15116 52.3567 1.945 50.7658C1.73883 49.1749 1.99046 47.5583 2.67038 46.1053C3.3503 44.6523 4.43033 43.4233 5.78387 42.5623C7.13741 41.7013 8.70835 41.244 10.3125 41.244C11.9167 41.244 13.4877 41.7013 14.8412 42.5623C16.1947 43.4233 17.2748 44.6523 17.9547 46.1053C18.6346 47.5583 18.8862 49.1749 18.6801 50.7658C18.4739 52.3567 17.8185 53.8558 16.7907 55.0875ZM19.9782 53.2125C20.65 51.3677 20.7812 49.3694 20.3564 47.4526C19.9317 45.5357 18.9685 43.78 17.5802 42.3917C16.1919 41.0034 14.4362 40.0402 12.5193 39.6155C10.6025 39.1907 8.60423 39.3219 6.7594 39.9938C5.39126 36.8314 4.68542 33.4222 4.68542 29.9766C4.68542 26.5309 5.39126 23.1218 6.7594 19.9594C8.60227 20.6288 10.5978 20.759 12.512 20.3347C14.4262 19.9104 16.1798 18.9492 17.5672 17.5638C18.9546 16.1784 19.9183 14.4261 20.3453 12.5125C20.7723 10.5989 20.645 8.60319 19.9782 6.75938C23.1421 5.39099 26.5528 4.68504 30 4.68504C33.4472 4.68504 36.8579 5.39099 40.0219 6.75938C39.3476 8.6047 39.2144 10.6043 39.638 12.5227C40.0617 14.4412 41.0246 16.1987 42.4133 17.5884C43.802 18.9782 45.5589 19.9423 47.477 20.3673C49.3952 20.7923 51.3949 20.6605 53.2407 19.9875C54.6088 23.1499 55.3146 26.559 55.3146 30.0047C55.3146 33.4503 54.6088 36.8595 53.2407 40.0219C51.3958 39.35 49.3976 39.2188 47.4807 39.6436C45.5639 40.0684 43.8081 41.0315 42.4198 42.4198C41.0315 43.8081 40.0684 45.5638 39.6436 47.4807C39.2188 49.3975 39.3501 51.3958 40.0219 53.2406C36.8579 54.609 33.4472 55.315 30 55.315C26.5528 55.315 23.1421 54.609 19.9782 53.2406V53.2125ZM47.2125 47.9531V47.1C47.2125 46.4436 47.4733 45.8141 47.9374 45.3499C48.4016 44.8858 49.0311 44.625 49.6875 44.625C50.3439 44.625 50.9735 44.8858 51.4376 45.3499C51.9018 45.8141 52.1625 46.4436 52.1625 47.1V47.9531C52.1625 48.6095 51.9018 49.2391 51.4376 49.7032C50.9735 50.1674 50.3439 50.4281 49.6875 50.4281C49.0311 50.4281 48.4016 50.1674 47.9374 49.7032C47.4733 49.2391 47.2125 48.6095 47.2125 47.9531ZM44.7188 56.4844L44.9719 55.725C45.3055 54.7388 45.9399 53.8821 46.7857 53.2753C47.6316 52.6684 48.6465 52.3421 49.6875 52.3421C50.7286 52.3421 51.7434 52.6684 52.5893 53.2753C53.4352 53.8821 54.0696 54.7388 54.4032 55.725L54.6563 56.475C53.2192 57.5405 51.4781 58.1165 49.6891 58.1182C47.9001 58.1199 46.1578 57.5472 44.7188 56.4844ZM56.1657 55.0875C55.8726 54.2297 55.4116 53.439 54.8096 52.7613C54.2076 52.0837 53.4767 51.5327 52.6594 51.1406C53.1842 50.6242 53.5818 49.993 53.821 49.2967C54.0601 48.6003 54.1343 47.858 54.0375 47.1281C54.0375 45.9744 53.5792 44.868 52.7634 44.0522C51.9477 43.2364 50.8412 42.7781 49.6875 42.7781C48.5338 42.7781 47.4274 43.2364 46.6116 44.0522C45.7958 44.868 45.3375 45.9744 45.3375 47.1281C45.3375 48.4969 45.3375 49.8187 46.7157 51.1406C45.8993 51.534 45.1691 52.0854 44.5672 52.7629C43.9654 53.4404 43.5039 54.2305 43.2094 55.0875C42.1816 53.8558 41.5262 52.3567 41.32 50.7658C41.1138 49.1749 41.3655 47.5583 42.0454 46.1053C42.7253 44.6523 43.8053 43.4233 45.1589 42.5623C46.5124 41.7013 48.0833 41.244 49.6875 41.244C51.2917 41.244 52.8627 41.7013 54.2162 42.5623C55.5697 43.4233 56.6498 44.6523 57.3297 46.1053C58.0096 47.5583 58.2612 49.1749 58.0551 50.7658C57.8489 52.3567 57.1935 53.8558 56.1657 55.0875Z" fill="#9ECC3B"/>
<path d="M30 17.8125C27.5895 17.8125 25.2332 18.5273 23.229 19.8665C21.2248 21.2056 19.6627 23.1091 18.7402 25.336C17.8178 27.563 17.5764 30.0135 18.0467 32.3777C18.5169 34.7418 19.6777 36.9134 21.3821 38.6179C23.0866 40.3223 25.2582 41.4831 27.6223 41.9533C29.9865 42.4236 32.437 42.1822 34.664 41.2598C36.8909 40.3373 38.7944 38.7752 40.1335 36.771C41.4727 34.7668 42.1875 32.4105 42.1875 30C42.1875 26.7677 40.9035 23.6677 38.6179 21.3821C36.3323 19.0965 33.2323 17.8125 30 17.8125ZM30 40.3125C27.9604 40.3125 25.9666 39.7077 24.2707 38.5745C22.5748 37.4414 21.253 35.8308 20.4725 33.9464C19.692 32.0621 19.4877 29.9886 19.8857 27.9881C20.2836 25.9877 21.2657 24.1502 22.708 22.708C24.1502 21.2657 25.9877 20.2836 27.9881 19.8857C29.9886 19.4877 32.0621 19.692 33.9464 20.4725C35.8308 21.253 37.4414 22.5748 38.5745 24.2707C39.7077 25.9666 40.3125 27.9604 40.3125 30C40.3125 32.735 39.226 35.3581 37.292 37.292C35.3581 39.226 32.735 40.3125 30 40.3125Z" fill="#9ECC3B"/>
<path d="M29.0625 27.1875H32.8125C33.0611 27.1875 33.2996 27.0887 33.4754 26.9129C33.6512 26.7371 33.75 26.4986 33.75 26.25C33.75 26.0014 33.6512 25.7629 33.4754 25.5871C33.2996 25.4113 33.0611 25.3125 32.8125 25.3125H30.9375V24.375C30.9375 24.1264 30.8387 23.8879 30.6629 23.7121C30.4871 23.5363 30.2486 23.4375 30 23.4375C29.7514 23.4375 29.5129 23.5363 29.3371 23.7121C29.1613 23.8879 29.0625 24.1264 29.0625 24.375V25.3125C28.3166 25.3125 27.6012 25.6088 27.0738 26.1363C26.5463 26.6637 26.25 27.3791 26.25 28.125C26.25 28.8709 26.5463 29.5863 27.0738 30.1137C27.6012 30.6412 28.3166 30.9375 29.0625 30.9375H30.9375C31.1861 30.9375 31.4246 31.0363 31.6004 31.2121C31.7762 31.3879 31.875 31.6264 31.875 31.875C31.875 32.1236 31.7762 32.3621 31.6004 32.5379C31.4246 32.7137 31.1861 32.8125 30.9375 32.8125H27.1875C26.9389 32.8125 26.7004 32.9113 26.5246 33.0871C26.3488 33.2629 26.25 33.5014 26.25 33.75C26.25 33.9986 26.3488 34.2371 26.5246 34.4129C26.7004 34.5887 26.9389 34.6875 27.1875 34.6875H29.0625V35.625C29.0625 35.8736 29.1613 36.1121 29.3371 36.2879C29.5129 36.4637 29.7514 36.5625 30 36.5625C30.2486 36.5625 30.4871 36.4637 30.6629 36.2879C30.8387 36.1121 30.9375 35.8736 30.9375 35.625V34.6875C31.6834 34.6875 32.3988 34.3912 32.9262 33.8637C33.4537 33.3363 33.75 32.6209 33.75 31.875C33.75 31.1291 33.4537 30.4137 32.9262 29.8863C32.3988 29.3588 31.6834 29.0625 30.9375 29.0625H29.0625C28.8139 29.0625 28.5754 28.9637 28.3996 28.7879C28.2238 28.6121 28.125 28.3736 28.125 28.125C28.125 27.8764 28.2238 27.6379 28.3996 27.4621C28.5754 27.2863 28.8139 27.1875 29.0625 27.1875Z" fill="#9ECC3B"/>
</g>
<defs>
<clipPath id="clip0_4_396">
<rect width="60" height="60" fill="white"/>
</clipPath>
</defs>
</svg>
