<svg width="60" height="60" viewBox="0 0 60 60" fill="none" xmlns="http://www.w3.org/2000/svg">
<g clip-path="url(#clip0_4_218)">
<path d="M58.8469 53.9813C58.4631 52.2938 57.6608 50.7301 56.514 49.4342C55.3671 48.1383 53.9126 47.1518 52.2844 46.5656C54.6375 44.6906 54.3844 42.3469 54.3844 40.3125C54.3844 38.8207 53.7918 37.3899 52.7369 36.335C51.682 35.2801 50.2512 34.6875 48.7594 34.6875C47.2676 34.6875 45.8368 35.2801 44.7819 36.335C43.727 37.3899 43.1344 38.8207 43.1344 40.3125C43.1344 42.4125 42.8813 44.6625 45.225 46.5562C43.157 47.2982 41.3823 48.6851 40.1625 50.5125C39.5274 49.1735 38.6339 47.9732 37.5334 46.9805C36.433 45.9878 35.1472 45.2224 33.75 44.7281C36.7594 42.5906 36.5625 39.7219 36.5625 37.5C36.5625 35.7595 35.8711 34.0903 34.6404 32.8596C33.4097 31.6289 31.7405 30.9375 30 30.9375C28.2595 30.9375 26.5903 31.6289 25.3596 32.8596C24.1289 34.0903 23.4375 35.7595 23.4375 37.5C23.4375 39.5813 23.1188 42.525 26.25 44.7281C24.8581 45.2288 23.5785 45.9991 22.4846 46.9948C21.3907 47.9906 20.5039 49.1923 19.875 50.5313C18.6608 48.6967 16.8845 47.3053 14.8125 46.5656C17.1656 44.6906 16.9125 42.3469 16.9125 40.3125C16.9125 38.8157 16.3179 37.3802 15.2595 36.3218C14.2011 35.2634 12.7656 34.6687 11.2688 34.6687C9.77196 34.6687 8.33645 35.2634 7.27804 36.3218C6.21963 37.3802 5.62502 38.8157 5.62502 40.3125C5.62502 42.45 5.38127 44.6625 7.70627 46.5562C6.07693 47.1433 4.62166 48.1312 3.47474 49.4289C2.32782 50.7265 1.52617 52.2921 1.14377 53.9813L2.30707e-05 58.8562C-0.0546778 59.1049 -0.00836628 59.3651 0.12877 59.5796C0.265906 59.7941 0.482633 59.9453 0.731273 60C0.979914 60.0547 1.2401 60.0084 1.45459 59.8713C1.66909 59.7341 1.82032 59.5174 1.87502 59.2688L2.9719 54.375C3.37974 52.6373 4.32468 51.0722 5.67253 49.902C7.02038 48.7318 8.70264 48.0159 10.4804 47.8561C12.2582 47.6963 14.0412 48.1006 15.5761 49.0116C17.1111 49.9227 18.32 51.2941 19.0313 52.9312C18.9656 53.2219 19.2281 51.8906 17.8313 58.875C17.7815 59.1236 17.8326 59.3819 17.9733 59.5928C18.1139 59.8038 18.3326 59.9503 18.5813 60C18.8299 60.0497 19.0881 59.9986 19.2991 59.858C19.5101 59.7173 19.6565 59.4986 19.7063 59.25L20.8313 53.4375C21.2791 51.338 22.4339 49.4557 24.1027 48.1053C25.7715 46.7549 27.8533 46.0182 30 46.0182C32.1468 46.0182 34.2285 46.7549 35.8973 48.1053C37.5661 49.4557 38.7209 51.338 39.1688 53.4375L40.3125 59.25C40.3623 59.4986 40.5087 59.7173 40.7197 59.858C40.9307 59.9986 41.1889 60.0497 41.4375 60C41.6862 59.9503 41.9049 59.8038 42.0455 59.5928C42.1862 59.3819 42.2373 59.1236 42.1875 58.875C40.7625 51.7594 41.0438 53.1844 40.9969 52.9406C44.2594 45.3469 55.2469 46.5094 57.0469 54.3938L58.1719 59.2688C58.2329 59.5046 58.3833 59.7074 58.5912 59.8342C58.7991 59.9611 59.0483 60.0021 59.2859 59.9485C59.5235 59.8948 59.7309 59.7509 59.8642 59.547C59.9975 59.3431 60.0462 59.0954 60 58.8562L58.8469 53.9813ZM7.50002 42.1875V40.3125C7.50002 39.3179 7.89511 38.3641 8.59837 37.6609C9.30163 36.9576 10.2555 36.5625 11.25 36.5625C12.2446 36.5625 13.1984 36.9576 13.9017 37.6609C14.6049 38.3641 15 39.3179 15 40.3125V42.1875C15 43.1821 14.6049 44.1359 13.9017 44.8391C13.1984 45.5424 12.2446 45.9375 11.25 45.9375C10.2555 45.9375 9.30163 45.5424 8.59837 44.8391C7.89511 44.1359 7.50002 43.1821 7.50002 42.1875ZM25.3125 39.375V37.5C25.3125 36.2568 25.8064 35.0645 26.6855 34.1854C27.5645 33.3064 28.7568 32.8125 30 32.8125C31.2432 32.8125 32.4355 33.3064 33.3146 34.1854C34.1937 35.0645 34.6875 36.2568 34.6875 37.5V39.375C34.6875 40.6182 34.1937 41.8105 33.3146 42.6896C32.4355 43.5686 31.2432 44.0625 30 44.0625C28.7568 44.0625 27.5645 43.5686 26.6855 42.6896C25.8064 41.8105 25.3125 40.6182 25.3125 39.375ZM45 42.1875V40.3125C45 39.3179 45.3951 38.3641 46.0984 37.6609C46.8016 36.9576 47.7555 36.5625 48.75 36.5625C49.7446 36.5625 50.6984 36.9576 51.4017 37.6609C52.1049 38.3641 52.5 39.3179 52.5 40.3125V42.1875C52.5 43.1821 52.1049 44.1359 51.4017 44.8391C50.6984 45.5424 49.7446 45.9375 48.75 45.9375C47.7555 45.9375 46.8016 45.5424 46.0984 44.8391C45.3951 44.1359 45 43.1821 45 42.1875Z" fill="url(#paint0_linear_4_218)"/>
<path d="M56.25 0H3.75C2.75544 0 1.80161 0.395088 1.09835 1.09835C0.395088 1.80161 0 2.75544 0 3.75L0 16.875C0 17.8696 0.395088 18.8234 1.09835 19.5266C1.80161 20.2299 2.75544 20.625 3.75 20.625H25.7062L29.1844 26.7188C29.2661 26.863 29.3847 26.983 29.528 27.0665C29.6713 27.15 29.8342 27.194 30 27.194C30.1658 27.194 30.3287 27.15 30.472 27.0665C30.6153 26.983 30.7339 26.863 30.8156 26.7188L34.2938 20.625H56.25C57.2446 20.625 58.1984 20.2299 58.9016 19.5266C59.6049 18.8234 60 17.8696 60 16.875V3.75C60 2.75544 59.6049 1.80161 58.9016 1.09835C58.1984 0.395088 57.2446 0 56.25 0V0ZM58.125 16.875C58.125 17.3723 57.9275 17.8492 57.5758 18.2008C57.2242 18.5525 56.7473 18.75 56.25 18.75H33.75C33.0187 18.75 33.1594 18.8344 30 24.375C26.8406 18.8531 26.9813 18.75 26.25 18.75H3.75C3.25272 18.75 2.77581 18.5525 2.42417 18.2008C2.07254 17.8492 1.875 17.3723 1.875 16.875V3.75C1.875 3.25272 2.07254 2.77581 2.42417 2.42417C2.77581 2.07254 3.25272 1.875 3.75 1.875H56.25C56.7473 1.875 57.2242 2.07254 57.5758 2.42417C57.9275 2.77581 58.125 3.25272 58.125 3.75V16.875Z" fill="url(#paint1_linear_4_218)"/>
<path d="M30 5.39999C25.2657 2.21249 18.225 10.1531 29.5782 15.8344C29.709 15.9003 29.8535 15.9347 30 15.9347C30.1466 15.9347 30.2911 15.9003 30.4219 15.8344C41.7 10.1906 34.8 2.16562 30 5.39999ZM30 13.9406C21.3282 9.13124 26.9625 4.84687 29.3344 7.26562C29.4216 7.35349 29.5253 7.42323 29.6395 7.47083C29.7537 7.51843 29.8763 7.54293 30 7.54293C30.1238 7.54293 30.2463 7.51843 30.3606 7.47083C30.4748 7.42323 30.5785 7.35349 30.6657 7.26562C33.0469 4.84687 38.6813 9.12187 30 13.9406Z" fill="url(#paint2_linear_4_218)"/>
<path d="M16.1344 8.27813L13.2094 7.87501L11.9157 5.21251C11.8389 5.054 11.719 4.92033 11.5698 4.8268C11.4206 4.73326 11.248 4.68365 11.0719 4.68365C10.8958 4.68365 10.7232 4.73326 10.574 4.8268C10.4248 4.92033 10.3049 5.054 10.2282 5.21251L8.93441 7.87501C6.27191 8.24063 5.51254 8.12813 5.25004 8.91563C4.98754 9.70313 5.46566 9.85313 7.62191 11.925C7.13441 14.6531 6.82504 15.2813 7.47191 15.7594C8.11879 16.2375 8.40941 15.8438 11.0719 14.4375C13.8094 15.9375 13.7813 15.9375 14.1188 15.9375C14.2565 15.9395 14.393 15.9111 14.5186 15.8544C14.6441 15.7977 14.7556 15.7139 14.8451 15.6092C14.9346 15.5045 15 15.3813 15.0365 15.2485C15.0729 15.1156 15.0797 14.9764 15.0563 14.8406L14.5407 11.925L16.6688 9.88126C16.7956 9.75835 16.8851 9.60214 16.927 9.43061C16.9689 9.25908 16.9615 9.0792 16.9056 8.91169C16.8498 8.74418 16.7478 8.59584 16.6113 8.48375C16.4749 8.37167 16.3096 8.30039 16.1344 8.27813ZM12.8532 13.2656C10.7907 12.1594 11.3625 12.1594 9.29066 13.2656C9.69379 10.9594 9.86254 11.4844 8.18441 9.87188C10.5094 9.54376 10.0594 9.87188 11.0719 7.77188C12.0938 9.87188 11.6438 9.54376 13.9594 9.87188C12.2625 11.5031 12.45 10.9688 12.8532 13.2656Z" fill="url(#paint3_linear_4_218)"/>
<path d="M51.5625 8.4375H50.8875L51.0844 7.66875C51.1709 7.31462 51.1759 6.94548 51.0991 6.58912C51.0223 6.23277 50.8656 5.89849 50.6409 5.61147C50.4161 5.32444 50.1292 5.09216 49.8017 4.93212C49.4741 4.77207 49.1145 4.68843 48.75 4.6875C47.9906 4.6875 47.9812 5.0625 46.3312 8.3625C46.1788 8.68368 46.0715 9.02441 46.0125 9.375H43.125C42.8764 9.375 42.6379 9.47377 42.4621 9.64959C42.2863 9.8254 42.1875 10.0639 42.1875 10.3125V15C42.1875 15.2486 42.2863 15.4871 42.4621 15.6629C42.6379 15.8387 42.8764 15.9375 43.125 15.9375H50.3625C50.946 15.9397 51.5157 15.7605 51.9927 15.4245C52.4698 15.0886 52.8305 14.6126 53.025 14.0625C53.4025 12.8507 53.5426 11.5774 53.4375 10.3125C53.4375 9.81522 53.24 9.33831 52.8883 8.98667C52.5367 8.63504 52.0598 8.4375 51.5625 8.4375ZM44.0625 11.25H45.9375V14.0625H44.0625V11.25ZM50.3625 14.0625H47.8125C47.8125 8.7 47.4844 10.2469 49.2 6.81562C49.5562 7.40625 48.3187 9.15 48.9469 9.95625C49.3125 10.4156 49.6406 10.3125 51.5625 10.3125C51.5625 11.6531 51.7125 14.0625 50.3625 14.0625Z" fill="url(#paint4_linear_4_218)"/>
</g>
<defs>
<linearGradient id="paint0_linear_4_218" x1="1.31258" y1="48.9865" x2="50.4024" y2="23.8869" gradientUnits="userSpaceOnUse">
<stop stop-color="#F26A21"/>
<stop offset="1" stop-color="#D42C70"/>
</linearGradient>
<linearGradient id="paint1_linear_4_218" x1="1.33411" y1="16.8756" x2="48.9854" y2="-9.16557" gradientUnits="userSpaceOnUse">
<stop stop-color="#F26A21"/>
<stop offset="1" stop-color="#D42C70"/>
</linearGradient>
<linearGradient id="paint2_linear_4_218" x1="23.749" y1="11.6552" x2="36.2027" y2="8.08068" gradientUnits="userSpaceOnUse">
<stop stop-color="#F26A21"/>
<stop offset="1" stop-color="#D42C70"/>
</linearGradient>
<linearGradient id="paint3_linear_4_218" x1="5.44644" y1="11.6771" x2="16.8235" y2="8.73427" gradientUnits="userSpaceOnUse">
<stop stop-color="#F26A21"/>
<stop offset="1" stop-color="#D42C70"/>
</linearGradient>
<linearGradient id="paint4_linear_4_218" x1="42.4384" y1="11.6688" x2="53.3998" y2="8.94565" gradientUnits="userSpaceOnUse">
<stop stop-color="#F26A21"/>
<stop offset="1" stop-color="#D42C70"/>
</linearGradient>
<clipPath id="clip0_4_218">
<rect width="60" height="60" fill="white"/>
</clipPath>
</defs>
</svg>
