<svg width="60" height="60" viewBox="0 0 60 60" fill="none" xmlns="http://www.w3.org/2000/svg">
<g clip-path="url(#clip0_4_336)">
<path d="M26.25 4.6875C26.4986 4.6875 26.7371 4.58873 26.9129 4.41291C27.0887 4.2371 27.1875 3.99864 27.1875 3.75C27.1875 3.50136 27.0887 3.2629 26.9129 3.08709C26.7371 2.91127 26.4986 2.8125 26.25 2.8125C26.0014 2.8125 25.7629 2.91127 25.5871 3.08709C25.4113 3.2629 25.3125 3.50136 25.3125 3.75C25.3125 3.99864 25.4113 4.2371 25.5871 4.41291C25.7629 4.58873 26.0014 4.6875 26.25 4.6875Z" fill="url(#paint0_linear_4_336)"/>
<path d="M33.75 4.6875C33.9986 4.6875 34.2371 4.58873 34.4129 4.41291C34.5887 4.2371 34.6875 3.99864 34.6875 3.75C34.6875 3.50136 34.5887 3.2629 34.4129 3.08709C34.2371 2.91127 33.9986 2.8125 33.75 2.8125C33.5014 2.8125 33.2629 2.91127 33.0871 3.08709C32.9113 3.2629 32.8125 3.50136 32.8125 3.75C32.8125 3.99864 32.9113 4.2371 33.0871 4.41291C33.2629 4.58873 33.5014 4.6875 33.75 4.6875Z" fill="url(#paint1_linear_4_336)"/>
<path d="M27.4031 43.2469C27.1219 43.4156 27.1875 43.4438 27.1875 43.125C27.1875 42.8764 27.0887 42.6379 26.9129 42.4621C26.7371 42.2863 26.4986 42.1875 26.25 42.1875C26.0013 42.1875 25.7629 42.2863 25.5871 42.4621C25.4113 42.6379 25.3125 42.8764 25.3125 43.125C25.3125 43.4531 25.3687 43.4063 25.0969 43.2469C24.9897 43.1853 24.8716 43.1455 24.749 43.1296C24.6265 43.1137 24.5021 43.1221 24.3828 43.1543C24.2636 43.1865 24.1518 43.2419 24.0539 43.3173C23.9561 43.3927 23.874 43.4866 23.8125 43.5938C23.7509 43.7009 23.7111 43.819 23.6952 43.9416C23.6793 44.0641 23.6877 44.1885 23.7199 44.3078C23.7521 44.427 23.8075 44.5388 23.8829 44.6367C23.9583 44.7345 24.0522 44.8166 24.1594 44.8781C24.4406 45.0375 24.4312 44.9625 24.1594 45.1219C24.0522 45.1834 23.9583 45.2655 23.8829 45.3633C23.8075 45.4612 23.7521 45.573 23.7199 45.6922C23.6877 45.8115 23.6793 45.9359 23.6952 46.0584C23.7111 46.181 23.7509 46.2991 23.8125 46.4062C23.874 46.5134 23.9561 46.6073 24.0539 46.6827C24.1518 46.7581 24.2636 46.8135 24.3828 46.8457C24.5021 46.8779 24.6265 46.8863 24.749 46.8704C24.8716 46.8545 24.9897 46.8147 25.0969 46.7531C25.3781 46.5844 25.3125 46.5563 25.3125 46.875C25.3125 47.1236 25.4113 47.3621 25.5871 47.5379C25.7629 47.7137 26.0013 47.8125 26.25 47.8125C26.4986 47.8125 26.7371 47.7137 26.9129 47.5379C27.0887 47.3621 27.1875 47.1236 27.1875 46.875C27.1875 46.5469 27.1312 46.5937 27.4031 46.7531C27.5102 46.8147 27.6284 46.8545 27.7509 46.8704C27.8734 46.8863 27.9979 46.8779 28.1171 46.8457C28.2364 46.8135 28.3482 46.7581 28.446 46.6827C28.5439 46.6073 28.6259 46.5134 28.6875 46.4062C28.749 46.2991 28.7889 46.181 28.8048 46.0584C28.8207 45.9359 28.8123 45.8115 28.78 45.6922C28.7478 45.573 28.6924 45.4612 28.617 45.3633C28.5416 45.2655 28.4477 45.1834 28.3406 45.1219C28.0594 44.9625 28.0687 45.0375 28.3406 44.8781C28.4477 44.8166 28.5416 44.7345 28.617 44.6367C28.6924 44.5388 28.7478 44.427 28.78 44.3078C28.8123 44.1885 28.8207 44.0641 28.8048 43.9416C28.7889 43.819 28.749 43.7009 28.6875 43.5938C28.6259 43.4866 28.5439 43.3927 28.446 43.3173C28.3482 43.2419 28.2364 43.1865 28.1171 43.1543C27.9979 43.1221 27.8734 43.1137 27.7509 43.1296C27.6284 43.1455 27.5102 43.1853 27.4031 43.2469Z" fill="url(#paint2_linear_4_336)"/>
<path d="M34.9031 43.2469C34.6219 43.4156 34.6875 43.4438 34.6875 43.125C34.6875 42.8764 34.5887 42.6379 34.4129 42.4621C34.2371 42.2863 33.9986 42.1875 33.75 42.1875C33.5013 42.1875 33.2629 42.2863 33.0871 42.4621C32.9113 42.6379 32.8125 42.8764 32.8125 43.125C32.8125 43.4531 32.8687 43.4063 32.5969 43.2469C32.3805 43.1226 32.1237 43.0893 31.8828 43.1543C31.642 43.2194 31.4368 43.3774 31.3125 43.5938C31.1882 43.8101 31.1549 44.0669 31.2199 44.3078C31.285 44.5486 31.443 44.7538 31.6594 44.8781C31.9406 45.0375 31.9312 44.9625 31.6594 45.1219C31.443 45.2462 31.285 45.4514 31.2199 45.6922C31.1549 45.9331 31.1882 46.1899 31.3125 46.4062C31.4368 46.6226 31.642 46.7806 31.8828 46.8457C32.1237 46.9107 32.3805 46.8774 32.5969 46.7531C32.8781 46.5844 32.8125 46.5563 32.8125 46.875C32.8125 47.1236 32.9113 47.3621 33.0871 47.5379C33.2629 47.7137 33.5013 47.8125 33.75 47.8125C33.9986 47.8125 34.2371 47.7137 34.4129 47.5379C34.5887 47.3621 34.6875 47.1236 34.6875 46.875C34.6875 46.5469 34.6312 46.5937 34.9031 46.7531C35.0102 46.8147 35.1284 46.8545 35.2509 46.8704C35.3734 46.8863 35.4979 46.8779 35.6171 46.8457C35.7364 46.8135 35.8482 46.7581 35.946 46.6827C36.0439 46.6073 36.1259 46.5134 36.1875 46.4062C36.249 46.2991 36.2889 46.181 36.3048 46.0584C36.3207 45.9359 36.3123 45.8115 36.2801 45.6922C36.2478 45.573 36.1925 45.4612 36.1171 45.3633C36.0417 45.2655 35.9477 45.1834 35.8406 45.1219C35.5594 44.9625 35.5687 45.0375 35.8406 44.8781C35.9477 44.8166 36.0417 44.7345 36.1171 44.6367C36.1925 44.5388 36.2478 44.427 36.2801 44.3078C36.3123 44.1885 36.3207 44.0641 36.3048 43.9416C36.2889 43.819 36.249 43.7009 36.1875 43.5938C36.1259 43.4866 36.0439 43.3927 35.946 43.3173C35.8482 43.2419 35.7364 43.1865 35.6171 43.1543C35.4979 43.1221 35.3734 43.1137 35.2509 43.1296C35.1284 43.1455 35.0102 43.1853 34.9031 43.2469Z" fill="url(#paint3_linear_4_336)"/>
<path d="M42.4031 43.2469C42.1219 43.4156 42.1875 43.4438 42.1875 43.125C42.1875 42.8764 42.0887 42.6379 41.9129 42.4621C41.7371 42.2863 41.4986 42.1875 41.25 42.1875C41.0013 42.1875 40.7629 42.2863 40.5871 42.4621C40.4113 42.6379 40.3125 42.8764 40.3125 43.125C40.3125 43.4531 40.3687 43.4063 40.0969 43.2469C39.8805 43.1226 39.6237 43.0893 39.3828 43.1543C39.142 43.2194 38.9368 43.3774 38.8125 43.5938C38.6882 43.8101 38.6549 44.0669 38.7199 44.3078C38.785 44.5486 38.943 44.7538 39.1594 44.8781C39.4406 45.0375 39.4312 44.9625 39.1594 45.1219C38.943 45.2462 38.785 45.4514 38.7199 45.6922C38.6549 45.9331 38.6882 46.1899 38.8125 46.4062C38.9368 46.6226 39.142 46.7806 39.3828 46.8457C39.6237 46.9107 39.8805 46.8774 40.0969 46.7531C40.3781 46.5844 40.3125 46.5563 40.3125 46.875C40.3125 47.1236 40.4113 47.3621 40.5871 47.5379C40.7629 47.7137 41.0013 47.8125 41.25 47.8125C41.4986 47.8125 41.7371 47.7137 41.9129 47.5379C42.0887 47.3621 42.1875 47.1236 42.1875 46.875C42.1875 46.5469 42.1312 46.5937 42.4031 46.7531C42.5102 46.8147 42.6284 46.8545 42.7509 46.8704C42.8734 46.8863 42.9979 46.8779 43.1171 46.8457C43.2364 46.8135 43.3482 46.7581 43.446 46.6827C43.5439 46.6073 43.6259 46.5134 43.6875 46.4062C43.749 46.2991 43.7889 46.181 43.8048 46.0584C43.8207 45.9359 43.8123 45.8115 43.7801 45.6922C43.7478 45.573 43.6925 45.4612 43.6171 45.3633C43.5417 45.2655 43.4477 45.1834 43.3406 45.1219C43.0594 44.9625 43.0687 45.0375 43.3406 44.8781C43.4477 44.8166 43.5417 44.7345 43.6171 44.6367C43.6925 44.5388 43.7478 44.427 43.7801 44.3078C43.8123 44.1885 43.8207 44.0641 43.8048 43.9416C43.7889 43.819 43.749 43.7009 43.6875 43.5938C43.6259 43.4866 43.5439 43.3927 43.446 43.3173C43.3482 43.2419 43.2364 43.1865 43.1171 43.1543C42.9979 43.1221 42.8734 43.1137 42.7509 43.1296C42.6284 43.1455 42.5102 43.1853 42.4031 43.2469Z" fill="url(#paint4_linear_4_336)"/>
<path d="M49.9031 43.2469C49.6219 43.4156 49.6875 43.4438 49.6875 43.125C49.6875 42.8764 49.5887 42.6379 49.4129 42.4621C49.2371 42.2863 48.9986 42.1875 48.75 42.1875C48.5013 42.1875 48.2629 42.2863 48.0871 42.4621C47.9113 42.6379 47.8125 42.8764 47.8125 43.125C47.8125 43.4531 47.8687 43.4063 47.5969 43.2469C47.3805 43.1226 47.1237 43.0893 46.8828 43.1543C46.642 43.2194 46.4368 43.3774 46.3125 43.5938C46.1882 43.8101 46.1549 44.0669 46.2199 44.3078C46.285 44.5486 46.443 44.7538 46.6594 44.8781C46.9406 45.0375 46.9312 44.9625 46.6594 45.1219C46.443 45.2462 46.285 45.4514 46.2199 45.6922C46.1549 45.9331 46.1882 46.1899 46.3125 46.4062C46.4368 46.6226 46.642 46.7806 46.8828 46.8457C47.1237 46.9107 47.3805 46.8774 47.5969 46.7531C47.8781 46.5844 47.8125 46.5563 47.8125 46.875C47.8125 47.1236 47.9113 47.3621 48.0871 47.5379C48.2629 47.7137 48.5013 47.8125 48.75 47.8125C48.9986 47.8125 49.2371 47.7137 49.4129 47.5379C49.5887 47.3621 49.6875 47.1236 49.6875 46.875C49.6875 46.5469 49.6312 46.5937 49.9031 46.7531C50.0102 46.8147 50.1284 46.8545 50.2509 46.8704C50.3734 46.8863 50.4979 46.8779 50.6171 46.8457C50.7364 46.8135 50.8482 46.7581 50.946 46.6827C51.0439 46.6073 51.1259 46.5134 51.1875 46.4062C51.249 46.2991 51.2889 46.181 51.3048 46.0584C51.3207 45.9359 51.3123 45.8115 51.2801 45.6922C51.2478 45.573 51.1925 45.4612 51.1171 45.3633C51.0417 45.2655 50.9477 45.1834 50.8406 45.1219C50.5594 44.9625 50.5687 45.0375 50.8406 44.8781C50.9477 44.8166 51.0417 44.7345 51.1171 44.6367C51.1925 44.5388 51.2478 44.427 51.2801 44.3078C51.3123 44.1885 51.3207 44.0641 51.3048 43.9416C51.2889 43.819 51.249 43.7009 51.1875 43.5938C51.1259 43.4866 51.0439 43.3927 50.946 43.3173C50.8482 43.2419 50.7364 43.1865 50.6171 43.1543C50.4979 43.1221 50.3734 43.1137 50.2509 43.1296C50.1284 43.1455 50.0102 43.1853 49.9031 43.2469Z" fill="url(#paint5_linear_4_336)"/>
<path d="M19.9031 43.2469C19.6219 43.4156 19.6875 43.4438 19.6875 43.125C19.6875 42.8764 19.5887 42.6379 19.4129 42.4621C19.2371 42.2863 18.9986 42.1875 18.75 42.1875C18.5013 42.1875 18.2629 42.2863 18.0871 42.4621C17.9113 42.6379 17.8125 42.8764 17.8125 43.125C17.8125 43.4531 17.8687 43.4063 17.5969 43.2469C17.4897 43.1853 17.3716 43.1455 17.249 43.1296C17.1265 43.1137 17.0021 43.1221 16.8828 43.1543C16.7636 43.1865 16.6518 43.2419 16.5539 43.3173C16.4561 43.3927 16.374 43.4866 16.3125 43.5938C16.2509 43.7009 16.2111 43.819 16.1952 43.9416C16.1793 44.0641 16.1877 44.1885 16.2199 44.3078C16.2521 44.427 16.3075 44.5388 16.3829 44.6367C16.4583 44.7345 16.5522 44.8166 16.6594 44.8781C16.9406 45.0375 16.9312 44.9625 16.6594 45.1219C16.5522 45.1834 16.4583 45.2655 16.3829 45.3633C16.3075 45.4612 16.2521 45.573 16.2199 45.6922C16.1877 45.8115 16.1793 45.9359 16.1952 46.0584C16.2111 46.181 16.2509 46.2991 16.3125 46.4062C16.374 46.5134 16.4561 46.6073 16.5539 46.6827C16.6518 46.7581 16.7636 46.8135 16.8828 46.8457C17.0021 46.8779 17.1265 46.8863 17.249 46.8704C17.3716 46.8545 17.4897 46.8147 17.5969 46.7531C17.8781 46.5844 17.8125 46.5563 17.8125 46.875C17.8125 47.1236 17.9113 47.3621 18.0871 47.5379C18.2629 47.7137 18.5013 47.8125 18.75 47.8125C18.9986 47.8125 19.2371 47.7137 19.4129 47.5379C19.5887 47.3621 19.6875 47.1236 19.6875 46.875C19.6875 46.5469 19.6312 46.5937 19.9031 46.7531C20.0102 46.8147 20.1284 46.8545 20.2509 46.8704C20.3734 46.8863 20.4979 46.8779 20.6171 46.8457C20.7364 46.8135 20.8482 46.7581 20.946 46.6827C21.0439 46.6073 21.1259 46.5134 21.1875 46.4062C21.249 46.2991 21.2889 46.181 21.3048 46.0584C21.3207 45.9359 21.3123 45.8115 21.28 45.6922C21.2478 45.573 21.1924 45.4612 21.117 45.3633C21.0416 45.2655 20.9477 45.1834 20.8406 45.1219C20.5594 44.9625 20.5687 45.0375 20.8406 44.8781C20.9477 44.8166 21.0416 44.7345 21.117 44.6367C21.1924 44.5388 21.2478 44.427 21.28 44.3078C21.3123 44.1885 21.3207 44.0641 21.3048 43.9416C21.2889 43.819 21.249 43.7009 21.1875 43.5938C21.1259 43.4866 21.0439 43.3927 20.946 43.3173C20.8482 43.2419 20.7364 43.1865 20.6171 43.1543C20.4979 43.1221 20.3734 43.1137 20.2509 43.1296C20.1284 43.1455 20.0102 43.1853 19.9031 43.2469Z" fill="url(#paint6_linear_4_336)"/>
<path d="M12.4031 43.2469C12.1219 43.4156 12.1875 43.4438 12.1875 43.125C12.1875 42.8764 12.0887 42.6379 11.9129 42.4621C11.7371 42.2863 11.4986 42.1875 11.25 42.1875C11.0013 42.1875 10.7629 42.2863 10.5871 42.4621C10.4113 42.6379 10.3125 42.8764 10.3125 43.125C10.3125 43.4531 10.3687 43.4063 10.0969 43.2469C9.98975 43.1853 9.87156 43.1455 9.74905 43.1296C9.62654 43.1137 9.50209 43.1221 9.38283 43.1543C9.26356 43.1865 9.15181 43.2419 9.05395 43.3173C8.95609 43.3927 8.87404 43.4866 8.81248 43.5938C8.75092 43.7009 8.71107 43.819 8.69518 43.9416C8.6793 44.0641 8.68771 44.1885 8.71992 44.3078C8.75213 44.427 8.80751 44.5388 8.88291 44.6367C8.95831 44.7345 9.05225 44.8166 9.15936 44.8781C9.44061 45.0375 9.43123 44.9625 9.15936 45.1219C9.05225 45.1834 8.95831 45.2655 8.88291 45.3633C8.80751 45.4612 8.75213 45.573 8.71992 45.6922C8.68771 45.8115 8.6793 45.9359 8.69518 46.0584C8.71107 46.181 8.75092 46.2991 8.81248 46.4062C8.87404 46.5134 8.95609 46.6073 9.05395 46.6827C9.15181 46.7581 9.26356 46.8135 9.38283 46.8457C9.50209 46.8779 9.62654 46.8863 9.74905 46.8704C9.87156 46.8545 9.98975 46.8147 10.0969 46.7531C10.3781 46.5844 10.3125 46.5563 10.3125 46.875C10.3125 47.1236 10.4113 47.3621 10.5871 47.5379C10.7629 47.7137 11.0013 47.8125 11.25 47.8125C11.4986 47.8125 11.7371 47.7137 11.9129 47.5379C12.0887 47.3621 12.1875 47.1236 12.1875 46.875C12.1875 46.5469 12.1312 46.5937 12.4031 46.7531C12.5102 46.8147 12.6284 46.8545 12.7509 46.8704C12.8734 46.8863 12.9979 46.8779 13.1171 46.8457C13.2364 46.8135 13.3482 46.7581 13.446 46.6827C13.5439 46.6073 13.6259 46.5134 13.6875 46.4062C13.749 46.2991 13.7889 46.181 13.8048 46.0584C13.8207 45.9359 13.8123 45.8115 13.78 45.6922C13.7478 45.573 13.6925 45.4612 13.6171 45.3633C13.5417 45.2655 13.4477 45.1834 13.3406 45.1219C13.0594 44.9625 13.0687 45.0375 13.3406 44.8781C13.4477 44.8166 13.5417 44.7345 13.6171 44.6367C13.6925 44.5388 13.7478 44.427 13.78 44.3078C13.8123 44.1885 13.8207 44.0641 13.8048 43.9416C13.7889 43.819 13.749 43.7009 13.6875 43.5938C13.6259 43.4866 13.5439 43.3927 13.446 43.3173C13.3482 43.2419 13.2364 43.1865 13.1171 43.1543C12.9979 43.1221 12.8734 43.1137 12.7509 43.1296C12.6284 43.1455 12.5102 43.1853 12.4031 43.2469Z" fill="url(#paint7_linear_4_336)"/>
<path d="M53.4375 38.4375H48.75V4.6875C48.75 3.4443 48.2561 2.25201 47.3771 1.37294C46.498 0.49386 45.3057 0 44.0625 0L15.9375 0C14.6943 0 13.502 0.49386 12.6229 1.37294C11.7439 2.25201 11.25 3.4443 11.25 4.6875V38.4375H6.5625C5.81658 38.4375 5.10121 38.7338 4.57376 39.2613C4.04632 39.7887 3.75 40.5041 3.75 41.25V48.75C3.75 49.4959 4.04632 50.2113 4.57376 50.7387C5.10121 51.2662 5.81658 51.5625 6.5625 51.5625H11.25V55.3125C11.25 56.5557 11.7439 57.748 12.6229 58.6271C13.502 59.5061 14.6943 60 15.9375 60H44.0625C45.3057 60 46.498 59.5061 47.3771 58.6271C48.2561 57.748 48.75 56.5557 48.75 55.3125V51.5625H53.4375C54.1834 51.5625 54.8988 51.2662 55.4262 50.7387C55.9537 50.2113 56.25 49.4959 56.25 48.75V41.25C56.25 40.5041 55.9537 39.7887 55.4262 39.2613C54.8988 38.7338 54.1834 38.4375 53.4375 38.4375ZM13.125 4.6875C13.125 3.94158 13.4213 3.22621 13.9488 2.69876C14.4762 2.17132 15.1916 1.875 15.9375 1.875H44.0625C44.8084 1.875 45.5238 2.17132 46.0512 2.69876C46.5787 3.22621 46.875 3.94158 46.875 4.6875V38.4375H45V4.6875C45 4.43886 44.9012 4.2004 44.7254 4.02459C44.5496 3.84877 44.3111 3.75 44.0625 3.75H37.5C37.2514 3.75 37.0129 3.84877 36.8371 4.02459C36.6613 4.2004 36.5625 4.43886 36.5625 4.6875C36.5625 4.93614 36.4637 5.1746 36.2879 5.35041C36.1121 5.52623 35.8736 5.625 35.625 5.625C23.4375 5.625 24.1031 5.74688 23.7094 5.33437C23.6217 5.25127 23.5523 5.15085 23.5055 5.0395C23.4587 4.92814 23.4355 4.80827 23.4375 4.6875C23.4375 4.43886 23.3387 4.2004 23.1629 4.02459C22.9871 3.84877 22.7486 3.75 22.5 3.75H15.9375C15.6889 3.75 15.4504 3.84877 15.2746 4.02459C15.0988 4.2004 15 4.43886 15 4.6875V38.4375H13.125V4.6875ZM33.2812 38.4375L30.75 35.0625C30.6627 34.9461 30.5494 34.8516 30.4193 34.7865C30.2891 34.7214 30.1455 34.6875 30 34.6875C29.8545 34.6875 29.7109 34.7214 29.5807 34.7865C29.4506 34.8516 29.3373 34.9461 29.25 35.0625L26.7188 38.4375H16.875V5.625H21.7219C21.9158 6.17358 22.2752 6.64851 22.7503 6.98432C23.2255 7.32014 23.7931 7.50031 24.375 7.5H35.625C36.2069 7.50031 36.7745 7.32014 37.2497 6.98432C37.7248 6.64851 38.0842 6.17358 38.2781 5.625H43.125V38.4375H33.2812ZM46.875 55.3125C46.875 56.0584 46.5787 56.7738 46.0512 57.3012C45.5238 57.8287 44.8084 58.125 44.0625 58.125H15.9375C15.1916 58.125 14.4762 57.8287 13.9488 57.3012C13.4213 56.7738 13.125 56.0584 13.125 55.3125V51.5625H15V55.3125C15 55.5611 15.0988 55.7996 15.2746 55.9754C15.4504 56.1512 15.6889 56.25 15.9375 56.25H44.0625C44.3111 56.25 44.5496 56.1512 44.7254 55.9754C44.9012 55.7996 45 55.5611 45 55.3125V51.5625H46.875V55.3125ZM43.125 51.5625V54.375H16.875V51.5625H43.125ZM54.375 48.75C54.375 48.9986 54.2762 49.2371 54.1004 49.4129C53.9246 49.5887 53.6861 49.6875 53.4375 49.6875H6.5625C6.31386 49.6875 6.0754 49.5887 5.89959 49.4129C5.72377 49.2371 5.625 48.9986 5.625 48.75V41.25C5.625 41.0014 5.72377 40.7629 5.89959 40.5871C6.0754 40.4113 6.31386 40.3125 6.5625 40.3125H27.1875C27.825 40.3125 27.8625 40.0406 30 37.1906C32.175 40.0781 32.1844 40.3125 32.8125 40.3125H53.4375C53.6861 40.3125 53.9246 40.4113 54.1004 40.5871C54.2762 40.7629 54.375 41.0014 54.375 41.25V48.75Z" fill="url(#paint8_linear_4_336)"/>
<path d="M37.5 18.75H35.625V16.875C35.625 15.3832 35.0324 13.9524 33.9775 12.8975C32.9226 11.8426 31.4918 11.25 30 11.25C28.5082 11.25 27.0774 11.8426 26.0225 12.8975C24.9676 13.9524 24.375 15.3832 24.375 16.875V18.75H22.5C22.2514 18.75 22.0129 18.8488 21.8371 19.0246C21.6613 19.2004 21.5625 19.4389 21.5625 19.6875V30.9375C21.5625 31.1861 21.6613 31.4246 21.8371 31.6004C22.0129 31.7762 22.2514 31.875 22.5 31.875H37.5C37.7486 31.875 37.9871 31.7762 38.1629 31.6004C38.3387 31.4246 38.4375 31.1861 38.4375 30.9375V19.6875C38.4375 19.4389 38.3387 19.2004 38.1629 19.0246C37.9871 18.8488 37.7486 18.75 37.5 18.75ZM26.25 16.875C26.25 15.8804 26.6451 14.9266 27.3484 14.2233C28.0516 13.5201 29.0054 13.125 30 13.125C30.9946 13.125 31.9484 13.5201 32.6516 14.2233C33.3549 14.9266 33.75 15.8804 33.75 16.875V18.75H26.25V16.875ZM36.5625 30H23.4375V20.625H36.5625V30Z" fill="url(#paint9_linear_4_336)"/>
<path d="M30 22.5C29.5908 22.5042 29.1942 22.6421 28.8708 22.8927C28.5473 23.1434 28.3147 23.493 28.2084 23.8882C28.1022 24.2833 28.1282 24.7024 28.2824 25.0815C28.4366 25.4605 28.7106 25.7787 29.0625 25.9875V27.1875C29.0625 27.4361 29.1613 27.6746 29.3371 27.8504C29.5129 28.0262 29.7514 28.125 30 28.125C30.2487 28.125 30.4871 28.0262 30.6629 27.8504C30.8388 27.6746 30.9375 27.4361 30.9375 27.1875V25.9875C31.2895 25.7787 31.5635 25.4605 31.7177 25.0815C31.8719 24.7024 31.8978 24.2833 31.7916 23.8882C31.6854 23.493 31.4528 23.1434 31.1293 22.8927C30.8058 22.6421 30.4092 22.5042 30 22.5Z" fill="url(#paint10_linear_4_336)"/>
</g>
<defs>
<linearGradient id="paint0_linear_4_336" x1="25.3543" y1="3.97553" x2="27.1769" y2="3.52348" gradientUnits="userSpaceOnUse">
<stop stop-color="#EE2A7B"/>
<stop offset="1" stop-color="#9D1F5D"/>
</linearGradient>
<linearGradient id="paint1_linear_4_336" x1="32.8543" y1="3.97553" x2="34.6769" y2="3.52348" gradientUnits="userSpaceOnUse">
<stop stop-color="#EE2A7B"/>
<stop offset="1" stop-color="#9D1F5D"/>
</linearGradient>
<linearGradient id="paint2_linear_4_336" x1="23.8016" y1="45.6766" x2="28.833" y2="44.5396" gradientUnits="userSpaceOnUse">
<stop stop-color="#EE2A7B"/>
<stop offset="1" stop-color="#9D1F5D"/>
</linearGradient>
<linearGradient id="paint3_linear_4_336" x1="31.3016" y1="45.6766" x2="36.333" y2="44.5395" gradientUnits="userSpaceOnUse">
<stop stop-color="#EE2A7B"/>
<stop offset="1" stop-color="#9D1F5D"/>
</linearGradient>
<linearGradient id="paint4_linear_4_336" x1="38.8016" y1="45.6766" x2="43.833" y2="44.5395" gradientUnits="userSpaceOnUse">
<stop stop-color="#EE2A7B"/>
<stop offset="1" stop-color="#9D1F5D"/>
</linearGradient>
<linearGradient id="paint5_linear_4_336" x1="46.3016" y1="45.6766" x2="51.333" y2="44.5395" gradientUnits="userSpaceOnUse">
<stop stop-color="#EE2A7B"/>
<stop offset="1" stop-color="#9D1F5D"/>
</linearGradient>
<linearGradient id="paint6_linear_4_336" x1="16.3016" y1="45.6766" x2="21.333" y2="44.5396" gradientUnits="userSpaceOnUse">
<stop stop-color="#EE2A7B"/>
<stop offset="1" stop-color="#9D1F5D"/>
</linearGradient>
<linearGradient id="paint7_linear_4_336" x1="8.80159" y1="45.6766" x2="13.833" y2="44.5395" gradientUnits="userSpaceOnUse">
<stop stop-color="#EE2A7B"/>
<stop offset="1" stop-color="#9D1F5D"/>
</linearGradient>
<linearGradient id="paint8_linear_4_336" x1="4.91998" y1="37.2169" x2="56.6548" y2="25.9894" gradientUnits="userSpaceOnUse">
<stop stop-color="#EE2A7B"/>
<stop offset="1" stop-color="#9D1F5D"/>
</linearGradient>
<linearGradient id="paint9_linear_4_336" x1="21.9386" y1="24.0433" x2="38.6621" y2="20.6496" gradientUnits="userSpaceOnUse">
<stop stop-color="#EE2A7B"/>
<stop offset="1" stop-color="#9D1F5D"/>
</linearGradient>
<linearGradient id="paint10_linear_4_336" x1="28.2269" y1="25.9891" x2="31.9569" y2="25.3786" gradientUnits="userSpaceOnUse">
<stop stop-color="#EE2A7B"/>
<stop offset="1" stop-color="#9D1F5D"/>
</linearGradient>
<clipPath id="clip0_4_336">
<rect width="60" height="60" fill="white"/>
</clipPath>
</defs>
</svg>
