<svg width="60" height="60" viewBox="0 0 60 60" fill="none" xmlns="http://www.w3.org/2000/svg">
<g clip-path="url(#clip0_4_287)">
<path d="M30 11.25C26.2916 11.25 22.6665 12.3497 19.5831 14.4099C16.4996 16.4702 14.0964 19.3986 12.6773 22.8247C11.2581 26.2508 10.8868 30.0208 11.6103 33.6579C12.3338 37.2951 14.1195 40.636 16.7418 43.2583C19.364 45.8805 22.7049 47.6663 26.3421 48.3897C29.9792 49.1132 33.7492 48.7419 37.1753 47.3227C40.6014 45.9036 43.5298 43.5004 45.5901 40.4169C47.6503 37.3335 48.75 33.7084 48.75 30C48.75 25.0272 46.7746 20.2581 43.2583 16.7417C39.742 13.2254 34.9728 11.25 30 11.25ZM30 46.875C26.6624 46.875 23.3998 45.8853 20.6248 44.0311C17.8497 42.1768 15.6868 39.5413 14.4095 36.4578C13.1323 33.3743 12.7981 29.9813 13.4493 26.7079C14.1004 23.4344 15.7076 20.4276 18.0676 18.0676C20.4276 15.7076 23.4344 14.1004 26.7079 13.4492C29.9813 12.7981 33.3743 13.1323 36.4578 14.4095C39.5413 15.6868 42.1768 17.8497 44.0311 20.6248C45.8853 23.3998 46.875 26.6624 46.875 30C46.875 34.4755 45.0971 38.7677 41.9324 41.9324C38.7678 45.0971 34.4755 46.875 30 46.875Z" fill="#D42C39"/>
<path d="M30.9375 16.875V15C30.9375 14.7514 30.8387 14.5129 30.6629 14.3371C30.4871 14.1613 30.2486 14.0625 30 14.0625C29.7514 14.0625 29.5129 14.1613 29.3371 14.3371C29.1613 14.5129 29.0625 14.7514 29.0625 15V16.875C29.0625 17.1236 29.1613 17.3621 29.3371 17.5379C29.5129 17.7137 29.7514 17.8125 30 17.8125C30.2486 17.8125 30.4871 17.7137 30.6629 17.5379C30.8387 17.3621 30.9375 17.1236 30.9375 16.875Z" fill="#D42C39"/>
<path d="M29.0625 43.125V45C29.0625 45.2486 29.1613 45.4871 29.3371 45.6629C29.5129 45.8387 29.7514 45.9375 30 45.9375C30.2486 45.9375 30.4871 45.8387 30.6629 45.6629C30.8387 45.4871 30.9375 45.2486 30.9375 45V43.125C30.9375 42.8764 30.8387 42.6379 30.6629 42.4621C30.4871 42.2863 30.2486 42.1875 30 42.1875C29.7514 42.1875 29.5129 42.2863 29.3371 42.4621C29.1613 42.6379 29.0625 42.8764 29.0625 43.125Z" fill="#D42C39"/>
<path d="M43.125 30.9375H45C45.2486 30.9375 45.4871 30.8387 45.6629 30.6629C45.8387 30.4871 45.9375 30.2486 45.9375 30C45.9375 29.7514 45.8387 29.5129 45.6629 29.3371C45.4871 29.1613 45.2486 29.0625 45 29.0625H43.125C42.8764 29.0625 42.6379 29.1613 42.4621 29.3371C42.2863 29.5129 42.1875 29.7514 42.1875 30C42.1875 30.2486 42.2863 30.4871 42.4621 30.6629C42.6379 30.8387 42.8764 30.9375 43.125 30.9375Z" fill="#D42C39"/>
<path d="M16.875 29.0625H15C14.7514 29.0625 14.5129 29.1613 14.3371 29.3371C14.1613 29.5129 14.0625 29.7514 14.0625 30C14.0625 30.2486 14.1613 30.4871 14.3371 30.6629C14.5129 30.8387 14.7514 30.9375 15 30.9375H16.875C17.1236 30.9375 17.3621 30.8387 17.5379 30.6629C17.7137 30.4871 17.8125 30.2486 17.8125 30C17.8125 29.7514 17.7137 29.5129 17.5379 29.3371C17.3621 29.1613 17.1236 29.0625 16.875 29.0625Z" fill="#D42C39"/>
<path d="M22.0313 16.2C21.8272 16.3297 21.6812 16.5333 21.6237 16.7681C21.5661 17.003 21.6016 17.251 21.7226 17.4603C21.8436 17.6697 22.0408 17.8242 22.273 17.8915C22.5053 17.9589 22.7545 17.934 22.9688 17.8219C23.1729 17.6922 23.3189 17.4886 23.3764 17.2537C23.434 17.0189 23.3985 16.7709 23.2775 16.5615C23.1565 16.3522 22.9593 16.1977 22.7271 16.1303C22.4948 16.063 22.2456 16.0879 22.0313 16.2Z" fill="#D42C39"/>
<path d="M37.0312 42.1875C36.8272 42.3172 36.6811 42.5208 36.6236 42.7556C36.5661 42.9905 36.6015 43.2385 36.7225 43.4478C36.8435 43.6572 37.0407 43.8117 37.273 43.879C37.5052 43.9464 37.7545 43.9214 37.9687 43.8094C38.1728 43.6796 38.3188 43.4761 38.3764 43.2412C38.4339 43.0064 38.3985 42.7584 38.2775 42.549C38.1564 42.3397 37.9592 42.1852 37.727 42.1178C37.4948 42.0504 37.2455 42.0754 37.0312 42.1875Z" fill="#D42C39"/>
<path d="M37.0312 17.8125C37.2455 17.9246 37.4948 17.9495 37.727 17.8822C37.9592 17.8148 38.1564 17.6603 38.2775 17.451C38.3985 17.2416 38.4339 16.9936 38.3764 16.7588C38.3188 16.5239 38.1728 16.3204 37.9687 16.1906C37.7545 16.0785 37.5052 16.0536 37.273 16.121C37.0407 16.1883 36.8435 16.3428 36.7225 16.5522C36.6015 16.7615 36.5661 17.0095 36.6236 17.2444C36.6811 17.4792 36.8272 17.6828 37.0312 17.8125Z" fill="#D42C39"/>
<path d="M22.9688 42.1875C22.7545 42.0754 22.5053 42.0504 22.273 42.1178C22.0408 42.1852 21.8436 42.3397 21.7226 42.549C21.6016 42.7584 21.5661 43.0064 21.6237 43.2412C21.6812 43.4761 21.8272 43.6796 22.0313 43.8094C22.2456 43.9214 22.4948 43.9464 22.7271 43.879C22.9593 43.8117 23.1565 43.6572 23.2775 43.4478C23.3985 43.2385 23.434 42.9905 23.3764 42.7556C23.3189 42.5208 23.1729 42.3172 22.9688 42.1875Z" fill="#D42C39"/>
<path d="M43.4625 23.3156C43.6788 23.1913 43.8369 22.9861 43.902 22.7453C43.967 22.5044 43.9337 22.2476 43.8094 22.0312C43.6851 21.8149 43.4799 21.6569 43.239 21.5918C42.9982 21.5268 42.7413 21.5601 42.525 21.6844C42.3087 21.8087 42.1506 22.0139 42.0856 22.2547C42.0205 22.4956 42.0538 22.7524 42.1781 22.9687C42.3025 23.1851 42.5076 23.3431 42.7485 23.4082C42.9894 23.4732 43.2462 23.4399 43.4625 23.3156Z" fill="#D42C39"/>
<path d="M16.5375 36.6844C16.4304 36.7459 16.3365 36.828 16.2611 36.9258C16.1857 37.0237 16.1303 37.1355 16.0981 37.2547C16.0659 37.374 16.0575 37.4984 16.0734 37.6209C16.0892 37.7435 16.1291 37.8616 16.1907 37.9687C16.2522 38.0759 16.3343 38.1698 16.4321 38.2452C16.53 38.3206 16.6417 38.376 16.761 38.4082C16.8803 38.4404 17.0047 38.4488 17.1272 38.4329C17.2497 38.417 17.3679 38.3772 17.475 38.3156C17.6913 38.1913 17.8494 37.9861 17.9145 37.7453C17.9795 37.5044 17.9462 37.2476 17.8219 37.0312C17.6976 36.8149 17.4924 36.6569 17.2516 36.5918C17.0107 36.5268 16.7538 36.5601 16.5375 36.6844Z" fill="#D42C39"/>
<path d="M42.525 38.3156C42.7413 38.4399 42.9982 38.4732 43.239 38.4082C43.4799 38.3431 43.6851 38.1851 43.8094 37.9687C43.9337 37.7524 43.967 37.4956 43.902 37.2547C43.8369 37.0139 43.6788 36.8087 43.4625 36.6844C43.2462 36.5601 42.9894 36.5268 42.7485 36.5918C42.5076 36.6569 42.3025 36.8149 42.1781 37.0312C42.0538 37.2476 42.0205 37.5044 42.0856 37.7453C42.1506 37.9861 42.3087 38.1913 42.525 38.3156Z" fill="#D42C39"/>
<path d="M17.475 21.6844C17.2587 21.5601 17.0019 21.5268 16.761 21.5918C16.5201 21.6569 16.315 21.8149 16.1907 22.0312C16.0663 22.2476 16.033 22.5044 16.0981 22.7453C16.1631 22.9861 16.3212 23.1913 16.5375 23.3156C16.7538 23.4399 17.0107 23.4732 17.2516 23.4082C17.4924 23.3431 17.6976 23.1851 17.8219 22.9687C17.9462 22.7524 17.9795 22.4956 17.9145 22.2547C17.8494 22.0139 17.6913 21.8087 17.475 21.6844Z" fill="#D42C39"/>
<path d="M37.5 29.0625C29.5125 29.0625 32.4375 29.2594 30.9375 28.3875V20.625C30.9375 20.3764 30.8387 20.1379 30.6629 19.9621C30.4871 19.7863 30.2486 19.6875 30 19.6875C29.7514 19.6875 29.5129 19.7863 29.3371 19.9621C29.1613 20.1379 29.0625 20.3764 29.0625 20.625C29.0625 30.9375 29.2969 27.5062 28.3875 29.0625H27.1875C26.9389 29.0625 26.7004 29.1613 26.5246 29.3371C26.3488 29.5129 26.25 29.7514 26.25 30C26.25 30.2486 26.3488 30.4871 26.5246 30.6629C26.7004 30.8387 26.9389 30.9375 27.1875 30.9375H28.3875C28.5473 31.2194 28.7806 31.4527 29.0625 31.6125V32.8125C29.0625 33.0611 29.1613 33.2996 29.3371 33.4754C29.5129 33.6512 29.7514 33.75 30 33.75C30.2486 33.75 30.4871 33.6512 30.6629 33.4754C30.8387 33.2996 30.9375 33.0611 30.9375 32.8125V31.6125C32.4656 30.7219 29.4844 30.9375 37.5 30.9375C37.7486 30.9375 37.9871 30.8387 38.1629 30.6629C38.3387 30.4871 38.4375 30.2486 38.4375 30C38.4375 29.7514 38.3387 29.5129 38.1629 29.3371C37.9871 29.1613 37.7486 29.0625 37.5 29.0625Z" fill="#D42C39"/>
<path d="M58.9219 38.0344L54.6938 35.625C55.5188 31.9394 55.5188 28.1169 54.6938 24.4312L58.9219 21.9937C59.0285 21.9317 59.1219 21.8493 59.1966 21.7511C59.2713 21.6529 59.3259 21.5409 59.3573 21.4216C59.3886 21.3023 59.3961 21.178 59.3793 21.0557C59.3625 20.9335 59.3218 20.8158 59.2594 20.7094L52.6969 9.34688C52.5732 9.13244 52.3698 8.97562 52.1309 8.91063C51.892 8.84565 51.6372 8.87778 51.4219 9L47.1844 11.4469C44.4137 8.87638 41.1056 6.95491 37.5 5.82188V0.9375C37.5 0.68886 37.4012 0.450403 37.2254 0.274587C37.0496 0.0987721 36.8112 0 36.5625 0L23.4375 0C23.1889 0 22.9504 0.0987721 22.7746 0.274587C22.5988 0.450403 22.5 0.68886 22.5 0.9375V5.82188C18.8944 6.95491 15.5863 8.87638 12.8156 11.4469L8.57815 8.97187C8.36288 8.84965 8.10801 8.81753 7.86915 8.88251C7.63029 8.9475 7.42682 9.10431 7.30315 9.31875L0.740646 20.6812C0.678272 20.7877 0.63752 20.9054 0.620726 21.0276C0.603932 21.1498 0.611427 21.2742 0.642781 21.3935C0.674136 21.5128 0.728732 21.6248 0.803441 21.723C0.87815 21.8211 0.971502 21.9036 1.07815 21.9656L5.30627 24.375C4.47283 28.0787 4.47283 31.9213 5.30627 35.625L1.07815 38.0625C0.971502 38.1245 0.87815 38.207 0.803441 38.3052C0.728732 38.4034 0.674136 38.5153 0.642781 38.6346C0.611427 38.7539 0.603932 38.8783 0.620726 39.0005C0.63752 39.1227 0.678272 39.2404 0.740646 39.3469L7.30315 50.7094C7.42682 50.9238 7.63029 51.0806 7.86915 51.1456C8.10801 51.2106 8.36288 51.1785 8.57815 51.0562L12.8156 48.6094C15.5863 51.1799 18.8944 53.1013 22.5 54.2344V59.0625C22.5 59.3111 22.5988 59.5496 22.7746 59.7254C22.9504 59.9012 23.1889 60 23.4375 60H36.5625C36.8112 60 37.0496 59.9012 37.2254 59.7254C37.4012 59.5496 37.5 59.3111 37.5 59.0625V54.1781C41.1056 53.0451 44.4137 51.1236 47.1844 48.5531L51.4219 51C51.6372 51.1222 51.892 51.1544 52.1309 51.0894C52.3698 51.0244 52.5732 50.8676 52.6969 50.6531L59.2594 39.2906C59.3766 39.0782 59.4069 38.8287 59.344 38.5944C59.281 38.3602 59.1297 38.1594 58.9219 38.0344ZM51.5625 48.9375L47.5313 46.6031C47.3541 46.5005 47.1482 46.4587 46.9451 46.4841C46.742 46.5095 46.5527 46.6007 46.4063 46.7438C43.5889 49.5017 40.1233 51.5069 36.3281 52.575C36.1342 52.6248 35.9613 52.7354 35.8348 52.8906C35.7082 53.0459 35.6347 53.2375 35.625 53.4375V58.125H24.375V53.4375C24.3828 53.2271 24.3195 53.0202 24.1954 52.8501C24.0712 52.68 23.8934 52.5567 23.6906 52.5C19.8955 51.4319 16.4299 49.4267 13.6125 46.6687C13.4661 46.5257 13.2768 46.4345 13.0737 46.4091C12.8705 46.3837 12.6647 46.4255 12.4875 46.5281L8.43752 48.9375L2.81252 39.1875L6.8344 36.8719C7.0129 36.7695 7.15276 36.6112 7.23239 36.4214C7.31202 36.2317 7.327 36.021 7.27502 35.8219C6.3 32.0019 6.3 27.9981 7.27502 24.1781C7.327 23.979 7.31202 23.7683 7.23239 23.5786C7.15276 23.3888 7.0129 23.2305 6.8344 23.1281L2.81252 20.8125L8.43752 11.0625L12.4688 13.3969C12.6459 13.4995 12.8518 13.5413 13.0549 13.5159C13.2581 13.4905 13.4473 13.3993 13.5938 13.2563C16.4164 10.4956 19.8888 8.49018 23.6906 7.425C23.8811 7.37179 24.0499 7.25971 24.1728 7.1048C24.2957 6.94989 24.3665 6.76007 24.375 6.5625V1.875H35.625V6.5625C35.6172 6.77292 35.6805 6.97983 35.8047 7.1499C35.9288 7.31997 36.1066 7.44329 36.3094 7.5C40.1045 8.56806 43.5702 10.5733 46.3875 13.3313C46.534 13.4743 46.7232 13.5655 46.9264 13.5909C47.1295 13.6163 47.3354 13.5745 47.5125 13.4719L51.5625 11.0625L57.1875 20.8125C50.2219 24.8344 53.4375 21.8344 53.4375 30C53.4375 38.1656 50.2031 35.1656 57.1875 39.1875L51.5625 48.9375Z" fill="#D42C39"/>
</g>
<defs>
<clipPath id="clip0_4_287">
<rect width="60" height="60" fill="white"/>
</clipPath>
</defs>
</svg>
