<svg width="69" height="69" viewBox="0 0 69 69" fill="none" xmlns="http://www.w3.org/2000/svg">
<circle r="34" transform="matrix(-1 0 0 1 34.5 34.5)" stroke="white"/>
<path d="M40 46L29 35L40 24" stroke="white" stroke-linecap="round" stroke-linejoin="round"/>
</svg>
