<svg width="74" height="73" viewBox="0 0 74 73" fill="none" xmlns="http://www.w3.org/2000/svg">
<path d="M69.1788 4.88923C68.311 4.80118 67.437 4.98032 66.6737 5.40266C66.3011 4.19379 65.4047 3.21649 64.2325 2.741C63.0603 2.2655 61.7364 2.34219 60.6269 2.94986C60.0092 1.0371 58.1381 -0.183252 56.1386 0.0225594C54.8375 0.170462 53.6788 0.91389 53.002 2.03493C51.9905 1.28613 50.6953 1.03334 49.4764 1.34685C48.2576 1.66035 47.2451 2.50673 46.7204 3.65066H34.7386C34.5167 3.64901 34.2993 3.5872 34.1096 3.47181L29.1906 0.528693C28.6251 0.186928 27.9777 0.00447472 27.317 0.00065944H9.29935C7.07293 -0.0291669 5.17702 1.61308 4.88894 3.82099C4.80103 4.68922 4.98015 5.5636 5.40237 6.32733C4.19316 6.69947 3.21553 7.59589 2.74016 8.76837C2.2648 9.94086 2.34214 11.265 2.95079 12.3742C1.03506 12.9896 -0.187014 14.8636 0.0222702 16.8649C0.169633 18.1662 0.913202 19.3251 2.03464 20.0014C1.41722 20.853 1.13406 21.9016 1.23894 22.9482C1.41276 24.4029 2.32423 25.6653 3.65037 26.288V38.2648C3.64825 38.4858 3.586 38.702 3.4703 38.8902L0.501637 43.8347C0.178553 44.3984 0.00592958 45.0356 0.000370235 45.6853V63.7029C-0.0276558 65.9289 1.61455 67.8236 3.82192 68.1121C4.68964 68.1977 5.56297 68.0187 6.32704 67.5987C6.69949 68.8079 7.59614 69.7856 8.7688 70.2609C9.94146 70.7362 11.2657 70.6589 12.3751 70.0502C12.9388 71.8107 14.5769 73.0039 16.4254 73.0007C17.8921 73.001 19.2505 72.2284 19.9999 70.9676C21.0124 71.7164 22.3084 71.969 23.528 71.6553C24.7476 71.3416 25.7609 70.495 26.2865 69.3507H38.2621C38.4841 69.3523 38.7015 69.4141 38.8911 69.5295L43.8101 72.4751C44.376 72.8155 45.0234 72.9967 45.6838 72.9994H63.7014C65.9278 73.0293 67.8237 71.387 68.1118 69.1791C68.1995 68.3113 68.0204 67.4374 67.5984 66.674C68.8076 66.3018 69.7852 65.4054 70.2606 64.2329C70.736 63.0605 70.6586 61.7363 70.05 60.6272C71.9647 60.0119 73.1866 58.1393 72.9785 56.1389C72.8311 54.8376 72.0876 53.6786 70.9661 53.0023C71.5835 52.1508 71.8667 51.1021 71.7618 50.0555C71.5866 48.6025 70.6753 47.3423 69.3504 46.7207V34.7365C69.353 34.515 69.4147 34.2983 69.5292 34.1087L72.476 29.1909C72.8165 28.6246 72.9977 27.9768 73.0004 27.316V9.29843C73.0284 7.07245 71.3862 5.17773 69.1788 4.88923ZM2.44344 16.624C2.38707 16.1083 2.5528 15.593 2.89921 15.2069C3.24562 14.8208 3.73997 14.6004 4.2587 14.6007H12.167C12.839 14.6007 13.3837 14.0559 13.3837 13.384C13.3837 12.712 12.839 12.1673 12.167 12.1673H6.69204C6.17338 12.1686 5.6787 11.949 5.3316 11.5636C4.98451 11.1782 4.8178 10.6634 4.87312 10.1477C5.02882 9.17801 5.88475 8.4778 6.86602 8.51733H14.6004C15.2723 8.51733 15.817 7.97261 15.817 7.30066C15.817 6.62871 15.2723 6.08399 14.6004 6.08399H9.12537C8.60671 6.08522 8.11203 5.86571 7.76494 5.48031C7.41784 5.09491 7.25113 4.58003 7.30646 4.06433C7.46164 3.09439 8.3179 2.39391 9.29935 2.43399H27.317C27.5387 2.43568 27.7558 2.49794 27.9448 2.61406L32.865 5.56083C33.4312 5.90033 34.0784 6.08105 34.7386 6.08399H46.2337V16.8989L44.1264 15.1737C42.5451 13.9668 40.3209 14.089 38.8814 15.4621C37.8126 16.4986 37.4411 18.0605 37.9287 19.4673H33.8493C32.8917 19.4714 31.9741 19.8515 31.2943 20.5258L19.8442 31.8822L19.8199 31.9065L19.3137 32.4078C18.7203 32.988 17.77 32.9815 17.1846 32.3932C16.6502 31.8567 16.5981 31.0066 17.0629 30.4088L20.4087 26.3208C20.7063 25.957 20.7676 25.4543 20.5663 25.0296C20.365 24.6048 19.937 24.3341 19.467 24.334H5.64935C4.66966 24.3723 3.81569 23.6729 3.6601 22.7049C3.60448 22.1896 3.77055 21.675 4.11687 21.2894C4.4632 20.9039 4.95711 20.6838 5.47537 20.684H12.167C12.839 20.684 13.3837 20.1393 13.3837 19.4673C13.3837 18.7954 12.839 18.2507 12.167 18.2507H4.43269C3.45397 18.2885 2.60062 17.5907 2.44344 16.624ZM51.1004 39.7333L39.9922 50.749C39.7688 50.9723 39.4662 51.0983 39.1503 51.0994H33.2665L22.252 39.9961C22.0281 39.7725 21.9017 39.4694 21.9004 39.153V33.2643L33.0049 22.2523C33.2287 22.0279 33.5324 21.9015 33.8493 21.9007H39.7379L50.7524 33.004C50.9746 33.2289 51.0996 33.5321 51.1004 33.8483V39.7333ZM22.6936 69.3409C22.1814 69.3962 21.6699 69.2297 21.2884 68.8835C20.9051 68.5359 20.6856 68.0431 20.6837 67.5257V67.5074V60.834C20.6837 60.162 20.139 59.6173 19.467 59.6173C18.7951 59.6173 18.2504 60.162 18.2504 60.834V67.5257V67.5427V68.5708C18.2838 69.5539 17.5785 70.4075 16.6067 70.56C16.0955 70.6157 15.585 70.4491 15.2051 70.1026C14.8209 69.7546 14.6013 69.2607 14.6004 68.7423V66.309V66.2847V60.834C14.6004 60.162 14.0557 59.6173 13.3837 59.6173C12.7118 59.6173 12.167 60.162 12.167 60.834V66.309V66.3236C12.1638 66.8395 11.9423 67.3299 11.5575 67.6735C11.1726 68.0171 10.6603 68.1817 10.1474 68.1267C9.17791 67.9716 8.47759 67.116 8.51704 66.135V63.8757V63.8574V58.4007C8.51704 57.7287 7.97232 57.184 7.30037 57.184C6.62843 57.184 6.0837 57.7287 6.0837 58.4007V63.8757V63.8866C6.08145 64.4029 5.86061 64.8941 5.47591 65.2384C5.09121 65.5828 4.57865 65.7481 4.06525 65.6934C3.09608 65.5383 2.39552 64.6837 2.4337 63.7029V45.6853C2.43558 45.4661 2.49292 45.2509 2.60039 45.0599L5.56054 40.1373C5.89933 39.5712 6.08 38.9245 6.0837 38.2648V26.7673H16.8974L15.171 28.8758C14.0579 30.2296 13.9788 32.1578 14.9771 33.5983C15.9754 35.0388 17.8086 35.6416 19.467 35.0747V39.153C19.4711 40.1105 19.8512 41.0281 20.5255 41.708L31.8722 53.1447C31.8856 53.1593 31.8989 53.1726 31.9135 53.186L32.4087 53.6849C32.835 54.1188 32.959 54.7663 32.7232 55.327C32.4874 55.8878 31.9378 56.252 31.3295 56.2508C30.9984 56.2523 30.6767 56.1412 30.417 55.9357L26.3303 52.5911C25.9665 52.2872 25.4594 52.2223 25.0308 52.4247C24.6022 52.6272 24.3302 53.06 24.3337 53.534V67.3517C24.3674 68.3336 23.664 69.1868 22.6936 69.3409ZM70.5573 56.3773C70.6137 56.893 70.448 57.4083 70.1015 57.7944C69.7551 58.1805 69.2608 58.401 68.7421 58.4007H60.8337C60.1618 58.4007 59.6171 58.9454 59.6171 59.6173C59.6171 60.2893 60.1618 60.834 60.8337 60.834H66.3087C66.8274 60.8328 67.3221 61.0523 67.6692 61.4377C68.0162 61.8231 68.183 62.338 68.1276 62.8537C67.9719 63.8233 67.116 64.5235 66.1347 64.484H58.4004C57.7284 64.484 57.1837 65.0287 57.1837 65.7007C57.1837 66.3726 57.7284 66.9173 58.4004 66.9173H63.8754C64.394 66.9161 64.8887 67.1356 65.2358 67.521C65.5829 67.9064 65.7496 68.4213 65.6943 68.937C65.5391 69.9069 64.6829 70.6074 63.7014 70.5673H45.6838C45.462 70.5656 45.2449 70.5034 45.056 70.3873L40.1358 67.4405C39.5695 67.101 38.9223 66.9203 38.2621 66.9173H26.767V56.0999L28.8743 57.8252C30.4542 59.0368 32.6818 58.9144 34.1194 57.5368C35.1885 56.5015 35.5614 54.9408 35.0757 53.534H39.1515C40.109 53.53 41.0266 53.1498 41.7065 52.4755L53.1529 41.124L53.1955 41.0826L53.6907 40.596C54.2841 40.0157 55.2344 40.0223 55.8198 40.6106C56.3542 41.147 56.4063 41.9972 55.9415 42.5949L52.5957 46.6829C52.3001 47.0463 52.2394 47.5471 52.4396 47.9706C52.6398 48.3941 53.0653 48.6651 53.5337 48.6673H67.3514C68.3311 48.6291 69.1851 49.3284 69.3407 50.2964C69.3963 50.8117 69.2302 51.3263 68.8839 51.7119C68.5376 52.0974 68.0436 52.3176 67.5254 52.3173H60.8337C60.1618 52.3173 59.6171 52.862 59.6171 53.534C59.6171 54.2059 60.1618 54.7507 60.8337 54.7507H68.5717C69.5491 54.7147 70.4003 55.412 70.5573 56.3773ZM70.5671 27.316C70.5652 27.5376 70.5034 27.7546 70.3882 27.9438L67.4402 32.864C67.1009 33.4299 66.9202 34.0767 66.9171 34.7365V46.234H56.0997L57.8261 44.1255C59.0793 42.5592 58.9541 40.301 57.5353 38.8829C56.4725 37.8631 54.9357 37.5089 53.5337 37.9607V33.8483C53.5297 32.8908 53.1495 31.9732 52.4752 31.2933L41.1237 19.8396L41.1006 19.8165L40.5981 19.3104C40.3131 19.0288 40.1538 18.644 40.1566 18.2433C40.1593 17.8426 40.3238 17.4601 40.6127 17.1824C41.1566 16.6636 41.9952 16.6122 42.5983 17.0608L46.6851 20.4054C47.0485 20.6994 47.5483 20.7593 47.9709 20.5593C48.3935 20.3593 48.6641 19.9348 48.667 19.4673V5.64964C48.6294 4.66974 49.3292 3.81593 50.2974 3.66039C50.8124 3.60514 51.3267 3.77137 51.712 4.11766C52.0973 4.46394 52.3172 4.95764 52.317 5.47566V12.1673C52.317 12.8393 52.8618 13.384 53.5337 13.384C54.2057 13.384 54.7504 12.8393 54.7504 12.1673V4.43298C54.7122 3.45289 55.4122 2.59876 56.3807 2.44373C56.8958 2.38847 57.4101 2.55471 57.7953 2.90099C58.1806 3.24727 58.4006 3.74097 58.4004 4.25899V12.1673C58.4004 12.8393 58.9451 13.384 59.6171 13.384C60.289 13.384 60.8337 12.8393 60.8337 12.1673V6.69233C60.8328 6.17388 61.0525 5.67953 61.4379 5.3327C61.8232 4.98588 62.3379 4.81932 62.8534 4.87463C63.8228 5.02976 64.5232 5.88531 64.4837 6.86631V14.6007C64.4837 15.2726 65.0284 15.8173 65.7004 15.8173C66.3723 15.8173 66.9171 15.2726 66.9171 14.6007V9.12566C66.9162 8.60721 67.1358 8.11286 67.5212 7.76604C67.9065 7.41921 68.4212 7.25266 68.9367 7.30796C69.9054 7.46355 70.6053 8.31807 70.5671 9.29843V27.316Z" fill="#F26A21"/>
</svg>
