<svg width="73" height="74" viewBox="0 0 73 74" fill="none" xmlns="http://www.w3.org/2000/svg">
<path d="M66.1793 29.8869L39.3859 50.2868C38.9527 50.6348 37.5791 51.5375 36.4489 51.5375C35.3515 51.5375 34.0096 50.6105 33.5351 50.2149L6.81934 29.8857C6.28638 29.4794 5.52116 29.5828 5.11482 30.1181C4.70847 30.6522 4.81184 31.4152 5.34722 31.8227L32.0118 52.1105C32.2356 52.3003 34.2651 53.9707 36.4489 53.9707C38.6414 53.9707 40.6902 52.3623 40.8874 52.2005L67.654 31.8214C68.1881 31.415 68.2915 30.6509 67.884 30.1168C67.4764 29.5828 66.7158 29.4781 66.1793 29.8869Z" fill="#009155"/>
<path d="M51.1231 20.5941C50.3992 20.1657 49.567 19.9043 48.6666 19.9043C47.77 19.9043 46.939 20.1646 46.2163 20.5905L40.6804 15.0546C41.1063 14.3319 41.3666 13.5009 41.3666 12.6043C41.3666 9.92023 39.1839 7.73764 36.5 7.73764C33.816 7.73764 31.6334 9.92037 31.6334 12.6043C31.6334 13.1786 31.7514 13.7212 31.9351 14.2322L14.9564 31.2107C14.4807 31.6865 14.4807 32.4554 14.9564 32.9311C15.1937 33.1683 15.5052 33.2875 15.8166 33.2875C16.1282 33.2875 16.4395 33.1683 16.6768 32.9311L33.3366 16.2712C34.1895 17.0085 35.2869 17.4709 36.5 17.4709C37.4028 17.4709 38.2375 17.2081 38.9625 16.7787L44.4922 22.3084C44.0628 23.0336 43.8 23.8682 43.8 24.7709C43.8 27.4549 45.9827 29.6375 48.6666 29.6375C51.3507 29.6375 53.5332 27.4548 53.5332 24.7709C53.5332 23.8705 53.2716 23.0384 52.8434 22.3144L65.6769 9.48095C66.4008 9.90925 67.233 10.1707 68.1334 10.1707C70.8174 10.1707 73 7.98801 73 5.30412C73 2.62023 70.8173 0.4375 68.1334 0.4375C65.4495 0.4375 63.2668 2.62023 63.2668 5.30412C63.2668 6.2045 63.5284 7.03659 63.9566 7.7606L51.1231 20.5941ZM36.5 15.0375C35.1581 15.0375 34.0666 13.9462 34.0666 12.6041C34.0666 11.2622 35.1579 10.1707 36.5 10.1707C37.8419 10.1707 38.9334 11.262 38.9334 12.6041C38.9334 13.9462 37.8419 15.0375 36.5 15.0375ZM48.6666 27.2041C47.3247 27.2041 46.2332 26.1128 46.2332 24.7707C46.2332 23.4288 47.3245 22.3374 48.6666 22.3374C50.0086 22.3374 51.1 23.4286 51.1 24.7707C51.1 26.1128 50.0087 27.2041 48.6666 27.2041ZM68.1334 2.87088C69.4753 2.87088 70.5668 3.96217 70.5668 5.30426C70.5668 6.64621 69.4755 7.73764 68.1334 7.73764C67.4703 7.73764 66.868 7.46874 66.4289 7.03687C66.424 7.03202 66.4227 7.02475 66.4179 7.0199C66.413 7.01506 66.4058 7.01377 66.4008 7.00893C65.9689 6.56964 65.7 5.96739 65.7 5.3044C65.7 3.96217 66.7913 2.87088 68.1334 2.87088Z" fill="#009155"/>
<path d="M68.8597 22.582C68.856 22.5783 68.8548 22.5747 68.8511 22.5723L61.8796 17.4769C61.3382 17.0791 60.5766 17.1994 60.1799 17.7421C59.7833 18.2834 59.9013 19.0451 60.4451 19.4417L67.4154 24.5359C67.4312 24.5469 67.4482 24.5505 67.464 24.5614C67.4774 24.5687 67.4835 24.5834 67.4968 24.5907C69.4471 25.789 70.5665 28.0727 70.5665 30.8541V67.3541C70.5665 69.4005 68.9629 71.0041 66.9165 71.0041H6.08338C4.03696 71.0041 2.43338 69.4005 2.43338 67.3541V30.8541C2.43338 28.6472 3.37867 25.8573 5.48969 24.5992C5.50309 24.5919 5.51036 24.5761 5.5249 24.5676C5.54315 24.5554 5.56511 24.5505 5.58336 24.5383L33.6141 4.12158C34.0472 3.77354 35.4208 2.87088 36.551 2.87088C37.6485 2.87088 38.9904 3.79792 39.4856 4.20926L53.0466 14.0704C53.5893 14.467 54.3509 14.3454 54.7452 13.8015C55.1405 13.2588 55.0202 12.4972 54.4762 12.1018L40.9882 2.29786C40.7644 2.10795 38.7351 0.4375 36.551 0.4375C34.3586 0.4375 32.3098 2.04592 32.1334 2.19078L4.15002 22.5699C4.14517 22.5736 4.14275 22.5809 4.1379 22.5844C1.62183 24.1467 0 27.3708 0 30.8541V67.3541C0 70.7657 2.67177 73.4375 6.08338 73.4375H66.9168C70.3282 73.4375 73 70.7657 73 67.3541V30.8541C73 27.2505 71.4901 24.2465 68.8597 22.582Z" fill="#009155"/>
<path d="M52.3164 36.9374C52.988 36.9374 53.533 36.3923 53.533 35.7208V33.2874C53.533 32.6159 52.988 32.0708 52.3164 32.0708H45.0164C44.3449 32.0708 43.7998 32.6159 43.7998 33.2874V41.804C43.7998 42.4756 44.3449 43.0207 45.0164 43.0207C45.688 43.0207 46.233 42.4756 46.233 41.804V34.504H51.0998V35.7207C51.0998 36.3923 51.6449 36.9374 52.3164 36.9374Z" fill="#009155"/>
<path d="M40.1499 46.6709C40.8215 46.6709 41.3665 46.1258 41.3665 45.4543V23.5543C41.3665 22.8827 40.8215 22.3376 40.1499 22.3376H32.8499C32.1784 22.3376 31.6333 22.8827 31.6333 23.5543V45.4543C31.6333 46.1258 32.1784 46.6709 32.8499 46.6709C33.5215 46.6709 34.0665 46.1258 34.0665 45.4543V24.7709H38.9332V45.4543C38.9333 46.1258 39.4784 46.6709 40.1499 46.6709Z" fill="#009155"/>
<path d="M50.6353 50.5813C50.1085 50.1664 49.342 50.2577 48.9271 50.7858C48.5122 51.3138 48.6034 52.0791 49.1315 52.494L66.1649 65.8774C66.3876 66.0527 66.6528 66.1378 66.9168 66.1378C67.2757 66.1378 67.6334 65.9784 67.8731 65.673C68.288 65.145 68.1968 64.3796 67.6687 63.9647L50.6353 50.5813Z" fill="#009155"/>
<path d="M22.3126 50.5812L5.33038 63.9645C4.80242 64.3819 4.71231 65.1459 5.12721 65.6739C5.36817 65.978 5.72461 66.1374 6.08348 66.1374C6.34754 66.1374 6.61401 66.0523 6.83658 65.8771L23.8188 52.4937C24.3467 52.0764 24.4368 51.3123 24.0219 50.7843C23.6059 50.2575 22.8418 50.1687 22.3126 50.5812Z" fill="#009155"/>
<path d="M27.9834 43.0208C28.655 43.0208 29.2 42.4757 29.2 41.8042V33.2874C29.2 32.6159 28.655 32.0708 27.9834 32.0708H20.6834C20.0119 32.0708 19.4668 32.6159 19.4668 33.2874V35.7208C19.4668 36.3923 20.0119 36.9374 20.6834 36.9374C21.355 36.9374 21.9 36.3923 21.9 35.7208V34.5042H26.7667V41.8042C26.7667 42.4757 27.3117 43.0208 27.9834 43.0208Z" fill="#009155"/>
</svg>
