<svg width="90" height="74" viewBox="0 0 90 74" fill="none" xmlns="http://www.w3.org/2000/svg">
<path fill-rule="evenodd" clip-rule="evenodd" d="M26.3978 48.8242C20.8349 48.8242 14.5373 44.101 13.2253 33.5525C13.1728 32.8177 13.6976 32.2405 14.3274 32.083C15.0621 32.0305 15.6394 32.5029 15.7968 33.1851C16.8989 42.2117 21.9895 46.2002 26.3978 46.2002C30.9111 46.2002 35.9492 42.2117 37.0513 33.1851C37.1038 32.4504 37.7861 32.0305 38.4683 32.083C39.203 32.188 39.6753 32.8177 39.5704 33.5525C38.2584 44.101 32.0132 48.8242 26.3978 48.8242Z" fill="#D42C39"/>
<path fill-rule="evenodd" clip-rule="evenodd" d="M51.5356 73.4375H1.31201C0.577282 73.4375 0 72.8602 0 72.1255V65.1456C0.0524802 55.5942 7.87203 47.8271 17.371 47.8271C18.1057 47.8271 18.683 48.4044 18.683 49.1392C18.683 49.8214 18.1057 50.3462 17.371 50.3462C9.23652 50.3462 2.62401 57.0637 2.62401 65.1981V70.866H50.2761V65.1981C50.2761 57.1686 44.0309 50.7136 36.1064 50.3462C35.3717 50.3462 34.8469 49.7689 34.8469 49.0342C34.8469 48.2995 35.4242 47.8271 36.1589 47.8271C45.5528 48.1945 52.8476 55.7517 52.8476 65.1456V72.1255C52.8476 72.8602 52.2178 73.4375 51.5356 73.4375Z" fill="#D42C39"/>
<path fill-rule="evenodd" clip-rule="evenodd" d="M26.7124 60.265C26.3451 60.265 26.0302 60.1075 25.7678 59.8976L16.4263 49.9788C15.954 49.454 16.0065 48.6668 16.5313 48.1945C17.0036 47.6697 17.8433 47.7222 18.3156 48.247L26.7124 57.1162L35.1617 48.247C35.6341 47.7222 36.4738 47.7222 36.9461 48.1945C37.4709 48.6668 37.4709 49.454 37.051 49.9788L27.6571 59.7926C27.4472 60.1075 27.0798 60.265 26.7124 60.265Z" fill="#D42C39"/>
<path fill-rule="evenodd" clip-rule="evenodd" d="M17.3711 50.3463C16.6364 50.3463 16.0591 49.769 16.0591 49.0343V42.0019C16.0591 41.2672 16.6364 40.6899 17.3711 40.6899C18.1058 40.6899 18.6831 41.2672 18.6831 42.0019V49.0343C18.6831 49.8215 18.1058 50.3463 17.3711 50.3463Z" fill="#D42C39"/>
<path fill-rule="evenodd" clip-rule="evenodd" d="M14.4847 34.7072H14.4322C13.3826 34.6547 12.4379 34.1299 11.7032 33.2377C9.76146 30.8761 9.23666 25.5232 10.1288 17.3887C10.3912 14.7647 12.1755 13.6626 13.4351 13.1903C14.6946 12.6655 15.6392 12.4556 16.4264 12.2981C17.8959 11.9308 18.6831 11.7733 20.3625 9.98901C21.4121 8.88692 22.4617 7.73236 24.141 7.57492C32.6428 6.89267 41.9318 10.1989 42.7715 16.9689C43.3488 21.5871 43.8736 29.984 41.2496 33.1853C40.5149 34.0774 39.5702 34.5498 38.5731 34.6547C38.2057 34.6547 37.8909 34.5498 37.6285 34.3398C37.3136 34.1299 37.1561 33.7626 37.1561 33.4477C37.1037 31.7158 36.3689 26.7827 34.3222 25.0508C33.7449 24.526 33.1152 24.3686 32.3804 24.4735C31.0159 24.5785 29.9663 23.7913 29.1791 23.214C28.8118 22.8991 28.287 22.5843 28.0771 22.5843C27.4473 22.6367 26.87 22.6367 26.2402 22.6367C18.5781 23.0041 15.9541 23.1615 15.8492 33.3427C15.8492 33.7101 15.6917 34.0774 15.4293 34.2874C15.1144 34.5498 14.852 34.7072 14.4847 34.7072ZM32.5904 21.902C33.7449 21.902 34.8995 22.3219 35.8441 23.1615C38.1008 25.1033 39.0454 28.8819 39.4128 31.296C40.9872 28.8819 40.8298 22.5843 40.1475 17.2313C39.5177 12.0882 31.4358 9.51668 24.2985 10.094C23.6687 10.1989 22.934 10.9337 22.1993 11.7209C20.1525 13.9775 18.8405 14.3449 16.9512 14.7647C16.2165 14.9221 15.4293 15.1321 14.3272 15.4994C13.1727 16.0242 12.7528 16.6015 12.5954 17.7036C11.7032 26.2054 12.5954 29.6691 13.2252 30.9811C13.9074 20.7475 18.5781 20.5375 25.9778 20.1702C26.5551 20.1702 27.1324 20.0652 27.8147 20.0652C28.9692 20.0127 29.8089 20.6425 30.5436 21.2723C31.1209 21.6921 31.5932 21.9545 31.9606 21.9545C32.223 21.902 32.3804 21.902 32.5904 21.902Z" fill="#D42C39"/>
<path fill-rule="evenodd" clip-rule="evenodd" d="M36.1064 50.3461C35.3717 50.3461 34.7944 49.7688 34.7944 49.0341V40.9521C34.7944 40.2174 35.3717 39.6401 36.1064 39.6401C36.8412 39.6401 37.4184 40.2174 37.4184 40.9521V49.1391C37.4184 49.8213 36.8412 50.3461 36.1064 50.3461Z" fill="#D42C39"/>
<path fill-rule="evenodd" clip-rule="evenodd" d="M10.9155 73.4375C10.1808 73.4375 9.60352 72.8602 9.60352 72.1255V64.5159C9.60352 63.8336 10.1808 63.2563 10.9155 63.2563C11.6502 63.2563 12.2275 63.8336 12.2275 64.5159V72.1255C12.175 72.8602 11.5453 73.4375 10.9155 73.4375Z" fill="#D42C39"/>
<path fill-rule="evenodd" clip-rule="evenodd" d="M41.9839 73.4375C41.2492 73.4375 40.6719 72.8602 40.6719 72.1255V64.5159C40.6719 63.8336 41.2492 63.2563 41.9839 63.2563C42.7186 63.2563 43.2959 63.8336 43.2959 64.5159V72.1255C43.2434 72.8602 42.6136 73.4375 41.9839 73.4375Z" fill="#D42C39"/>
<path fill-rule="evenodd" clip-rule="evenodd" d="M37.3138 39.5354H30.124C29.3893 39.5354 28.812 38.9056 28.812 38.2234C28.812 37.4887 29.3893 36.9114 30.124 36.9114H37.3138C38.0485 36.9114 38.6258 37.4887 38.6258 38.2234C38.6258 38.9056 37.9961 39.5354 37.3138 39.5354Z" fill="#D42C39"/>
<path fill-rule="evenodd" clip-rule="evenodd" d="M26.6077 42.002C23.9312 42.002 21.832 40.3226 21.832 38.2759C21.832 36.2292 23.9312 34.5498 26.6077 34.5498C29.2317 34.5498 31.3834 36.2292 31.3834 38.2759C31.3834 40.3226 29.2317 42.002 26.6077 42.002ZM26.6077 37.0164C25.2432 37.0164 24.3511 37.7511 24.3511 38.2234C24.3511 38.6433 25.2432 39.378 26.6077 39.378C27.8673 39.378 28.8119 38.6957 28.8119 38.2234C28.8119 37.6986 27.8673 37.0164 26.6077 37.0164Z" fill="#D42C39"/>
<path fill-rule="evenodd" clip-rule="evenodd" d="M56.679 49.1391C56.4691 49.1391 56.1542 49.0342 55.9443 48.8767C55.5244 48.6143 55.3145 48.0895 55.4195 47.5123L56.9939 41.1097H48.7545C47.5999 41.1097 46.6553 40.165 46.6553 39.0105V14.1348C46.6553 12.9803 47.5999 11.9831 48.7545 11.9831H55.7344C56.4691 11.9831 57.0464 12.6129 57.0464 13.2952C57.0464 14.0299 56.4691 14.6072 55.7344 14.6072H49.1743V38.6956H58.5683C58.9356 38.6956 59.303 38.853 59.5654 39.2204C59.8278 39.5353 59.9328 39.9551 59.8278 40.3225L58.7257 45.0457L67.28 38.853C67.5424 38.6956 67.7523 38.6431 68.0147 38.6431H86.9601V14.5547H80.4001C79.6653 14.5547 79.0881 13.9774 79.0881 13.2427C79.0881 12.5079 79.6653 11.9307 80.4001 11.9307H87.3799C88.5345 11.9307 89.5841 12.8753 89.5841 14.0299V39.0105C89.5841 40.165 88.6395 41.1097 87.3799 41.1097H68.487L57.4137 48.8767C57.2038 49.0342 56.8889 49.1391 56.679 49.1391Z" fill="#D42C39"/>
<path fill-rule="evenodd" clip-rule="evenodd" d="M80.3996 34.8645H55.7339C54.9992 34.8645 54.4219 34.2872 54.4219 33.5525V1.74951C54.4219 1.01478 54.9992 0.4375 55.7339 0.4375H80.3996C81.1343 0.4375 81.7116 1.01478 81.7116 1.74951V33.605C81.7116 34.3397 81.1343 34.8645 80.3996 34.8645ZM56.9934 32.293H79.0876V3.00903H56.9934V32.293Z" fill="#D42C39"/>
<path fill-rule="evenodd" clip-rule="evenodd" d="M75.6768 8.93944H60.4575C59.7228 8.93944 59.1455 8.36216 59.1455 7.62744C59.1455 6.89271 59.7228 6.31543 60.4575 6.31543H75.6768C76.4115 6.31543 76.9888 6.89271 76.9888 7.62744C76.9888 8.36216 76.3065 8.93944 75.6768 8.93944Z" fill="#D42C39"/>
<path fill-rule="evenodd" clip-rule="evenodd" d="M75.6768 15.657H60.4575C59.7228 15.657 59.1455 15.0797 59.1455 14.345C59.1455 13.6102 59.7228 13.033 60.4575 13.033H75.6768C76.4115 13.033 76.9888 13.6102 76.9888 14.345C76.9888 15.0797 76.3065 15.657 75.6768 15.657Z" fill="#D42C39"/>
<path fill-rule="evenodd" clip-rule="evenodd" d="M75.6768 22.2693H60.4575C59.7228 22.2693 59.1455 21.692 59.1455 20.9573C59.1455 20.2225 59.7228 19.6453 60.4575 19.6453H75.6768C76.4115 19.6453 76.9888 20.2225 76.9888 20.9573C76.9888 21.692 76.3065 22.2693 75.6768 22.2693Z" fill="#D42C39"/>
<path fill-rule="evenodd" clip-rule="evenodd" d="M75.6768 28.8818H60.4575C59.7228 28.8818 59.1455 28.3045 59.1455 27.5698C59.1455 26.8351 59.7228 26.2578 60.4575 26.2578H75.6768C76.4115 26.2578 76.9888 26.8351 76.9888 27.5698C76.9888 28.3045 76.3065 28.8818 75.6768 28.8818Z" fill="#D42C39"/>
</svg>
