<svg width="74" height="74" viewBox="0 0 74 74" fill="none" xmlns="http://www.w3.org/2000/svg">
<path d="M14.0837 28.1713C13.629 28.1713 13.1929 27.9907 12.8713 27.6691C12.5498 27.3476 12.3691 26.9115 12.3691 26.4568C12.3691 26.0018 12.5497 25.5654 12.8712 25.2434C13.1926 24.9215 13.6287 24.7402 14.0837 24.7395H58.9179C59.3728 24.7402 59.8089 24.9215 60.1304 25.2434C60.4518 25.5654 60.6324 26.0018 60.6324 26.4568C60.6324 26.9115 60.4518 27.3476 60.1302 27.6691C59.8087 27.9907 59.3726 28.1713 58.9179 28.1713H14.0837Z" fill="#F4CA17"/>
<path d="M14.0837 40.5412C13.6287 40.5405 13.1926 40.3592 12.8712 40.0373C12.5497 39.7153 12.3691 39.2789 12.3691 38.824C12.3691 38.369 12.5497 37.9326 12.8712 37.6106C13.1926 37.2887 13.6287 37.1074 14.0837 37.1067H40.5241C40.979 37.1074 41.4151 37.2887 41.7366 37.6106C42.0581 37.9326 42.2386 38.369 42.2386 38.824C42.2386 39.2789 42.0581 39.7153 41.7366 40.0373C41.4151 40.3592 40.979 40.5405 40.5241 40.5412H14.0837Z" fill="#F4CA17"/>
<path d="M14.0837 52.9079C13.6287 52.9072 13.1926 52.7259 12.8712 52.404C12.5497 52.082 12.3691 51.6456 12.3691 51.1907C12.3691 50.7357 12.5497 50.2993 12.8712 49.9773C13.1926 49.6554 13.6287 49.4741 14.0837 49.4734H33.2598C33.715 49.4741 34.1514 49.6553 34.4733 49.9772C34.7952 50.2991 34.9763 50.7354 34.977 51.1907C34.9763 51.6459 34.7952 52.0823 34.4733 52.4041C34.1514 52.726 33.715 52.9072 33.2598 52.9079H14.0837Z" fill="#F4CA17"/>
<path d="M56.5993 73.0053C54.4078 73.0085 52.2383 72.569 50.2209 71.7133C49.2461 71.2991 48.3133 70.7925 47.4351 70.2005C46.5649 69.6087 45.7518 68.937 45.0064 68.1943C44.2637 67.4495 43.5929 66.6363 43.0029 65.7656C42.409 64.8881 41.9015 63.9551 41.4874 62.9798C40.6317 60.9623 40.1922 58.7928 40.1953 56.6014C40.192 54.4108 40.6315 52.2422 41.4874 50.2257C41.9003 49.2498 42.4079 48.3168 43.0029 47.44C43.5922 46.5678 44.263 45.7537 45.0064 45.0085C45.7512 44.2659 46.5644 43.5951 47.4351 43.0051C48.3126 42.4111 49.2455 41.9036 50.2209 41.4895C52.2387 40.6357 54.4082 40.1981 56.5993 40.2029C58.7886 40.1982 60.9562 40.6358 62.9722 41.4895C63.9481 41.9024 64.8812 42.41 65.758 43.0051C66.6301 43.5943 67.4443 44.2652 68.1894 45.0085C68.9328 45.7537 69.6036 46.5678 70.1929 47.44C70.7879 48.3168 71.2955 49.2498 71.7085 50.2257C72.5644 52.2422 73.0038 54.4108 73.0005 56.6014C73.0036 58.7928 72.5642 60.9623 71.7085 62.9798C71.2944 63.9551 70.7868 64.8881 70.1929 65.7656C69.6029 66.6363 68.9321 67.4495 68.1894 68.1943C67.4436 68.9377 66.6296 69.6094 65.758 70.2005C64.8805 70.7936 63.9475 71.3003 62.9722 71.7133C60.9566 72.5689 58.7889 73.0083 56.5993 73.0053ZM56.5993 43.632C53.1588 43.6327 49.8593 44.999 47.4255 47.4308C44.9916 49.8626 43.6226 53.1609 43.619 56.6014C43.6226 60.04 44.9901 63.3367 47.4216 65.7682C49.8531 68.1996 53.1498 69.5672 56.5884 69.5708C60.0289 69.5701 63.3284 68.2038 65.7622 65.772C68.196 63.3403 69.5651 60.0419 69.5687 56.6014C69.5651 53.1628 68.1975 49.8661 65.7661 47.4346C63.3346 45.0032 60.0379 43.6356 56.5993 43.632Z" fill="#F4CA17"/>
<path d="M55.1214 62.184C54.6717 62.1825 54.2404 62.0055 53.9193 61.6906L49.986 57.8254C49.8245 57.6676 49.6959 57.4795 49.6075 57.2718C49.5191 57.0641 49.4726 56.8409 49.4708 56.6152C49.4687 56.3896 49.5112 56.1658 49.5958 55.9567C49.6805 55.7476 49.8057 55.5573 49.9641 55.3967C50.1235 55.2329 50.3142 55.1028 50.525 55.0142C50.7358 54.9257 50.9622 54.8806 51.1908 54.8816C51.6397 54.8799 52.0711 55.0563 52.3901 55.3722L55.0423 57.9754L60.7311 51.5915C60.8921 51.4108 61.0894 51.2661 61.3102 51.167C61.531 51.0679 61.7702 51.0165 62.0122 51.0164C62.4336 51.0165 62.8402 51.1717 63.1544 51.4525C63.3232 51.6009 63.4608 51.7815 63.559 51.9837C63.6573 52.1859 63.7143 52.4056 63.7268 52.63C63.7413 52.8561 63.7104 53.0828 63.636 53.2967C63.5615 53.5106 63.4451 53.7075 63.2934 53.8757L56.4053 61.6061C56.2509 61.7793 56.0632 61.9195 55.8533 62.0183C55.6435 62.1171 55.4159 62.1726 55.1841 62.1813H55.1214V62.184Z" fill="#F4CA17"/>
<path d="M7.91072 66.8206C5.81422 66.8206 3.80359 65.9878 2.32114 64.5053C0.838688 63.0229 0.00585938 61.0122 0.00585938 58.9157V7.90486C0.00585937 5.80836 0.838688 3.79773 2.32114 2.31528C3.80359 0.832831 5.81422 0 7.91072 0H65.101C67.1975 0 69.2081 0.832831 70.6906 2.31528C72.173 3.79773 73.0059 5.80836 73.0059 7.90486V37.6789C73.0051 38.1341 72.824 38.5705 72.5021 38.8924C72.1802 39.2143 71.7438 39.3955 71.2886 39.3962C70.8334 39.3955 70.397 39.2143 70.0751 38.8924C69.7532 38.5705 69.5721 38.1341 69.5713 37.6789V7.90486C69.5699 6.71995 69.0984 5.58402 68.2602 4.74641C67.4221 3.90881 66.2859 3.43797 65.101 3.43725H7.91072C6.72628 3.43869 5.59076 3.90985 4.75323 4.74738C3.9157 5.5849 3.44455 6.72042 3.44311 7.90486V58.9212C3.44455 60.1056 3.9157 61.2411 4.75323 62.0787C5.59076 62.9162 6.72628 63.3873 7.91072 63.3888H34.223C34.6777 63.3888 35.1138 63.5694 35.4354 63.891C35.7569 64.2125 35.9375 64.6486 35.9375 65.1033C35.9375 65.5583 35.757 65.9947 35.4355 66.3167C35.1141 66.6386 34.678 66.8199 34.223 66.8206H7.91072Z" fill="#F4CA17"/>
<path d="M1.71726 14.2587C1.26203 14.258 0.825663 14.0768 0.50377 13.7549C0.181877 13.433 0.000720864 12.9967 0 12.5414C0.000722182 12.0865 0.181965 11.6504 0.503936 11.3289C0.825907 11.0075 1.26228 10.8269 1.71726 10.8269H71.2855C71.7404 10.8269 72.1768 11.0075 72.4988 11.3289C72.8208 11.6504 73.002 12.0865 73.0027 12.5414C73.002 12.9967 72.8209 13.433 72.499 13.7549C72.1771 14.0768 71.7407 14.258 71.2855 14.2587H1.71726Z" fill="#F4CA17"/>
</svg>
