<svg width="74" height="74" viewBox="0 0 74 74" fill="none" xmlns="http://www.w3.org/2000/svg">
<path d="M7.3374 5.43649V17.6032H9.77074V5.43649C9.77074 4.09238 10.86 3.00316 12.2041 3.00316H60.8707C62.2148 3.00316 63.3041 4.09238 63.3041 5.43649H65.7374C65.7374 2.74887 63.5583 0.569824 60.8707 0.569824H12.2041C9.51645 0.569824 7.3374 2.74887 7.3374 5.43649Z" fill="#D42C39"/>
<path d="M4.90426 73.5698H60.8709C63.5585 73.5698 65.7376 71.3908 65.7376 68.7032V63.8365H63.3043V68.7032C63.3043 70.0473 62.215 71.1365 60.8709 71.1365C59.5268 71.1365 58.4376 70.0473 58.4376 68.7032V65.0532C58.4376 64.381 57.8931 63.8365 57.2209 63.8365H9.77093V39.5032H7.3376V63.8365H1.25426C0.582056 63.8365 0.0375977 64.381 0.0375977 65.0532V68.7032C0.0375977 71.3908 2.21665 73.5698 4.90426 73.5698ZM2.47093 66.2698H56.0043V68.7032C56.0037 69.5582 56.2281 70.3974 56.6579 71.1365H4.90426C3.56015 71.1365 2.47093 70.0473 2.47093 68.7032V66.2698Z" fill="#D42C39"/>
<path d="M1.25426 37.0698H25.5876C26.2598 37.0698 26.8043 36.5254 26.8043 35.8532V21.2532C26.8043 20.581 26.2598 20.0365 25.5876 20.0365H1.25426C0.582056 20.0365 0.0375977 20.581 0.0375977 21.2532V35.8532C0.0375977 36.5254 0.582056 37.0698 1.25426 37.0698ZM2.47093 22.4698H24.3709V34.6365H2.47093V22.4698Z" fill="#D42C39"/>
<path d="M7.69422 25.2596L5.26089 27.693C4.78608 28.1684 4.78608 28.9379 5.26089 29.4133L7.69422 31.8467L9.41459 30.1263L7.84144 28.5532L9.41459 26.98L7.69422 25.2596Z" fill="#D42C39"/>
<path d="M19.1476 25.2596L17.4272 26.98L19.0004 28.5532L17.4272 30.1263L19.1476 31.8467L21.5809 29.4133C22.0558 28.9379 22.0558 28.1684 21.5809 27.693L19.1476 25.2596Z" fill="#D42C39"/>
<path d="M11.0488 31.8184L13.4834 24.5175L15.7926 25.2876L13.3568 32.5879L11.0488 31.8184Z" fill="#D42C39"/>
<path d="M71.8211 7.86981H30.4545C29.7823 7.86981 29.2378 8.41427 29.2378 9.08648V33.4198C29.2378 34.092 29.7823 34.6365 30.4545 34.6365H71.8211C72.4933 34.6365 73.0378 34.092 73.0378 33.4198V9.08648C73.0378 8.41427 72.4933 7.86981 71.8211 7.86981ZM70.6045 32.2031H31.6711V29.2418L42.5968 22.6864L53.2484 29.5751C53.6143 29.8109 54.0788 29.8337 54.4651 29.6335L63.2734 25.071L70.6045 29.2588V32.2031ZM70.6045 26.4568L63.9128 22.6304C63.5545 22.4248 63.1162 22.4166 62.7494 22.6061L53.9811 27.1482L43.2866 20.2311C42.8967 19.9793 42.3973 19.9711 41.9991 20.2105L31.6711 26.4045V10.3031H70.6045V26.4568Z" fill="#D42C39"/>
<path d="M57.8291 21.2532C60.181 21.2532 62.0875 19.3467 62.0875 16.9948C62.0875 14.643 60.181 12.7365 57.8291 12.7365C55.4773 12.7365 53.5708 14.643 53.5708 16.9948C53.5708 19.3467 55.4773 21.2532 57.8291 21.2532ZM57.8291 15.1698C58.8371 15.1698 59.6541 15.9868 59.6541 16.9948C59.6541 18.0029 58.8371 18.8198 57.8291 18.8198C56.8211 18.8198 56.0041 18.0029 56.0041 16.9948C56.0041 15.9868 56.8211 15.1698 57.8291 15.1698Z" fill="#D42C39"/>
<path d="M12.2041 40.7198V55.3198C12.2041 55.9921 12.7486 56.5365 13.4208 56.5365H43.8374C44.5096 56.5365 45.0541 55.9921 45.0541 55.3198V40.7198C45.0541 40.0476 44.5096 39.5032 43.8374 39.5032H13.4208C12.7486 39.5032 12.2041 40.0476 12.2041 40.7198ZM14.6374 41.9365H42.6208V54.1032H14.6374V41.9365Z" fill="#D42C39"/>
<path d="M17.0708 44.3698H21.9375V46.8031H17.0708V44.3698Z" fill="#D42C39"/>
<path d="M24.3711 44.3698H35.3211V46.8031H24.3711V44.3698Z" fill="#D42C39"/>
<path d="M37.7544 44.3698H40.1877V46.8031H37.7544V44.3698Z" fill="#D42C39"/>
<path d="M17.0708 49.2365H31.6708V51.6698H17.0708V49.2365Z" fill="#D42C39"/>
<path d="M34.1045 49.2365H40.1878V51.6698H34.1045V49.2365Z" fill="#D42C39"/>
<path d="M12.2041 5.43646H14.6374V7.8698H12.2041V5.43646Z" fill="#D42C39"/>
<path d="M17.0708 5.43646H19.5041V7.8698H17.0708V5.43646Z" fill="#D42C39"/>
<path d="M21.9375 5.43646H24.3708V7.8698H21.9375V5.43646Z" fill="#D42C39"/>
<path d="M12.2041 10.3032H26.8041V12.7365H12.2041V10.3032Z" fill="#D42C39"/>
<path d="M71.8211 44.3698H48.7045C48.0323 44.3698 47.4878 44.9143 47.4878 45.5865V60.1865C47.4878 60.8587 48.0323 61.4031 48.7045 61.4031H71.8211C72.4933 61.4031 73.0378 60.8587 73.0378 60.1865V45.5865C73.0378 44.9143 72.4933 44.3698 71.8211 44.3698ZM70.6045 58.9698H49.9211V46.8031H70.6045V58.9698Z" fill="#D42C39"/>
<path d="M52.3545 49.2365H54.7878V51.6698H52.3545V49.2365Z" fill="#D42C39"/>
<path d="M52.3545 54.1031H54.7878V56.5365H52.3545V54.1031Z" fill="#D42C39"/>
<path d="M57.2207 49.2365H68.1707V51.6698H57.2207V49.2365Z" fill="#D42C39"/>
<path d="M57.2207 54.1031H68.1707V56.5365H57.2207V54.1031Z" fill="#D42C39"/>
<path d="M63.3042 37.0698H65.7375V41.9365H63.3042V37.0698Z" fill="#D42C39"/>
</svg>
