<svg width="58" height="74" viewBox="0 0 58 74" fill="none" xmlns="http://www.w3.org/2000/svg">
<path d="M57.0291 27.5929C58.1404 25.6103 57.7506 23.1488 56.081 21.6067C55.3815 20.9606 55.0625 19.9792 55.2487 19.0454C55.693 16.8167 54.5615 14.596 52.4973 13.6453C51.6324 13.2471 51.0259 12.4121 50.9144 11.4665C50.648 9.20953 48.8858 7.44712 46.6288 7.18107C45.6832 7.06957 44.8484 6.4629 44.45 5.59802C43.4993 3.53378 41.2784 2.40256 39.05 2.84655C38.116 3.03276 37.1348 2.71367 36.4887 2.01432C34.9467 0.34487 32.4848 -0.0447962 30.5026 1.06617C29.6719 1.53169 28.6401 1.53183 27.8096 1.06617C25.827 -0.0447962 23.3657 0.34487 21.8234 2.01432C21.1774 2.71367 20.196 3.03318 19.2621 2.84655C17.0332 2.4027 14.8128 3.53378 13.862 5.59802C13.4638 6.4629 12.6288 7.06943 11.6834 7.18093C9.42637 7.44712 7.66396 9.20939 7.39777 11.4665C7.28627 12.4121 6.6796 13.2469 5.81486 13.6451C3.75061 14.5959 2.61897 16.8165 3.06339 19.0453C3.24959 19.9792 2.93065 20.9605 2.23116 21.6066C0.561708 23.1486 0.171757 25.6103 1.28301 27.5927C1.74867 28.4234 1.74867 29.4551 1.28301 30.2857C0.171757 32.2683 0.561566 34.7298 2.23116 36.2719C2.93065 36.9181 3.24959 37.8993 3.06339 38.833C2.61911 41.0618 3.75061 43.2825 5.81486 44.2332C6.67974 44.6315 7.28627 45.4665 7.39777 46.4121C7.61919 48.2888 8.87559 49.8228 10.5904 50.4397L3.05184 65.8835C2.88574 66.2236 2.91197 66.6261 3.12042 66.9419C3.32887 67.2577 3.68788 67.4422 4.06671 67.4205L11.3004 67.0547L15.4623 72.9828C15.6635 73.2692 15.9908 73.4376 16.3373 73.4376C16.3654 73.4376 16.3936 73.4365 16.4218 73.4343C16.7991 73.4045 17.1324 73.1774 17.2984 72.8374L24.8304 57.4061C25.8321 57.5269 26.8741 57.3371 27.8094 56.8127C28.6399 56.3472 29.6716 56.347 30.5024 56.8127C31.2575 57.2359 32.0818 57.4415 32.8986 57.4413C33.113 57.4413 33.3266 57.4257 33.5385 57.3976L41.0748 72.8374C41.2407 73.1774 41.5741 73.4045 41.9513 73.4343C41.9796 73.4366 42.0078 73.4376 42.0359 73.4376C42.3823 73.4376 42.7097 73.2692 42.9109 72.9828L47.0727 67.0547L54.3065 67.4205C54.6831 67.4402 55.0443 67.2576 55.2527 66.9419C55.4613 66.6261 55.4874 66.2236 55.3213 65.8835L47.7738 50.4206C49.4618 49.7916 50.6951 48.2698 50.9142 46.4119C51.0257 45.4663 51.6324 44.6315 52.4971 44.2332C54.5614 43.2825 55.693 41.0618 55.2486 38.833C55.0624 37.8991 55.3813 36.9179 56.0808 36.2717C57.7503 34.7298 58.1402 32.268 57.029 30.2856C56.5635 29.4554 56.5635 28.4234 57.0291 27.5929ZM16.1713 70.2707L12.7114 65.3425C12.5002 65.0418 12.1503 64.8692 11.7822 64.8889L5.76853 65.1932L12.6859 51.0213C13.195 51.3023 13.6133 51.7412 13.8618 52.2807C14.3698 53.384 15.2409 54.2201 16.2817 54.6924L13.9952 59.3768C13.7361 59.9075 13.9564 60.5477 14.487 60.8068C14.638 60.8805 14.7979 60.9154 14.9553 60.9154C15.3511 60.9154 15.7316 60.6947 15.9171 60.3149L18.4501 55.1252C18.7192 55.1166 18.9905 55.0864 19.262 55.0323C20.196 54.8458 21.1772 55.1651 21.8233 55.8646C22.1194 56.1852 22.4498 56.4583 22.8039 56.6828L16.1713 70.2707ZM52.6045 65.1932L46.5907 64.8891C46.2231 64.8685 45.8727 65.0418 45.6615 65.3426L42.2016 70.2708L35.5541 56.652C35.8906 56.4332 36.2053 56.171 36.4884 55.8644C37.1345 55.1649 38.1158 54.8461 39.0497 55.0322C39.3421 55.0905 39.6344 55.1209 39.9237 55.1264L42.4562 60.3149C42.6416 60.6945 43.0219 60.9153 43.4179 60.9153C43.5753 60.9153 43.7353 60.8803 43.8863 60.8066C44.4169 60.5476 44.6372 59.9074 44.3782 59.3767L42.0804 54.669C43.0989 54.1928 43.9501 53.3659 44.4502 52.2806C44.7065 51.7239 45.1441 51.2754 45.6752 50.9959L52.6045 65.1932ZM54.6301 34.701C53.3874 35.8487 52.8211 37.5923 53.1517 39.2512C53.4018 40.5059 52.7649 41.7557 51.603 42.2908C50.0666 42.9984 48.989 44.4815 48.7908 46.1615C48.641 47.4321 47.6489 48.424 46.3785 48.5738C44.6987 48.772 43.2154 49.8496 42.5078 51.386C41.9727 52.5481 40.7227 53.1852 39.468 52.9347C37.8094 52.6044 36.0654 53.1706 34.9178 54.4133C34.0498 55.3531 32.6642 55.5726 31.5482 54.9471C30.8103 54.5335 29.9833 54.3266 29.1561 54.3266C28.329 54.3266 27.5016 54.5335 26.7639 54.9469C25.6479 55.5724 24.2624 55.353 23.3943 54.4133C22.2466 53.1707 20.5028 52.6042 18.8441 52.9347C17.5895 53.185 16.3396 52.5479 15.8045 51.386C15.0969 49.8496 13.6138 48.772 11.9338 48.5738C10.6632 48.424 9.67132 47.4319 9.52147 46.1615C9.32329 44.4817 8.24568 42.9984 6.70926 42.2907C5.54724 41.7556 4.91049 40.5057 5.16057 39.2511C5.49121 37.5922 4.92475 35.8486 3.68218 34.7008C2.74244 33.8328 2.52287 32.4472 3.14836 31.3313C3.9756 29.8557 3.9756 28.0225 3.14836 26.5468C2.52273 25.4308 2.7423 24.0454 3.68203 23.1772C4.92475 22.0295 5.49107 20.2859 5.16057 18.627C4.91049 17.3724 5.54739 16.1224 6.70926 15.5873C8.24568 14.8797 9.32329 13.3966 9.52147 11.7166C9.67132 10.446 10.6634 9.4542 11.9338 9.30435C13.6136 9.10616 15.097 8.02856 15.8045 6.49213C16.3396 5.33012 17.5893 4.69337 18.8442 4.94345C20.5038 5.27423 22.2467 4.70748 23.3945 3.46491C24.2625 2.52518 25.6482 2.30546 26.764 2.93124C28.2396 3.75834 30.0728 3.75834 31.5484 2.93124C32.6643 2.30546 34.0498 2.52503 34.9179 3.46491C36.0657 4.70748 37.809 5.27409 39.4682 4.94345C40.7233 4.69308 41.9726 5.3304 42.5078 6.49213C43.2154 8.02856 44.6985 9.10616 46.3785 9.30435C47.649 9.4542 48.641 10.4463 48.7908 11.7166C48.989 13.3965 50.0666 14.8799 51.603 15.5873C52.765 16.1224 53.4018 17.3724 53.1517 18.627C52.8211 20.2859 53.3875 22.0295 54.6302 23.1772C55.57 24.0452 55.7896 25.4308 55.1641 26.5468C54.3368 28.0227 54.3368 29.856 55.1641 31.3314C55.7893 32.4474 55.5697 33.8329 54.6301 34.701Z" fill="#9ECC3B"/>
<path d="M46.2255 24.3683C46.2255 22.5179 44.7205 21.0129 42.8704 21.0129H35.5892C36.2036 19.864 37.002 18.1867 37.6582 16.1899C38.1593 14.6656 37.3173 13.0087 35.7817 12.4968L35.7158 12.4749C34.3086 12.0054 32.7605 12.6703 32.1147 14.0211C31.1706 15.9974 29.0687 19.5017 25.5158 21.013H24.8181C24.2028 20.3131 23.302 19.8701 22.2989 19.8701H17.7276C15.8776 19.8701 14.3726 21.3752 14.3726 23.2251V39.2253C14.3726 41.0752 15.8776 42.5803 17.7276 42.5803H22.2989C23.302 42.5803 24.2028 42.1373 24.8181 41.4374H39.442C41.2919 41.4374 42.797 39.9323 42.797 38.0823C42.797 37.4596 42.6264 36.8758 42.3296 36.3757C43.2946 35.7858 43.9397 34.7223 43.9397 33.511C43.9397 32.8882 43.7692 32.3045 43.4724 31.8043C44.4373 31.2145 45.0825 30.151 45.0825 28.9397C45.0825 28.3169 44.912 27.7332 44.6151 27.233C45.5802 26.6432 46.2255 25.5795 46.2255 24.3683ZM42.8704 25.5842H39.4418C38.8513 25.5842 38.3725 26.063 38.3725 26.6536C38.3725 27.2441 38.8513 27.7229 39.4418 27.7229H41.7275C42.3983 27.7229 42.944 28.2687 42.944 28.9394C42.944 29.6101 42.3982 30.1559 41.7275 30.1559H38.2989C37.7083 30.1559 37.2296 30.6346 37.2296 31.2252C37.2296 31.8157 37.7083 32.2945 38.2989 32.2945H40.5846C41.2554 32.2945 41.8011 32.8403 41.8011 33.511C41.8011 34.1817 41.2553 34.7275 40.5846 34.7275H37.1561C36.5656 34.7275 36.0868 35.2063 36.0868 35.7968C36.0868 36.3874 36.5656 36.8662 37.1561 36.8662H39.4418C40.1126 36.8662 40.6583 37.4119 40.6583 38.0826C40.6583 38.7533 40.1125 39.2991 39.4418 39.2991H25.6539V28.9398C25.6539 28.3492 25.1751 27.8705 24.5846 27.8705C23.994 27.8705 23.5152 28.3492 23.5152 28.9398V39.2255C23.5152 39.8964 22.9695 40.442 22.2988 40.442H17.7274C17.0566 40.442 16.5109 39.8962 16.5109 39.2255V23.225C16.5109 22.5541 17.0567 22.0085 17.7274 22.0085H22.2988C22.9696 22.0085 23.5152 22.5543 23.5152 23.225V24.3677C23.5152 24.9583 23.994 25.4371 24.5846 25.4371C25.1751 25.4371 25.6539 24.9583 25.6539 24.3677V23.1514H25.7275C25.8635 23.1514 25.9983 23.1255 26.1247 23.0748C30.4647 21.3388 32.9497 17.2347 34.0444 14.9429C34.2256 14.5635 34.6538 14.3751 35.0391 14.5033L35.1052 14.5254C35.5272 14.666 35.7612 15.1131 35.6267 15.5222C34.4892 18.9831 32.854 21.4651 32.838 21.4891C32.6192 21.8172 32.5989 22.239 32.7848 22.5868C32.9709 22.9344 33.3333 23.1516 33.7277 23.1516H42.8707C43.5415 23.1516 44.0872 23.6973 44.0872 24.368C44.0872 25.0387 43.5412 25.5842 42.8704 25.5842Z" fill="#9ECC3B"/>
<path d="M20.0313 38.0092C20.6218 38.0092 21.1006 37.5304 21.1006 36.9399C21.1006 36.3493 20.6218 35.8705 20.0313 35.8705C19.4407 35.8705 18.9619 36.3493 18.9619 36.9399C18.9619 37.5304 19.4407 38.0092 20.0313 38.0092Z" fill="#9ECC3B"/>
</svg>
