<svg width="73" height="73" viewBox="0 0 73 73" fill="none" xmlns="http://www.w3.org/2000/svg">
<path d="M62.3094 10.6906C55.4156 3.7967 46.2493 0 36.5 0C26.7507 0 17.5844 3.7967 10.6906 10.6906C3.7967 17.5844 0 26.7507 0 36.5C0 46.2493 3.7967 55.4156 10.6906 62.3094C17.5844 69.2033 26.7507 73 36.5 73C46.2493 73 55.4156 69.2033 62.3094 62.3094C69.2033 55.4156 73 46.2493 73 36.5C73 26.7507 69.2033 17.5844 62.3094 10.6906ZM15.8412 61.2083C17.0464 50.838 25.9626 42.8314 36.5 42.8314C42.055 42.8314 47.2786 44.9957 51.2078 48.9243C54.5272 52.2443 56.6208 56.579 57.1593 61.2078C51.562 65.8956 44.3552 68.7227 36.5 68.7227C28.6448 68.7227 21.4385 65.8962 15.8412 61.2083ZM36.5 38.4259C30.3875 38.4259 25.414 33.4524 25.414 27.3399C25.414 21.2269 30.3875 16.2539 36.5 16.2539C42.6125 16.2539 47.586 21.2269 47.586 27.3399C47.586 33.4524 42.6125 38.4259 36.5 38.4259ZM60.8408 57.5921C59.7508 53.1978 57.4779 49.146 54.232 45.9001C51.6033 43.2713 48.4933 41.2992 45.1015 40.0633C49.1789 37.2981 51.8633 32.6264 51.8633 27.3399C51.8633 18.8688 44.9711 11.9766 36.5 11.9766C28.0289 11.9766 21.1367 18.8688 21.1367 27.3399C21.1367 32.6292 23.8234 37.3026 27.9041 40.0672C24.7835 41.2045 21.8958 42.9628 19.4112 45.2775C15.8134 48.6281 13.3149 52.9004 12.1565 57.5888C7.25032 51.933 4.27734 44.5573 4.27734 36.5C4.27734 18.7323 18.7323 4.27734 36.5 4.27734C54.2677 4.27734 68.7227 18.7323 68.7227 36.5C68.7227 44.559 65.7486 51.9363 60.8408 57.5921Z" fill="#3BA6DD"/>
</svg>
