<svg width="73" height="74" viewBox="0 0 73 74" fill="none" xmlns="http://www.w3.org/2000/svg">
<path d="M68.1333 0.437622H4.86667C3.57595 0.437622 2.33809 0.950359 1.42541 1.86304C0.512737 2.77571 0 4.01357 0 5.30429L0 56.4043C0 57.695 0.512737 58.9329 1.42541 59.8455C2.33809 60.7582 3.57595 61.271 4.86667 61.271H25.8177L24.601 66.1376H21.9C20.44 66.1352 19.0278 66.6579 17.9212 67.6103C16.8147 68.5627 16.0875 69.8814 15.8726 71.3255C15.8325 71.5865 15.8492 71.8531 15.9217 72.1071C15.9941 72.361 16.1206 72.5963 16.2924 72.7969C16.4641 72.9975 16.6772 73.1585 16.9171 73.2691C17.1569 73.3797 17.4177 73.4372 17.6818 73.4376H55.3194C55.5831 73.4369 55.8435 73.3794 56.0829 73.2689C56.3223 73.1585 56.5351 72.9977 56.7068 72.7977C56.8785 72.5976 57.005 72.3628 57.0778 72.1094C57.1506 71.856 57.1679 71.5899 57.1286 71.3291C56.9073 69.8873 56.1783 68.572 55.073 67.6201C53.9677 66.6682 52.5587 66.1425 51.1 66.1376H48.399L47.1823 61.271H68.1333C69.4241 61.271 70.6619 60.7582 71.5746 59.8455C72.4873 58.9329 73 57.695 73 56.4043V5.30429C73 4.01357 72.4873 2.77571 71.5746 1.86304C70.6619 0.950359 69.4241 0.437622 68.1333 0.437622V0.437622ZM4.86667 2.87096H68.1333C68.7787 2.87096 69.3976 3.12732 69.854 3.58366C70.3103 4.04 70.5667 4.65893 70.5667 5.30429V51.5376H2.43333V5.30429C2.43333 4.65893 2.6897 4.04 3.14604 3.58366C3.60238 3.12732 4.22131 2.87096 4.86667 2.87096ZM38.9333 56.4043C38.9333 56.8856 38.7906 57.356 38.5232 57.7562C38.2559 58.1563 37.8758 58.4682 37.4312 58.6524C36.9866 58.8366 36.4973 58.8848 36.0253 58.7909C35.5533 58.697 35.1197 58.4652 34.7794 58.1249C34.4391 57.7846 34.2073 57.351 34.1134 56.879C34.0195 56.407 34.0677 55.9177 34.2519 55.4731C34.4361 55.0285 34.748 54.6484 35.1481 54.381C35.5483 54.1137 36.0187 53.971 36.5 53.971C37.1454 53.971 37.7643 54.2273 38.2206 54.6837C38.677 55.14 38.9333 55.7589 38.9333 56.4043ZM2.43333 56.4043V53.971H32.3098C31.8672 54.7054 31.6333 55.5467 31.6333 56.4043C31.6333 57.2618 31.8672 58.1031 32.3098 58.8376H4.86667C4.22131 58.8376 3.60238 58.5813 3.14604 58.1249C2.6897 57.6686 2.43333 57.0497 2.43333 56.4043ZM54.5529 71.0043H18.4483C18.7005 70.291 19.1681 69.6737 19.7865 69.2377C20.4049 68.8018 21.1434 68.5688 21.9 68.571H51.1C51.8556 68.5735 52.5922 68.8083 53.2098 69.2436C53.8275 69.6789 54.2964 70.2935 54.5529 71.0043ZM45.8927 66.1376H27.1073L28.324 61.271H44.676L45.8927 66.1376ZM68.1333 58.8376H40.6902C41.1328 58.1031 41.3667 57.2618 41.3667 56.4043C41.3667 55.5467 41.1328 54.7054 40.6902 53.971H70.5667V56.4043C70.5667 57.0497 70.3103 57.6686 69.854 58.1249C69.3976 58.5813 68.7787 58.8376 68.1333 58.8376Z" fill="#9ECC3B"/>
<path d="M7.30003 49.1043H65.7C66.3454 49.1043 66.9643 48.848 67.4207 48.3916C67.877 47.9353 68.1334 47.3163 68.1334 46.671V7.73765C68.1334 7.09229 67.877 6.47337 67.4207 6.01703C66.9643 5.56069 66.3454 5.30432 65.7 5.30432H7.30003C6.65467 5.30432 6.03574 5.56069 5.57941 6.01703C5.12307 6.47337 4.8667 7.09229 4.8667 7.73765V46.671C4.8667 47.3163 5.12307 47.9353 5.57941 48.3916C6.03574 48.848 6.65467 49.1043 7.30003 49.1043ZM18.5043 34.6017C18.7697 35.2973 19.2426 35.8946 19.8588 36.3126C20.475 36.7305 21.2048 36.949 21.9493 36.9384C22.6938 36.9277 23.417 36.6885 24.0211 36.2532C24.6251 35.8178 25.0807 35.2073 25.3262 34.5043H26.8397C29.3273 34.5071 31.8019 34.1455 34.1847 33.4312L39.7534 31.762C39.9378 31.7042 40.1333 31.6912 40.3237 31.7239C40.5141 31.7567 40.694 31.8344 40.8484 31.9505C41.0229 32.0786 41.1615 32.2495 41.2508 32.4467C41.3401 32.6438 41.3771 32.8607 41.3583 33.0763C41.3395 33.292 41.2655 33.4991 41.1433 33.6779C41.0212 33.8566 40.8551 34.0008 40.661 34.0967L36.6947 36.086C35.5064 36.684 34.235 37.1003 32.923 37.3209L29.1623 37.9451C29.1168 37.6648 28.9734 37.4097 28.7575 37.2253C28.5416 37.0408 28.2673 36.9389 27.9834 36.9377C27.6607 36.9377 27.3512 37.0658 27.1231 37.294C26.8949 37.5222 26.7667 37.8316 26.7667 38.1543V46.671H19.4667V41.8043C19.4667 41.4816 19.3385 41.1722 19.1103 40.944C18.8822 40.7158 18.5727 40.5877 18.25 40.5877C17.9274 40.5877 17.6179 40.7158 17.3897 40.944C17.1616 41.1722 17.0334 41.4816 17.0334 41.8043V46.671H13.3834V40.5877C13.3883 39.1446 13.906 37.7503 14.8441 36.6538C15.7821 35.5573 17.0795 34.8299 18.5043 34.6017ZM27.3969 13.821C26.2829 15.1495 25.6342 16.8062 25.55 18.538C24.6641 18.3988 23.8503 17.9671 23.2384 17.3116C23.0739 17.1186 22.8695 16.9636 22.6393 16.8573C22.409 16.751 22.1585 16.696 21.9049 16.696C21.6513 16.696 21.4008 16.751 21.1705 16.8573C20.9403 16.9636 20.7359 17.1186 20.5714 17.3116C19.6125 18.2076 18.3457 18.7003 17.0334 18.6877V16.2543C17.0334 15.609 17.2897 14.99 17.7461 14.5337C18.2024 14.0774 18.8213 13.821 19.4667 13.821H27.3969ZM17.0334 21.121C18.7962 21.0982 20.5039 20.5039 21.9 19.4274C23.2954 20.5053 25.0036 21.0998 26.7667 21.121C27.0558 21.1208 27.3355 21.2235 27.5557 21.4108C27.7759 21.598 27.9223 21.8576 27.9686 22.1429C28.0148 22.4283 27.958 22.7208 27.8082 22.968C27.6584 23.2153 27.4255 23.4011 27.1512 23.4923C26.7324 23.6219 26.3573 23.8641 26.0668 24.1924C25.7763 24.5206 25.5816 24.9224 25.5038 25.3538C25.3661 26.2104 24.9278 26.9901 24.2674 27.5528C23.607 28.1156 22.7677 28.4247 21.9 28.4247C21.0324 28.4247 20.1931 28.1156 19.5327 27.5528C18.8723 26.9901 18.4339 26.2104 18.2963 25.3538C18.2183 24.9226 18.0234 24.5211 17.7329 24.1931C17.4425 23.865 17.0675 23.623 16.6489 23.4935C16.3737 23.403 16.1397 23.2173 15.9892 22.9697C15.8387 22.7222 15.7814 22.429 15.8278 22.143C15.8741 21.857 16.021 21.5969 16.242 21.4096C16.463 21.2222 16.7436 21.1199 17.0334 21.121ZM21.9 30.8543C22.3089 30.8518 22.7164 30.8086 23.1167 30.7254V33.2877C23.1167 33.6103 22.9885 33.9198 22.7603 34.148C22.5322 34.3761 22.2227 34.5043 21.9 34.5043C21.5774 34.5043 21.2679 34.3761 21.0397 34.148C20.8115 33.9198 20.6834 33.6103 20.6834 33.2877V30.7241C21.0835 30.8083 21.4911 30.8519 21.9 30.8543ZM36.5 38.8271C36.9368 38.6544 37.3687 38.4621 37.7873 38.2577L41.7463 36.2758C42.3613 35.9695 42.879 35.4983 43.2417 34.9147C43.6043 34.3312 43.7977 33.6584 43.8 32.9713C43.7988 32.4592 43.6899 31.9531 43.4803 31.4859C43.2706 31.0187 42.9651 30.6008 42.5834 30.2594V25.9877C42.5834 25.665 42.4552 25.3555 42.227 25.1273C41.9988 24.8992 41.6894 24.771 41.3667 24.771C41.044 24.771 40.7346 24.8992 40.5064 25.1273C40.2782 25.3555 40.15 25.665 40.15 25.9877V29.2909C39.7771 29.2815 39.4049 29.3295 39.0465 29.4333L36.5 30.1961V19.9043C36.5 19.5816 36.6282 19.2722 36.8564 19.044C37.0846 18.8158 37.394 18.6877 37.7167 18.6877H59.6167C59.9394 18.6877 60.2488 18.8158 60.477 19.044C60.7052 19.2722 60.8334 19.5816 60.8334 19.9043V39.371C60.8334 39.6937 60.7052 40.0031 60.477 40.2313C60.2488 40.4595 59.9394 40.5877 59.6167 40.5877H37.7167C37.394 40.5877 37.0846 40.4595 36.8564 40.2313C36.6282 40.0031 36.5 39.6937 36.5 39.371V38.8271ZM7.30003 7.73765H65.7V46.671H29.2V40.4027L33.3209 39.719C33.5788 39.6752 33.8319 39.6155 34.0862 39.5596C34.1344 40.4912 34.5374 41.369 35.2126 42.0128C35.8878 42.6565 36.7838 43.0173 37.7167 43.021H59.6167C60.5847 43.021 61.5131 42.6364 62.1976 41.9519C62.8821 41.2674 63.2667 40.339 63.2667 39.371V19.9043C63.2667 18.9363 62.8821 18.0079 62.1976 17.3234C61.5131 16.6389 60.5847 16.2543 59.6167 16.2543H37.7167C36.7487 16.2543 35.8203 16.6389 35.1358 17.3234C34.4513 18.0079 34.0667 18.9363 34.0667 19.9043V30.9261L33.4839 31.1001C31.3286 31.7473 29.0901 32.0752 26.8397 32.0734H25.55V29.6304C26.8054 28.7092 27.6545 27.3371 27.9189 25.8027C28.6415 25.5631 29.271 25.1036 29.7195 24.4885C30.168 23.8734 30.4129 23.1335 30.42 22.3723C30.4271 21.611 30.1961 20.8667 29.7591 20.2433C29.3222 19.6199 28.7013 19.1487 27.9834 18.8957V18.6877C28.0797 17.1688 28.7478 15.7429 29.8534 14.697C30.1198 14.4212 30.2991 14.073 30.3689 13.6959C30.4387 13.3188 30.396 12.9295 30.246 12.5766C30.096 12.2237 29.8454 11.9227 29.5254 11.7113C29.2055 11.4998 28.8304 11.3873 28.4469 11.3877H19.4667C18.176 11.3877 16.9381 11.9004 16.0254 12.8131C15.1128 13.7257 14.6 14.9636 14.6 16.2543V19.6367C14.2188 19.9761 13.9134 20.3921 13.7038 20.8575C13.4941 21.3229 13.385 21.8272 13.3834 22.3377C13.374 23.1013 13.6141 23.8471 14.0671 24.4619C14.5201 25.0767 15.1613 25.527 15.8933 25.7443C16.1444 27.2946 16.9898 28.686 18.25 29.6231V32.1683C16.2254 32.4621 14.374 33.4742 13.0337 35.0199C11.6935 36.5657 10.9539 38.5418 10.95 40.5877V46.671H7.30003V7.73765Z" fill="#9ECC3B"/>
<path d="M45.0165 23.5543H55.9665C56.2891 23.5543 56.5986 23.4261 56.8268 23.198C57.055 22.9698 57.1831 22.6603 57.1831 22.3376C57.1831 22.015 57.055 21.7055 56.8268 21.4773C56.5986 21.2492 56.2891 21.121 55.9665 21.121H45.0165C44.6938 21.121 44.3843 21.2492 44.1562 21.4773C43.928 21.7055 43.7998 22.015 43.7998 22.3376C43.7998 22.6603 43.928 22.9698 44.1562 23.198C44.3843 23.4261 44.6938 23.5543 45.0165 23.5543Z" fill="#9ECC3B"/>
<path d="M55.9666 25.9877H46.2333C45.9106 25.9877 45.6011 26.1159 45.373 26.344C45.1448 26.5722 45.0166 26.8817 45.0166 27.2043C45.0166 27.527 45.1448 27.8365 45.373 28.0647C45.6011 28.2928 45.9106 28.421 46.2333 28.421H55.9666C56.2893 28.421 56.5987 28.2928 56.8269 28.0647C57.0551 27.8365 57.1833 27.527 57.1833 27.2043C57.1833 26.8817 57.0551 26.5722 56.8269 26.344C56.5987 26.1159 56.2893 25.9877 55.9666 25.9877Z" fill="#9ECC3B"/>
</svg>
