<svg width="85" height="74" viewBox="0 0 85 74" fill="none" xmlns="http://www.w3.org/2000/svg">
<path d="M83.9057 17.7891L69.8674 0.942989C69.6007 0.624328 69.2062 0.439087 68.7892 0.439087H15.4431C15.0262 0.439087 14.6317 0.623012 14.3649 0.942989L0.326532 17.7891C-0.0230579 18.2074 -0.0988982 18.79 0.132736 19.2827C0.36437 19.7754 0.859882 20.0913 1.40458 20.0913H82.8274C83.3721 20.0913 83.8676 19.7754 84.0992 19.2827C84.3297 18.7915 84.2553 18.2088 83.9057 17.7891ZM4.402 17.2837L16.1002 3.24534H68.1308L79.8289 17.2837H4.402Z" fill="#D42C70"/>
<path d="M43.4146 1.30378C43.197 0.778821 42.6847 0.437622 42.1174 0.437622H15.4445C14.9419 0.437622 14.4786 0.705778 14.2274 1.14239C13.9762 1.57901 13.9775 2.11384 14.2317 2.54898L24.0585 19.3951C24.2775 19.7698 24.658 20.024 25.0904 20.0801C25.1507 20.0872 25.2111 20.0913 25.27 20.0913C25.6407 20.0913 25.9986 19.9454 26.264 19.68L43.1101 2.83391C43.5115 2.4325 43.6323 1.82874 43.4146 1.30378ZM25.5648 16.4077L17.8872 3.24536H38.7271L25.5648 16.4077Z" fill="#D42C70"/>
<path d="M84.0845 18.0642C83.8486 17.5854 83.3601 17.2822 82.8266 17.2822H1.40388C0.870366 17.2822 0.383244 17.5854 0.146016 18.0642C-0.0898949 18.5429 -0.0351121 19.1142 0.289142 19.5382L41.0006 72.8842C41.266 73.2323 41.6787 73.4373 42.1166 73.4373C42.5546 73.4373 42.9673 73.2323 43.2299 72.8842L83.9414 19.5382C84.2656 19.1142 84.3202 18.5429 84.0845 18.0642ZM42.1166 69.72L4.24238 20.0914H79.9909L42.1166 69.72Z" fill="#D42C70"/>
<path d="M43.4556 71.6096L26.6095 18.2636C26.4243 17.6796 25.8837 17.2823 25.2702 17.2823H1.40486C0.871342 17.2823 0.38422 17.5855 0.146993 18.0642C-0.0889183 18.5429 -0.0341356 19.1143 0.290119 19.5382L41.0016 72.8842C41.2738 73.2422 41.6909 73.4373 42.1176 73.4373C42.3366 73.4373 42.5583 73.3868 42.7633 73.2773C43.3686 72.9644 43.6604 72.2596 43.4556 71.6096ZM4.24204 20.0915H24.2412L38.3582 64.7955L4.24204 20.0915Z" fill="#D42C70"/>
<path d="M70.0062 1.14239C69.7563 0.705778 69.2918 0.437622 68.7892 0.437622H42.1161C41.549 0.437622 41.0366 0.778821 40.8189 1.30378C40.6013 1.82874 40.722 2.4325 41.1236 2.83391L57.9697 19.68C58.2336 19.9454 58.5915 20.0913 58.9622 20.0913C59.0226 20.0913 59.0829 20.087 59.1433 20.0801C59.5743 20.024 59.9562 19.7713 60.1751 19.3951L70.002 2.54898C70.2547 2.11384 70.2561 1.57901 70.0062 1.14239ZM58.6674 16.4077L45.5049 3.24536H66.3449L58.6674 16.4077Z" fill="#D42C70"/>
<path d="M84.0867 18.0671C83.8507 17.5884 83.3623 17.2852 82.8288 17.2852H58.9634C58.3499 17.2852 57.808 17.6825 57.6241 18.2665L40.778 71.6125C40.573 72.261 40.865 72.9658 41.4701 73.2803C41.6751 73.387 41.8969 73.4376 42.1158 73.4376C42.5413 73.4376 42.9581 73.2425 43.2319 72.8873L83.9434 19.5413C84.2678 19.117 84.3224 18.5457 84.0867 18.0671ZM45.8741 64.7953L59.9911 20.0913H79.9903L45.8741 64.7953Z" fill="#D42C70"/>
</svg>
