<svg width="73" height="74" viewBox="0 0 73 74" fill="none" xmlns="http://www.w3.org/2000/svg">
<path d="M70.7193 30.6569C70.0868 29.646 69.4893 28.6909 69.2656 27.8549C69.0249 26.9539 69.0627 25.7889 69.1028 24.5554C69.1672 22.5733 69.2402 20.3267 68.1135 18.3792C66.971 16.4047 64.9732 15.3421 63.2107 14.4048C62.1349 13.8327 61.119 13.2924 60.4804 12.6538C59.8419 12.0153 59.3016 10.9992 58.7294 9.92361C57.792 8.16083 56.7295 6.1631 54.7547 5.02068C52.8073 3.89392 50.561 3.96635 48.5786 4.0313C47.345 4.0711 46.18 4.10904 45.2791 3.86834C44.4429 3.64474 43.488 3.04724 42.4769 2.41467C40.7688 1.34596 38.8324 0.134277 36.5 0.134277C34.1676 0.134277 32.2312 1.34596 30.5228 2.41481C29.5118 3.04738 28.5568 3.64503 27.7206 3.86849C26.8196 4.10918 25.6548 4.07125 24.4211 4.03144C22.4392 3.96678 20.1925 3.89407 18.2451 5.02082C16.2704 6.16324 15.208 8.16112 14.2705 9.92375C13.6984 10.9994 13.158 12.0155 12.5195 12.6539C11.881 13.2922 10.8651 13.8327 9.78933 14.4048C8.0267 15.3421 6.02897 16.4047 4.8864 18.3794C3.75964 20.3268 3.83264 22.5734 3.89688 24.5555C3.93697 25.789 3.97476 26.9542 3.73392 27.8552C3.51032 28.6914 2.91296 29.6463 2.28024 30.6572C1.21169 32.3655 0 34.3019 0 36.6343C0 38.9667 1.21169 40.9031 2.28068 42.6117C2.91325 43.6226 3.51075 44.5776 3.73435 45.4137C3.97505 46.3147 3.93726 47.4797 3.89717 48.7132C3.83279 50.6953 3.75979 52.9419 4.88655 54.8893C6.02897 56.8639 8.02684 57.9264 9.78933 58.8638C10.8651 59.4359 11.881 59.9762 12.5196 60.6148C13.1581 61.2532 13.6984 62.2694 14.2706 63.345C15.208 65.1077 16.2705 67.1055 18.2453 68.2479C20.1927 69.3746 22.4389 69.3022 24.4214 69.2373C25.6549 69.1973 26.82 69.1595 27.7209 69.4002C28.5571 69.6238 29.512 70.2213 30.5231 70.8539C32.2312 71.9226 34.1676 73.1343 36.5 73.1343C38.8324 73.1343 40.7688 71.9226 42.4772 70.8538C43.4882 70.2212 44.4432 69.6235 45.2794 69.4001C46.1804 69.1592 47.3452 69.1972 48.5789 69.2371C50.5608 69.3021 52.8076 69.3746 54.7549 68.2477C56.7296 67.1053 57.792 65.1074 58.7295 63.3448C59.3016 62.2692 59.842 61.2531 60.4805 60.6146C61.119 59.9763 62.1349 59.4359 63.2107 58.8638C64.9733 57.9264 66.971 56.8639 68.1136 54.8892C69.2404 52.9417 69.1674 50.6951 69.1031 48.713C69.063 47.4795 69.0252 46.3144 69.2661 45.4134C69.4897 44.5772 70.087 43.6223 70.7198 42.6114C71.7883 40.9031 73 38.9667 73 36.6343C73 34.3019 71.7883 32.3655 70.7193 30.6569ZM67.0649 40.3248C66.2913 41.5609 65.4915 42.8391 65.1009 44.3004C64.6955 45.8173 64.7455 47.3605 64.794 48.8532C64.844 50.3943 64.8913 51.8499 64.3818 52.7303C63.8572 53.6371 62.5597 54.327 61.1861 55.0576C59.8781 55.7532 58.5257 56.4725 57.4319 57.5663C56.338 58.6602 55.6187 60.0125 54.9232 61.3205C54.1926 62.6943 53.5025 63.9917 52.5959 64.5163C51.7155 65.0257 50.2598 64.9785 48.7187 64.9284C47.2263 64.88 45.6831 64.8297 44.1661 65.2352C42.7049 65.6258 41.4266 66.4256 40.1904 67.1992C38.8557 68.0343 37.5949 68.8233 36.5 68.8233C35.4051 68.8233 34.1445 68.0343 32.8096 67.1992C31.5734 66.4256 30.2951 65.6258 28.8339 65.2352C27.8164 64.9632 26.7871 64.8963 25.7691 64.8963C25.2695 64.8963 24.7726 64.9124 24.2813 64.9285C22.7401 64.9784 21.2845 65.026 20.4041 64.5164C19.4973 63.9919 18.8074 62.6943 18.0768 61.3206C17.3812 60.0127 16.662 58.6603 15.5681 57.5665C14.4743 56.4726 13.1218 55.7532 11.8138 55.0576C10.4402 54.327 9.14268 53.637 8.61817 52.7305C8.10875 51.8499 8.15603 50.3943 8.20603 48.8533C8.25446 47.3608 8.30461 45.8175 7.89923 44.3006C7.50865 42.8394 6.70882 41.5612 5.93542 40.3251C5.09994 38.9901 4.31102 37.7291 4.31102 36.6343C4.31102 35.5394 5.09994 34.2786 5.93513 32.9438C6.70867 31.7076 7.50851 30.4294 7.89909 28.9681C8.30447 27.4512 8.25446 25.908 8.20603 24.4154C8.15603 22.8742 8.10875 21.4187 8.61817 20.5382C9.14282 19.6315 10.4403 18.9415 11.8139 18.211C13.1219 17.5153 14.4743 16.7961 15.5681 15.7022C16.662 14.6084 17.3813 13.256 18.0768 11.9481C18.8074 10.5743 19.4975 9.27681 20.4041 8.7523C21.2847 8.24288 22.7404 8.2903 24.2813 8.34017C25.7737 8.38888 27.3171 8.43903 28.8339 8.03337C30.2951 7.64279 31.5734 6.84295 32.8096 6.06941C34.1443 5.23422 35.4051 4.4453 36.5 4.4453C37.5949 4.4453 38.8555 5.23422 40.1904 6.06941C41.4266 6.84295 42.7049 7.64279 44.1661 8.03337C45.6829 8.43875 47.2264 8.38874 48.7187 8.34017C50.2601 8.29045 51.7155 8.24288 52.5959 8.7523C53.5027 9.27681 54.1926 10.5744 54.9232 11.9481C55.6188 13.256 56.338 14.6084 57.4319 15.7022C58.5257 16.7961 59.8783 17.5155 61.1862 18.2111C62.5599 18.9417 63.8573 19.6317 64.3818 20.5382C64.8913 21.4188 64.844 22.8744 64.794 24.4154C64.7455 25.9079 64.6954 27.4512 65.1008 28.9681C65.4913 30.4293 66.2912 31.7075 67.0646 32.9436C67.9001 34.2785 68.689 35.5394 68.689 36.6343C68.689 37.7291 67.9001 38.99 67.0649 40.3248Z" fill="#9ECC3B"/>
<path d="M32.4917 41.0736L26.5282 35.1101L23.48 38.1583L32.4302 47.1087L49.489 30.7324L46.5034 27.6223L32.4917 41.0736Z" fill="#9ECC3B"/>
<path d="M36.5002 11.4866C22.6338 11.4866 11.3525 22.7678 11.3525 36.6342C11.3525 50.5006 22.6338 61.7819 36.5002 61.7819C50.3666 61.7819 61.6478 50.5006 61.6478 36.6342C61.6478 22.7678 50.3666 11.4866 36.5002 11.4866ZM36.5002 57.4708C25.0109 57.4708 15.6636 48.1235 15.6636 36.6342C15.6636 25.1449 25.0109 15.7976 36.5002 15.7976C47.9895 15.7976 57.3368 25.1449 57.3368 36.6342C57.3368 48.1235 47.9895 57.4708 36.5002 57.4708Z" fill="#9ECC3B"/>
</svg>
