<svg width="85" height="74" viewBox="0 0 85 74" fill="none" xmlns="http://www.w3.org/2000/svg">
<path d="M36.8766 67.8797C29.4649 67.8832 22.3008 65.2121 16.7006 60.3571C13.9644 57.9858 11.6668 55.1515 9.91289 51.9839C7.52231 47.6704 6.20428 42.8452 6.07 37.9153C5.93571 32.9855 6.98912 28.0957 9.14135 23.6584C11.7475 18.2802 15.8565 13.7726 20.9711 10.681C24.5 8.55593 28.4199 7.16142 32.498 6.58023C33.9623 6.36948 35.4397 6.26313 36.919 6.26197C40.6091 6.26037 44.269 6.92829 47.7207 8.23327C49.4108 8.86892 51.0418 9.65183 52.5949 10.573C55.6982 12.4149 58.4551 14.7859 60.7405 17.5786C64.2916 21.9142 66.5853 27.1407 67.372 32.6894C67.3892 32.8106 67.3823 32.934 67.3517 33.0526C67.3211 33.1711 67.2675 33.2825 67.1939 33.3803C67.1203 33.4781 67.0281 33.5604 66.9226 33.6226C66.8171 33.6848 66.7005 33.7255 66.5792 33.7426C66.5356 33.7463 66.4917 33.7463 66.4481 33.7426C66.2241 33.7413 66.008 33.6599 65.8389 33.513C65.6697 33.3662 65.5588 33.1637 65.5261 32.9421C64.767 27.7757 62.6257 22.9106 59.3286 18.8613C57.1909 16.235 54.6113 14.002 51.7057 12.2627C47.2252 9.57557 42.1011 8.1506 36.8766 8.13876C32.5987 8.13541 28.3733 9.08025 24.5044 10.9053C20.6354 12.7304 17.219 15.3903 14.501 18.6937C11.783 21.9971 9.83102 25.8618 8.7854 30.0099C7.73977 34.158 7.62653 38.4862 8.45382 42.6833C9.28112 46.8804 11.0284 50.8419 13.5699 54.2829C16.1115 57.7239 19.3841 60.5588 23.1523 62.5837C26.9206 64.6086 31.0908 65.7731 35.3629 65.9934C39.6351 66.2138 43.903 65.4845 47.8596 63.858C47.9712 63.8106 48.0912 63.7863 48.2125 63.7866C48.3976 63.7861 48.5785 63.8409 48.7322 63.9441C48.8858 64.0472 49.0051 64.1939 49.0747 64.3653C49.1214 64.4784 49.1453 64.5996 49.1451 64.7219C49.1448 64.8442 49.1204 64.9653 49.0733 65.0782C49.0262 65.1911 48.9572 65.2936 48.8704 65.3798C48.7836 65.466 48.6807 65.5342 48.5674 65.5805C44.8722 67.1036 40.9139 67.8868 36.9171 67.8855L36.8766 67.8797Z" fill="#F26A21"/>
<path d="M36.9916 73.5698H36.8759C34.571 73.5701 32.2713 73.3531 30.0072 72.9217C27.8028 72.5017 25.6422 71.8779 23.5532 71.0584C15.9191 68.0737 9.51217 62.6059 5.36456 55.5359C1.21695 48.466 -0.429791 40.2055 0.68966 32.0856C1.80911 23.9656 5.62956 16.4589 11.5355 10.775C17.4414 5.09101 25.0889 1.56079 33.2458 0.753067C34.4667 0.631548 35.7031 0.569824 36.9222 0.569824C43.6774 0.569109 50.299 2.45212 56.0431 6.00731C59.7867 8.32088 63.0836 11.2891 65.7761 14.7702C69.9537 20.1736 72.5247 26.6445 73.1946 33.4416C73.1946 33.4416 73.1946 33.4609 73.1946 33.4706C73.2149 33.7166 73.1367 33.9606 72.9772 34.149C72.8177 34.3374 72.5899 34.4549 72.3439 34.4755C72.3176 34.4774 72.2912 34.4774 72.2649 34.4755C72.032 34.4755 71.8076 34.3881 71.636 34.2305C71.464 34.0716 71.3574 33.8543 71.3371 33.621C70.6995 27.2803 68.3264 21.238 64.4784 16.1582C60.6304 11.0784 55.4566 7.15764 49.5254 4.82684C47.5431 4.04875 45.4929 3.45599 43.4012 3.05614C41.254 2.6479 39.0732 2.44254 36.8875 2.44276C34.5436 2.44178 32.2055 2.67701 29.9088 3.14487C25.4793 4.05159 21.2716 5.8212 17.5255 8.35281C13.8385 10.8439 10.6635 14.0189 8.17237 17.7059C4.30794 23.4231 2.24536 30.1672 2.25074 37.0679C2.24977 39.4118 2.48499 41.7498 2.95285 44.0465C4.31777 50.6816 7.59926 56.7704 12.3908 61.5588C15.5474 64.7184 19.2846 67.2387 23.3969 68.981C25.4917 69.8673 27.6691 70.5438 29.8972 71.0006C32.1945 71.4697 34.5331 71.7062 36.8778 71.7065H36.9916C41.9722 71.7051 46.8922 70.6135 51.4061 68.5085C51.5265 68.4507 51.6583 68.4204 51.7918 68.4197C51.9691 68.4204 52.1426 68.4713 52.2922 68.5665C52.4417 68.6618 52.5612 68.7975 52.6367 68.9579C52.7413 69.1817 52.7527 69.4379 52.6684 69.6701C52.5841 69.9024 52.411 70.0916 52.1873 70.1962C47.4279 72.4193 42.2388 73.5709 36.9858 73.5698H36.9916Z" fill="#F26A21"/>
<path d="M36.875 16.6681C36.6274 16.6681 36.3899 16.5697 36.2148 16.3947C36.0398 16.2196 35.9414 15.9821 35.9414 15.7345V12.8894C35.9523 12.6494 36.0554 12.4229 36.2291 12.2569C36.4028 12.0909 36.6338 11.9983 36.874 11.9983C37.1143 11.9983 37.3453 12.0909 37.519 12.2569C37.6927 12.4229 37.7957 12.6494 37.8066 12.8894V15.7345C37.8066 15.9818 37.7085 16.219 37.5339 16.394C37.3592 16.569 37.1222 16.6676 36.875 16.6681Z" fill="#F26A21"/>
<path d="M47.5439 19.5267C47.3391 19.5262 47.1401 19.4583 46.9777 19.3335C46.8153 19.2087 46.6984 19.034 46.6451 18.8362C46.5811 18.5973 46.6144 18.3427 46.7377 18.1283L48.1592 15.6632C48.2205 15.5572 48.3021 15.4643 48.3993 15.3898C48.4965 15.3153 48.6074 15.2607 48.7257 15.2291C48.844 15.1975 48.9674 15.1895 49.0888 15.2056C49.2102 15.2216 49.3273 15.2615 49.4333 15.3228C49.5393 15.3841 49.6322 15.4656 49.7066 15.5628C49.7811 15.66 49.8357 15.771 49.8673 15.8893C49.8989 16.0076 49.907 16.1309 49.8909 16.2523C49.8748 16.3737 49.835 16.4908 49.7737 16.5968L48.3521 19.0599C48.2701 19.2017 48.1522 19.3194 48.0104 19.4013C47.8686 19.4832 47.7077 19.5265 47.5439 19.5267Z" fill="#F26A21"/>
<path d="M55.3549 27.3366C55.1511 27.3348 54.9535 27.2664 54.7923 27.1417C54.6311 27.0171 54.5151 26.8432 54.462 26.6465C54.4088 26.4497 54.4216 26.241 54.4981 26.0522C54.5747 25.8634 54.711 25.7048 54.8862 25.6007L57.3512 24.1791C57.4924 24.0969 57.6528 24.0537 57.8161 24.0537C57.9799 24.054 58.1407 24.0972 58.2826 24.1791C58.4244 24.261 58.5422 24.3788 58.6243 24.5205C58.6861 24.626 58.7263 24.7428 58.7425 24.864C58.7587 24.9852 58.7507 25.1084 58.7188 25.2265C58.687 25.345 58.6321 25.4561 58.5573 25.5534C58.4825 25.6507 58.3893 25.7323 58.2829 25.7935L55.8197 27.2151C55.6786 27.2973 55.5182 27.3405 55.3549 27.3405V27.3366Z" fill="#F26A21"/>
<path d="M36.875 62.1896C36.6277 62.1896 36.3905 62.0915 36.2155 61.9168C36.0405 61.7422 35.9419 61.5052 35.9414 61.258V58.4129C35.9523 58.1729 36.0554 57.9463 36.2291 57.7803C36.4028 57.6144 36.6338 57.5217 36.874 57.5217C37.1143 57.5217 37.3453 57.6144 37.519 57.7803C37.6927 57.9463 37.7957 58.1729 37.8066 58.4129V61.256C37.8066 61.5033 37.7085 61.7405 37.5339 61.9155C37.3592 62.0905 37.1222 62.1891 36.875 62.1896Z" fill="#F26A21"/>
<path d="M24.782 58.951C24.6188 58.9501 24.4587 58.9069 24.3172 58.8256C24.1034 58.7018 23.9474 58.4982 23.8834 58.2596C23.8194 58.021 23.8526 57.7667 23.9758 57.5526L25.3973 55.0836C25.4586 54.9776 25.5402 54.8847 25.6374 54.8102C25.7346 54.7357 25.8455 54.6811 25.9638 54.6495C26.0821 54.6179 26.2055 54.6099 26.3269 54.626C26.4483 54.642 26.5653 54.6819 26.6713 54.7432C26.7774 54.8045 26.8702 54.886 26.9447 54.9832C27.0192 55.0804 27.0738 55.1914 27.1054 55.3097C27.137 55.428 27.145 55.5513 27.129 55.6727C27.1129 55.7941 27.0731 55.9112 27.0118 56.0172L25.5902 58.4842C25.5082 58.626 25.3903 58.7437 25.2485 58.8256C25.1067 58.9075 24.9458 58.9507 24.782 58.951Z" fill="#F26A21"/>
<path d="M15.9325 50.0973C15.7689 50.0973 15.6082 50.0543 15.4664 49.9728C15.3246 49.8912 15.2066 49.7739 15.1243 49.6325C15.0011 49.418 14.9679 49.1635 15.0318 48.9245C15.0958 48.6856 15.2518 48.4817 15.4657 48.3575L17.9308 46.9359C18.0718 46.8534 18.2323 46.8101 18.3957 46.8106C18.6001 46.8113 18.7985 46.8792 18.9605 47.0038C19.1225 47.1285 19.239 47.3029 19.2921 47.5003C19.3451 47.6976 19.3318 47.907 19.2542 48.0961C19.1766 48.2851 19.0389 48.4434 18.8625 48.5465L16.3974 49.97C16.2558 50.0509 16.0956 50.0935 15.9325 50.0935V50.0973Z" fill="#F26A21"/>
<path d="M12.6895 38.0054C12.4424 38.0054 12.2054 37.9072 12.0307 37.7325C11.856 37.5578 11.7578 37.3208 11.7578 37.0737C11.7578 36.8266 11.856 36.5897 12.0307 36.415C12.2054 36.2402 12.4424 36.1421 12.6895 36.1421H15.5345C15.7816 36.1421 16.0186 36.2402 16.1933 36.415C16.368 36.5897 16.4662 36.8266 16.4662 37.0737C16.4662 37.3208 16.368 37.5578 16.1933 37.7325C16.0186 37.9072 15.7816 38.0054 15.5345 38.0054H12.6895Z" fill="#F26A21"/>
<path d="M18.3956 27.3368C18.2322 27.3371 18.0717 27.2939 17.9307 27.2115L15.4656 25.7899C15.2518 25.6661 15.0959 25.4625 15.0319 25.2239C14.9679 24.9853 15.0011 24.731 15.1242 24.5168C15.2064 24.3752 15.3243 24.2576 15.4661 24.1757C15.6079 24.0938 15.7686 24.0505 15.9324 24.0501C16.0957 24.0497 16.2562 24.093 16.3972 24.1754L18.8623 25.597C19.0388 25.7001 19.1764 25.8584 19.2541 26.0475C19.3317 26.2365 19.345 26.4459 19.2919 26.6433C19.2389 26.8406 19.1224 27.0151 18.9604 27.1397C18.7984 27.2643 18.5999 27.3323 18.3956 27.333V27.3368Z" fill="#F26A21"/>
<path d="M26.2076 19.5269C26.0438 19.527 25.8828 19.4839 25.7409 19.402C25.599 19.32 25.4812 19.2021 25.3994 19.0601L23.9759 16.5969C23.8527 16.3825 23.8194 16.1279 23.8834 15.889C23.9367 15.6913 24.0536 15.5165 24.216 15.3917C24.3784 15.2669 24.5774 15.199 24.7822 15.1985C24.9461 15.1983 25.1071 15.2414 25.249 15.3234C25.3909 15.4053 25.5086 15.5233 25.5904 15.6653L27.0139 18.1284C27.0953 18.2701 27.138 18.4307 27.1379 18.5941C27.1377 18.7575 27.0947 18.918 27.0131 19.0596C26.9315 19.2012 26.8141 19.3188 26.6728 19.4008C26.5314 19.4828 26.371 19.5263 26.2076 19.5269Z" fill="#F26A21"/>
<path d="M29.7444 45.1363C29.619 45.1369 29.4948 45.1119 29.3793 45.0628C29.2639 45.0137 29.1597 44.9416 29.0731 44.8509C28.902 44.6729 28.8083 44.4343 28.8126 44.1874C28.817 43.9405 28.919 43.7053 29.0963 43.5335L35.9361 36.6937V27.1149C35.9303 26.9889 35.9502 26.863 35.9945 26.7448C36.0388 26.6267 36.1065 26.5187 36.1937 26.4275C36.2809 26.3363 36.3856 26.2637 36.5016 26.2141C36.6176 26.1645 36.7425 26.1389 36.8687 26.1389C36.9948 26.1389 37.1197 26.1645 37.2357 26.2141C37.3517 26.2637 37.4565 26.3363 37.5436 26.4275C37.6308 26.5187 37.6986 26.6267 37.7429 26.7448C37.7871 26.863 37.807 26.9889 37.8013 27.1149V37.0698C37.7999 37.3186 37.7008 37.5569 37.5255 37.7333L30.4118 44.8489L30.3886 44.8721C30.2152 45.0409 29.9825 45.135 29.7405 45.1344L29.7444 45.1363Z" fill="#F26A21"/>
<path d="M66.7482 72.1482C63.1613 72.1526 59.6555 71.0816 56.6834 69.0736C53.7898 67.118 51.5242 64.3666 50.16 61.1517C48.6459 57.5777 48.328 53.61 49.2535 49.8406C50.1791 46.0711 52.2985 42.7019 55.2957 40.2355C58.2928 37.7692 62.007 36.338 65.8841 36.1554C69.7613 35.9728 73.5936 37.0487 76.8092 39.2224C78.7256 40.519 80.3756 42.171 81.67 44.0889C83.6786 47.0601 84.752 50.5644 84.752 54.1509C84.752 57.7373 83.6786 61.2416 81.67 64.2128C80.3746 66.1306 78.7232 67.782 76.8054 69.0774C73.8333 71.0855 70.3274 72.1565 66.7405 72.152L66.7482 72.1482ZM66.7482 38.0072C64.5908 38.0007 62.4541 38.4291 60.4659 39.2667C56.5968 40.9052 53.5171 43.9849 51.8786 47.8541C50.8309 50.3283 50.4181 53.0252 50.6778 55.6995C50.9376 58.3739 51.8615 60.9409 53.3657 63.1674C55.1178 65.7618 57.5839 67.7931 60.4659 69.0157C62.9389 70.0616 65.6342 70.4728 68.3066 70.2117C70.979 69.9506 73.5438 69.0256 75.7676 67.5208C78.3603 65.769 80.3907 63.3045 81.614 60.4245C82.4524 58.4365 82.8843 56.3007 82.8843 54.1431C82.8843 51.9856 82.4524 49.8498 81.614 47.8618C79.9813 43.9917 76.9063 40.9091 73.0402 39.2667C71.0492 38.4268 68.9091 37.9977 66.7482 38.0053V38.0072Z" fill="#F26A21"/>
<path d="M66.7483 67.8796C63.3596 67.8733 60.094 66.6089 57.5847 64.3313C55.0755 62.0538 53.5015 58.9256 53.168 55.5533C52.8345 52.181 53.7652 48.8051 55.7797 46.0802C57.7942 43.3553 60.7489 41.4756 64.0708 40.8057C67.3926 40.1358 70.8449 40.7235 73.758 42.4547C76.6711 44.1859 78.8375 46.9373 79.837 50.1752C80.8365 53.4132 80.5979 56.907 79.1674 59.979C77.737 63.051 75.2166 65.4823 72.0952 66.8013C70.4036 67.5168 68.585 67.8836 66.7483 67.8796ZM66.7483 42.2738C63.8122 42.2788 60.9826 43.374 58.8083 45.3471C56.634 47.3202 55.2699 50.0305 54.9808 52.9523C54.6916 55.8741 55.4978 58.7992 57.2432 61.1603C58.9885 63.5213 61.5485 65.15 64.4267 65.7304C67.3049 66.3108 70.296 65.8017 72.82 64.3016C75.344 62.8015 77.221 60.4176 78.0868 57.612C78.9526 54.8065 78.7456 51.7794 77.506 49.1178C76.2663 46.4562 74.0823 44.3499 71.3776 43.2074C69.9132 42.5874 68.3386 42.2698 66.7483 42.2738Z" fill="#F26A21"/>
<path d="M66.7474 62.1895C66.5004 62.189 66.2638 62.0907 66.0891 61.9161C65.9145 61.7415 65.8162 61.5048 65.8157 61.2579V60.6908L65.4724 60.5828C64.7483 60.3586 64.1147 59.9092 63.6637 59.3C63.2127 58.6909 62.9679 57.9536 62.9648 57.1957V56.9893C62.9648 56.7422 63.063 56.5052 63.2377 56.3305C63.4124 56.1558 63.6494 56.0577 63.8965 56.0577C64.1436 56.0577 64.3805 56.1558 64.5553 56.3305C64.73 56.5052 64.8281 56.7422 64.8281 56.9893V57.2053C64.8302 57.6573 65.0107 58.0901 65.3305 58.4095C65.6502 58.7289 66.0832 58.9089 66.5352 58.9105H66.9499C67.2667 58.9105 67.5773 58.8223 67.8468 58.6557C68.1163 58.4891 68.3341 58.2507 68.4756 57.9672C68.5757 57.7665 68.6351 57.5479 68.6505 57.3241C68.6659 57.1003 68.6369 56.8757 68.5652 56.6631C68.4935 56.4505 68.3805 56.2542 68.2327 56.0855C68.085 55.9167 67.9053 55.7787 67.7041 55.6796L64.9381 54.285C64.3025 53.969 63.7761 53.4699 63.4266 52.852C63.0772 52.2341 62.9207 51.5258 62.9773 50.8182C63.034 50.1107 63.3012 49.4363 63.7445 48.8819C64.1878 48.3275 64.7869 47.9185 65.4647 47.7076L65.8099 47.5996V47.0325C65.8099 46.7854 65.9081 46.5484 66.0828 46.3737C66.2575 46.199 66.4945 46.1008 66.7416 46.1008C66.9887 46.1008 67.2256 46.199 67.4003 46.3737C67.5751 46.5484 67.6732 46.7854 67.6732 47.0325V47.5996L68.0185 47.7076C68.7422 47.9317 69.3756 48.3807 69.8266 48.9895C70.2775 49.5983 70.5226 50.3351 70.526 51.0927V51.2991C70.5151 51.5391 70.4121 51.7657 70.2384 51.9317C70.0647 52.0977 69.8337 52.1903 69.5934 52.1903C69.3532 52.1903 69.1221 52.0977 68.9484 51.9317C68.7747 51.7657 68.6717 51.5391 68.6608 51.2991V51.0927C68.6593 50.6408 68.4792 50.2078 68.1598 49.888C67.8404 49.5683 67.4076 49.3877 66.9557 49.3857H66.541C66.2233 49.3856 65.9119 49.4745 65.6421 49.6422C65.3731 49.8094 65.1554 50.0477 65.0133 50.3308C64.9137 50.5317 64.8547 50.7502 64.8396 50.9739C64.8245 51.1976 64.8536 51.422 64.9253 51.6345C64.9969 51.8469 65.1097 52.0431 65.2572 52.212C65.4047 52.3808 65.584 52.5189 65.7849 52.6185L68.5566 54.0034C69.1927 54.3197 69.7195 54.8193 70.069 55.4377C70.4184 56.0562 70.5746 56.7652 70.5173 57.4733C70.46 58.1814 70.1919 58.856 69.7475 59.4103C69.3032 59.9645 68.7029 60.3729 68.0243 60.5828L67.679 60.6889V61.256C67.6793 61.3785 67.6553 61.4998 67.6086 61.6131C67.5619 61.7263 67.4933 61.8293 67.4068 61.916C67.3203 62.0027 67.2175 62.0715 67.1043 62.1184C66.9912 62.1654 66.8699 62.1895 66.7474 62.1895Z" fill="#F26A21"/>
</svg>
