<svg width="40" height="40" viewBox="0 0 40 40" fill="none" xmlns="http://www.w3.org/2000/svg">
<g clip-path="url(#clip0_1_28)">
<path d="M35.0875 19.375H31.875C31.748 16.6586 30.6758 14.0721 28.8438 12.0625L31.1375 9.775C31.5988 10.0462 32.135 10.1621 32.6671 10.1059C33.1993 10.0496 33.6993 9.82411 34.0938 9.4625C34.4418 9.1435 34.6924 8.73246 34.8166 8.27696C34.9407 7.82145 34.9334 7.3401 34.7953 6.8886C34.6573 6.4371 34.3943 6.03392 34.0366 5.72571C33.679 5.4175 33.2414 5.21686 32.7744 5.14701C32.3075 5.07716 31.8303 5.14095 31.3982 5.33101C30.966 5.52107 30.5965 5.82963 30.3323 6.22096C30.0682 6.6123 29.9203 7.07043 29.9058 7.54233C29.8912 8.01423 30.0105 8.48061 30.25 8.8875L27.9375 11.1812C25.9397 9.32729 23.3479 8.24403 20.625 8.125V4.9125C23.5125 4.1625 22.85 0 20 0C19.3968 0.00723004 18.8166 0.232317 18.3663 0.63375C17.916 1.03518 17.6261 1.58589 17.55 2.1843C17.4738 2.78271 17.6166 3.38847 17.952 3.88986C18.2874 4.39125 18.7928 4.75446 19.375 4.9125V8.125C16.6596 8.25079 14.0732 9.32069 12.0625 11.15L9.775 8.8625C10.0834 8.3382 10.19 7.71947 10.075 7.12219C9.9599 6.52492 9.63104 5.99008 9.14997 5.61785C8.66891 5.24563 8.06864 5.06155 7.46161 5.10011C6.85457 5.13867 6.28242 5.39722 5.85232 5.82732C5.42222 6.25742 5.16367 6.82957 5.12511 7.43661C5.08655 8.04364 5.27063 8.64391 5.64285 9.12497C6.01508 9.60604 6.54992 9.9349 7.14719 10.05C7.74447 10.165 8.3632 10.0584 8.8875 9.75L11.1812 12.0438C9.3512 14.0643 8.27205 16.6529 8.125 19.375H4.9125C4.16875 16.5125 0 17.1125 0 20C0 22.8875 4.16875 23.4813 4.9125 20.625H8.125C8.2571 23.3409 9.32605 25.9271 11.15 27.9437L8.8625 30.225C8.42789 29.9626 7.92233 29.842 7.41607 29.8801C6.9098 29.9182 6.42797 30.113 6.0375 30.4375C5.9815 30.4661 5.93243 30.5067 5.89375 30.5562C3.525 32.7875 6.81875 36.5562 9.4375 34.0687C9.79911 33.6743 10.0246 33.1743 10.0809 32.6421C10.1371 32.11 10.0212 31.5738 9.75 31.1125L12.0312 28.825C14.0492 30.6661 16.6465 31.7448 19.375 31.875V35.1125C18.8116 35.2855 18.3274 35.652 18.0079 36.1473C17.6885 36.6426 17.5543 37.2349 17.629 37.8195C17.7038 38.4041 17.9827 38.9435 18.4165 39.3425C18.8503 39.7415 19.4112 39.9743 20 40C22.8875 40 23.4875 35.8312 20.625 35.0875V31.875C23.3411 31.7439 25.9277 30.6748 27.9437 28.85L30.225 31.1375C29.9538 31.5988 29.8379 32.135 29.8941 32.6671C29.9504 33.1993 30.1759 33.6993 30.5375 34.0938C30.8565 34.4418 31.2675 34.6924 31.723 34.8166C32.1786 34.9407 32.6599 34.9334 33.1114 34.7953C33.5629 34.6573 33.9661 34.3943 34.2743 34.0366C34.5825 33.679 34.7831 33.2414 34.853 32.7744C34.9228 32.3075 34.859 31.8303 34.669 31.3982C34.4789 30.966 34.1704 30.5965 33.779 30.3323C33.3877 30.0682 32.9296 29.9203 32.4577 29.9058C31.9858 29.8912 31.5194 30.0105 31.1125 30.25L28.825 27.9688C30.6652 25.9503 31.7438 23.3532 31.875 20.625H35.1062C35.8563 23.5125 40.0187 22.85 40.0187 20C40.0297 19.3838 39.8127 18.7854 39.4094 18.3194C39.006 17.8535 38.4448 17.5529 37.8335 17.4755C37.2221 17.398 36.6037 17.549 36.0969 17.8996C35.5901 18.2502 35.2306 18.7756 35.0875 19.375ZM14.5687 29.125C16.3474 28.654 18.0366 27.8938 19.5688 26.875C19.8715 27.0652 20.2231 27.163 20.5806 27.1563C20.9381 27.1497 21.2858 27.0389 21.5812 26.8375C22.7669 27.7669 24.0724 28.5321 25.4625 29.1125C23.8183 30.1015 21.9361 30.6251 20.0174 30.6273C18.0986 30.6295 16.2153 30.1103 14.5687 29.125ZM9.375 20.4125C10.7765 18.8433 12.4761 17.5685 14.375 16.6625C14.655 16.9895 15.039 17.2102 15.4625 17.2875C16.0552 19.8451 17.2365 22.2291 18.9125 24.25C18.7598 24.4949 18.6656 24.7718 18.6374 25.0591C18.6092 25.3464 18.6478 25.6363 18.75 25.9062C17.0614 27.0095 15.1742 27.7737 13.1938 28.1562C12.0507 27.2047 11.1201 26.0237 10.4623 24.6898C9.8045 23.3558 9.43407 21.8986 9.375 20.4125ZM15.2688 10.4813C15.0732 11.5595 14.9832 12.6543 15 13.75C14.6647 13.9049 14.3825 14.1554 14.1891 14.4701C13.9956 14.7848 13.8994 15.1496 13.9125 15.5188C12.2766 16.2826 10.7724 17.3016 9.45625 18.5375C9.70297 16.8228 10.3626 15.1936 11.3784 13.7903C12.3941 12.3869 13.7357 11.2513 15.2875 10.4813H15.2688ZM25.8 11.1063C25.8962 11.9361 25.9129 12.7732 25.85 13.6063C25.4264 13.7329 25.0611 14.0052 24.8187 14.375C22.3617 13.825 19.8133 13.825 17.3563 14.375C17.0901 13.9997 16.6972 13.7333 16.25 13.625C16.2339 12.3756 16.3704 11.1289 16.6562 9.9125C18.1749 9.40508 19.7891 9.24999 21.3766 9.45899C22.9641 9.66798 24.4832 10.2356 25.8188 11.1188L25.8 11.1063ZM15.175 15.4813C15.175 15.3105 15.2428 15.1468 15.3636 15.026C15.4843 14.9053 15.648 14.8375 15.8187 14.8375C15.9895 14.8375 16.1532 14.9053 16.274 15.026C16.3947 15.1468 16.4625 15.3105 16.4625 15.4813C16.4613 15.5654 16.4435 15.6484 16.4101 15.7257C16.3768 15.8029 16.3286 15.8729 16.2682 15.9315C16.2079 15.9901 16.1366 16.0363 16.0584 16.0673C15.9802 16.0984 15.8966 16.1137 15.8125 16.1125C15.7284 16.1113 15.6453 16.0935 15.5681 16.0601C15.4908 16.0268 15.4209 15.9786 15.3623 15.9182C15.3036 15.8579 15.2575 15.7866 15.2264 15.7084C15.1954 15.6302 15.18 15.5466 15.1813 15.4625L15.175 15.4813ZM21.0375 24.8563C21.1294 24.9681 21.1797 25.1084 21.1797 25.2531C21.1797 25.3979 21.1294 25.5382 21.0375 25.65C20.9557 25.7495 20.8452 25.8213 20.721 25.8556C20.5969 25.8899 20.4651 25.8849 20.3439 25.8415C20.2226 25.7981 20.1178 25.7182 20.0436 25.6129C19.9695 25.5076 19.9297 25.3819 19.9297 25.2531C19.9297 25.1243 19.9695 24.9987 20.0436 24.8933C20.1178 24.788 20.2226 24.7082 20.3439 24.6647C20.4651 24.6213 20.5969 24.6164 20.721 24.6507C20.8452 24.6849 20.9557 24.7567 21.0375 24.8563ZM21.4875 23.6063C21.2508 23.4586 20.983 23.3681 20.7052 23.342C20.4275 23.316 20.1475 23.3551 19.8875 23.4562C18.3585 21.6176 17.2741 19.451 16.7188 17.125C17.0063 16.9723 17.2492 16.7474 17.4235 16.4723C17.5977 16.1972 17.6973 15.8815 17.7125 15.5562C19.9361 15.0688 22.2389 15.0688 24.4625 15.5562C24.4747 15.8512 24.5563 16.139 24.7008 16.3964C24.8452 16.6538 25.0484 16.8735 25.2938 17.0375C24.593 19.5182 23.2873 21.786 21.4937 23.6375L21.4875 23.6063ZM26.3438 16.1063C26.173 16.1063 26.0093 16.0384 25.8885 15.9177C25.7678 15.797 25.7 15.6332 25.7 15.4625C25.7 15.2918 25.7678 15.128 25.8885 15.0073C26.0093 14.8866 26.173 14.8187 26.3438 14.8187C26.5145 14.8179 26.6786 14.8849 26.7999 15.0051C26.9212 15.1252 26.9898 15.2886 26.9906 15.4594C26.9915 15.6301 26.9244 15.7942 26.8043 15.9155C26.6841 16.0368 26.5207 16.1054 26.35 16.1063H26.3438ZM27.1125 13.75C27.1547 13.2238 27.1547 12.695 27.1125 12.1687C28.4124 13.3492 29.4037 14.8297 30 16.4813C29.4288 16.1259 28.836 15.8065 28.225 15.525C28.2373 15.152 28.1379 14.7839 27.9398 14.4676C27.7416 14.1514 27.4535 13.9016 27.1125 13.75ZM33.2562 6.7625C33.4028 6.90827 33.5109 7.08811 33.5709 7.28593C33.631 7.48374 33.641 7.69335 33.6001 7.89598C33.5592 8.09861 33.4687 8.28794 33.3367 8.44702C33.2047 8.60609 33.0353 8.72995 32.8437 8.8075C32.6521 8.88504 32.4442 8.91386 32.2387 8.89136C32.0332 8.86886 31.8365 8.79576 31.6663 8.67859C31.496 8.56142 31.3574 8.40384 31.2629 8.21997C31.1684 8.0361 31.1211 7.83168 31.125 7.625C31.126 7.37854 31.1999 7.13788 31.3373 6.93328C31.4747 6.72869 31.6696 6.56928 31.8974 6.4751C32.1251 6.38093 32.3756 6.35618 32.6174 6.40398C32.8592 6.45178 33.0815 6.56999 33.2562 6.74375V6.7625ZM18.75 2.5C18.75 2.25277 18.8233 2.0111 18.9607 1.80554C19.098 1.59998 19.2932 1.43976 19.5216 1.34515C19.7501 1.25054 20.0014 1.22579 20.2439 1.27402C20.4863 1.32225 20.7091 1.4413 20.8839 1.61612C21.0587 1.79093 21.1777 2.01366 21.226 2.25614C21.2742 2.49861 21.2495 2.74995 21.1549 2.97835C21.0602 3.20676 20.9 3.40199 20.6945 3.53934C20.4889 3.67669 20.2472 3.75 20 3.75C19.6685 3.75 19.3505 3.6183 19.1161 3.38388C18.8817 3.14946 18.75 2.83152 18.75 2.5ZM6.74375 8.5125C6.56907 8.33763 6.45016 8.1149 6.40204 7.87246C6.35392 7.63002 6.37876 7.37876 6.47341 7.15043C6.56806 6.92211 6.72828 6.72697 6.93381 6.58967C7.13934 6.45238 7.38096 6.37911 7.62813 6.37911C7.87529 6.37911 8.11691 6.45238 8.32244 6.58967C8.52798 6.72697 8.68819 6.92211 8.78284 7.15043C8.87749 7.37876 8.90233 7.63002 8.85421 7.87246C8.80609 8.1149 8.68718 8.33763 8.5125 8.5125C8.27347 8.73842 7.95703 8.8643 7.62813 8.8643C7.29922 8.8643 6.98278 8.73842 6.74375 8.5125ZM2.5 21.25C2.25277 21.25 2.0111 21.1767 1.80554 21.0393C1.59998 20.902 1.43976 20.7068 1.34515 20.4784C1.25054 20.2499 1.22579 19.9986 1.27402 19.7561C1.32225 19.5137 1.4413 19.2909 1.61612 19.1161C1.79093 18.9413 2.01366 18.8223 2.25614 18.774C2.49861 18.7258 2.74995 18.7505 2.97835 18.8451C3.20676 18.9398 3.40199 19.1 3.53934 19.3055C3.67669 19.5111 3.75 19.7528 3.75 20C3.75 20.3315 3.6183 20.6495 3.38388 20.8839C3.14946 21.1183 2.83152 21.25 2.5 21.25ZM6.74375 33.2562C6.56907 33.0814 6.45016 32.8586 6.40204 32.6162C6.35392 32.3738 6.37876 32.1225 6.47341 31.8942C6.56806 31.6659 6.72828 31.4707 6.93381 31.3334C7.13934 31.1961 7.38096 31.1229 7.62813 31.1229C7.87529 31.1229 8.11691 31.1961 8.32244 31.3334C8.52798 31.4707 8.68819 31.6659 8.78284 31.8942C8.87749 32.1225 8.90233 32.3738 8.85421 32.6162C8.80609 32.8586 8.68718 33.0814 8.5125 33.2562C8.39641 33.3725 8.25855 33.4647 8.1068 33.5276C7.95505 33.5905 7.79239 33.6229 7.62813 33.6229C7.46386 33.6229 7.3012 33.5905 7.14945 33.5276C6.9977 33.4647 6.85984 33.3725 6.74375 33.2562ZM21.25 37.5C21.25 37.7472 21.1767 37.9889 21.0393 38.1945C20.902 38.4 20.7068 38.5602 20.4784 38.6549C20.2499 38.7495 19.9986 38.7742 19.7561 38.726C19.5137 38.6777 19.2909 38.5587 19.1161 38.3839C18.9413 38.2091 18.8223 37.9863 18.774 37.7439C18.7258 37.5014 18.7505 37.2501 18.8451 37.0216C18.9398 36.7932 19.1 36.598 19.3055 36.4607C19.5111 36.3233 19.7528 36.25 20 36.25C20.3315 36.25 20.6495 36.3817 20.8839 36.6161C21.1183 36.8505 21.25 37.1685 21.25 37.5ZM33.2562 31.4875C33.4021 31.6325 33.51 31.8113 33.5702 32.0079C33.6304 32.2046 33.6412 32.4131 33.6016 32.6149C33.5619 32.8167 33.4731 33.0056 33.343 33.1649C33.2128 33.3242 33.0454 33.4489 32.8555 33.528C32.6657 33.607 32.4592 33.638 32.2545 33.6182C32.0498 33.5984 31.8531 33.5283 31.6819 33.4143C31.5108 33.3002 31.3704 33.1457 31.2732 32.9644C31.1761 32.7831 31.1252 32.5807 31.125 32.375C31.1248 32.128 31.1978 31.8865 31.3347 31.6809C31.4717 31.4754 31.6665 31.315 31.8945 31.2201C32.1225 31.1251 32.3735 31.0998 32.6159 31.1474C32.8582 31.195 33.0811 31.3134 33.2562 31.4875ZM26.6937 28.25C25.1144 27.6938 23.6365 26.8831 22.3187 25.85C22.4617 25.4456 22.4617 25.0044 22.3187 24.6C24.3045 22.5772 25.7471 20.0856 26.5125 17.3563C26.9941 17.3168 27.4419 17.0929 27.7625 16.7313C28.718 17.176 29.6249 17.7185 30.4688 18.35C30.7678 20.1865 30.5762 22.0694 29.9133 23.8079C29.2503 25.5465 28.1397 27.0789 26.6937 28.25ZM37.5 21.25C37.2528 21.25 37.0111 21.1767 36.8055 21.0393C36.6 20.902 36.4398 20.7068 36.3451 20.4784C36.2505 20.2499 36.2258 19.9986 36.274 19.7561C36.3223 19.5137 36.4413 19.2909 36.6161 19.1161C36.7909 18.9413 37.0137 18.8223 37.2561 18.774C37.4986 18.7258 37.7499 18.7505 37.9784 18.8451C38.2068 18.9398 38.402 19.1 38.5393 19.3055C38.6767 19.5111 38.75 19.7528 38.75 20C38.75 20.3315 38.6183 20.6495 38.3839 20.8839C38.1495 21.1183 37.8315 21.25 37.5 21.25Z" fill="#F26A21"/>
<path d="M3.64376 15.825C3.66778 15.6712 3.63356 15.514 3.5478 15.3841C3.46203 15.2543 3.3309 15.1611 3.18004 15.1228C3.02919 15.0845 2.86948 15.1038 2.73214 15.1771C2.59481 15.2503 2.48975 15.3721 2.43751 15.5188C2.4083 15.6007 2.39653 15.6879 2.40295 15.7746C2.40936 15.8614 2.43382 15.9459 2.47477 16.0226C2.51571 16.0994 2.57223 16.1668 2.64071 16.2205C2.70919 16.2741 2.78812 16.3129 2.87245 16.3343C2.95678 16.3557 3.04465 16.3593 3.13044 16.3448C3.21622 16.3303 3.29804 16.298 3.37064 16.2501C3.44325 16.2021 3.50504 16.1396 3.55207 16.0664C3.5991 15.9932 3.63033 15.911 3.64376 15.825Z" fill="#F26A21"/>
<path d="M5.4875 11.3875C5.55123 11.2465 5.56038 11.0869 5.51321 10.9395C5.46603 10.7922 5.36587 10.6676 5.23211 10.5898C5.09835 10.512 4.94049 10.4866 4.78909 10.5185C4.63769 10.5504 4.50351 10.6374 4.4125 10.7625C4.34878 10.9035 4.33963 11.0631 4.3868 11.2105C4.43398 11.3578 4.53414 11.4824 4.6679 11.5602C4.80166 11.638 4.95952 11.6634 5.11092 11.6315C5.26232 11.5996 5.3965 11.5126 5.4875 11.3875Z" fill="#F26A21"/>
<path d="M4.40625 13.5438C4.47006 13.3904 4.47036 13.218 4.40707 13.0645C4.34377 12.9109 4.22208 12.7888 4.06875 12.725C3.99283 12.6934 3.91143 12.6771 3.82919 12.6769C3.74696 12.6768 3.6655 12.6928 3.58947 12.7242C3.43593 12.7875 3.31381 12.9092 3.25 13.0625C3.18618 13.2158 3.18588 13.3882 3.24918 13.5418C3.31247 13.6953 3.43417 13.8174 3.5875 13.8812C3.74082 13.9451 3.91322 13.9454 4.06677 13.8821C4.22032 13.8188 4.34243 13.6971 4.40625 13.5438Z" fill="#F26A21"/>
<path d="M29.4688 5.26875C29.5325 5.12776 29.5416 4.96814 29.4945 4.82078C29.4473 4.67342 29.3471 4.5488 29.2134 4.47103C29.0796 4.39327 28.9217 4.36788 28.7703 4.39978C28.6189 4.43169 28.4848 4.51862 28.3938 4.64375C28.33 4.78474 28.3209 4.94436 28.3681 5.09172C28.4152 5.23908 28.5154 5.3637 28.6492 5.44147C28.7829 5.51923 28.9408 5.54462 29.0922 5.51272C29.2436 5.48081 29.3778 5.39388 29.4688 5.26875Z" fill="#F26A21"/>
<path d="M27.275 4.06875C27.3388 3.91542 27.3391 3.74302 27.2758 3.58948C27.2125 3.43593 27.0908 3.31382 26.9375 3.25C26.7842 3.18618 26.6118 3.18589 26.4582 3.24918C26.3047 3.31247 26.1826 3.43417 26.1187 3.5875C26.0549 3.74083 26.0546 3.91323 26.1179 4.06677C26.1812 4.22032 26.3029 4.34243 26.4562 4.40625C26.6096 4.47007 26.782 4.47036 26.9355 4.40707C27.0891 4.34378 27.2112 4.22208 27.275 4.06875Z" fill="#F26A21"/>
<path d="M24.9312 3.19375C24.9363 3.05161 24.8926 2.91201 24.8076 2.798C24.7225 2.684 24.6012 2.60241 24.4635 2.56672C24.3258 2.53102 24.1801 2.54336 24.0503 2.60168C23.9206 2.66 23.8147 2.76083 23.75 2.8875C23.745 3.02964 23.7886 3.16924 23.8736 3.28325C23.9587 3.39725 24.0801 3.47884 24.2178 3.51453C24.3554 3.55023 24.5012 3.53789 24.6309 3.47957C24.7606 3.42125 24.8666 3.32042 24.9312 3.19375Z" fill="#F26A21"/>
<path d="M36.4063 26.1188C36.2529 26.0558 36.0809 26.0563 35.9279 26.1201C35.7749 26.184 35.6536 26.306 35.5906 26.4594C35.5276 26.6127 35.5281 26.7848 35.592 26.9377C35.6559 27.0907 35.7779 27.212 35.9313 27.275C36.0846 27.338 36.2567 27.3375 36.4096 27.2736C36.5626 27.2097 36.6839 27.0877 36.7469 26.9344C36.8099 26.781 36.8094 26.609 36.7455 26.456C36.6816 26.3031 36.5596 26.1817 36.4063 26.1188Z" fill="#F26A21"/>
<path d="M35.3688 28.3937C35.2278 28.33 35.0681 28.3209 34.9208 28.368C34.7734 28.4152 34.6488 28.5154 34.571 28.6491C34.4933 28.7829 34.4679 28.9408 34.4998 29.0922C34.5317 29.2436 34.6186 29.3777 34.7438 29.4688C34.8847 29.5325 35.0444 29.5416 35.1917 29.4944C35.3391 29.4473 35.4637 29.3471 35.5415 29.2134C35.6192 29.0796 35.6446 28.9217 35.6127 28.7703C35.5808 28.6189 35.4939 28.4848 35.3688 28.3937Z" fill="#F26A21"/>
<path d="M37.1125 23.75C36.9517 23.7094 36.7814 23.7343 36.639 23.8193C36.4966 23.9043 36.3937 24.0423 36.3531 24.2031C36.3125 24.3639 36.3374 24.5342 36.4224 24.6767C36.5074 24.8191 36.6455 24.9219 36.8062 24.9625C36.967 25.0031 37.1374 24.9782 37.2798 24.8932C37.4222 24.8082 37.525 24.6702 37.5656 24.5094C37.6062 24.3486 37.5813 24.1783 37.4963 24.0358C37.4114 23.8934 37.2733 23.7906 37.1125 23.75Z" fill="#F26A21"/>
<path d="M13.5375 35.625C13.4519 35.5886 13.3593 35.5717 13.2664 35.5756C13.1735 35.5795 13.0827 35.6041 13.0005 35.6475C12.9183 35.691 12.8468 35.7523 12.7913 35.8269C12.7358 35.9014 12.6976 35.9875 12.6795 36.0787C12.6615 36.1699 12.664 36.264 12.6869 36.3541C12.7099 36.4442 12.7526 36.5281 12.812 36.5996C12.8715 36.6711 12.9461 36.7284 13.0306 36.7674C13.115 36.8064 13.207 36.8261 13.3 36.825C13.4434 36.8233 13.5819 36.7723 13.6922 36.6806C13.8025 36.5889 13.8779 36.4621 13.9058 36.3214C13.9336 36.1807 13.9122 36.0347 13.8452 35.9079C13.7781 35.7811 13.6695 35.6812 13.5375 35.625Z" fill="#F26A21"/>
<path d="M11.3875 34.5125C11.2465 34.4488 11.0869 34.4396 10.9395 34.4868C10.7922 34.534 10.6675 34.6341 10.5898 34.7679C10.512 34.9017 10.4866 35.0595 10.5185 35.2109C10.5504 35.3623 10.6374 35.4965 10.7625 35.5875C10.9035 35.6512 11.0631 35.6604 11.2105 35.6132C11.3578 35.566 11.4824 35.4659 11.5602 35.3321C11.638 35.1983 11.6634 35.0405 11.6315 34.8891C11.5996 34.7377 11.5126 34.6035 11.3875 34.5125Z" fill="#F26A21"/>
<path d="M15.825 36.3562C15.7057 36.3204 15.5784 36.3211 15.4594 36.3581C15.3404 36.3951 15.2353 36.4669 15.1574 36.5641C15.0795 36.6614 15.0325 36.7797 15.0223 36.9039C15.0121 37.028 15.0393 37.1524 15.1004 37.261C15.1614 37.3696 15.2535 37.4575 15.3649 37.5134C15.4762 37.5693 15.6017 37.5906 15.7253 37.5747C15.8489 37.5587 15.9648 37.5062 16.0583 37.4238C16.1518 37.3415 16.2186 37.2331 16.25 37.1125C16.2908 36.9559 16.2693 36.7897 16.1901 36.6486C16.1108 36.5076 15.98 36.4028 15.825 36.3562Z" fill="#F26A21"/>
<path d="M5.4875 28.6125C5.3965 28.4874 5.26232 28.4004 5.11092 28.3685C4.95952 28.3366 4.80166 28.362 4.6679 28.4398C4.53414 28.5176 4.43398 28.6422 4.3868 28.7895C4.33963 28.9369 4.34878 29.0965 4.4125 29.2375C4.50351 29.3626 4.63769 29.4496 4.78909 29.4815C4.94049 29.5134 5.09835 29.488 5.23211 29.4102C5.36587 29.3324 5.46603 29.2078 5.51321 29.0605C5.56038 28.9131 5.55123 28.7535 5.4875 28.6125Z" fill="#F26A21"/>
<path d="M4.40625 26.4563C4.34243 26.3029 4.22032 26.1812 4.06677 26.1179C3.91322 26.0546 3.74083 26.0549 3.5875 26.1188C3.43417 26.1826 3.31247 26.3047 3.24918 26.4582C3.18588 26.6118 3.18618 26.7842 3.25 26.9375C3.31381 27.0908 3.43593 27.2125 3.58947 27.2758C3.74302 27.3391 3.91542 27.3388 4.06875 27.275C4.22207 27.2112 4.34377 27.0891 4.40707 26.9355C4.47036 26.782 4.47006 26.6096 4.40625 26.4563Z" fill="#F26A21"/>
<path d="M3.64375 24.175C3.59151 24.0284 3.48644 23.9065 3.34911 23.8333C3.21178 23.7601 3.05206 23.7407 2.90121 23.779C2.75036 23.8173 2.61922 23.9105 2.53346 24.0404C2.4477 24.1703 2.41348 24.3275 2.4375 24.4812C2.48974 24.6279 2.5948 24.7497 2.73214 24.8229C2.86947 24.8962 3.02918 24.9155 3.18004 24.8772C3.33089 24.8389 3.46202 24.7457 3.54779 24.6159C3.63355 24.486 3.66777 24.3288 3.64375 24.175Z" fill="#F26A21"/>
<path d="M28.6125 34.5125C28.5062 34.5755 28.4209 34.6687 28.3675 34.7802C28.3141 34.8917 28.295 35.0165 28.3125 35.1389C28.3301 35.2613 28.3836 35.3757 28.4661 35.4677C28.5487 35.5596 28.6567 35.6251 28.7765 35.6557C28.8963 35.6863 29.0224 35.6807 29.139 35.6396C29.2556 35.5985 29.3574 35.5237 29.4315 35.4248C29.5056 35.3258 29.5487 35.2071 29.5553 35.0837C29.5619 34.9602 29.5318 34.8376 29.4687 34.7313C29.3842 34.5887 29.2465 34.4856 29.0859 34.4446C28.9253 34.4036 28.7551 34.428 28.6125 34.5125Z" fill="#F26A21"/>
<path d="M26.4563 35.625C26.3423 35.6727 26.2451 35.753 26.1768 35.856C26.1085 35.9589 26.0722 36.0797 26.0725 36.2032C26.0729 36.3267 26.1098 36.4474 26.1786 36.5499C26.2475 36.6525 26.3451 36.7323 26.4593 36.7794C26.5735 36.8265 26.6991 36.8386 26.8202 36.8144C26.9413 36.7901 27.0525 36.7306 27.1398 36.6432C27.2271 36.5558 27.2865 36.4445 27.3105 36.3233C27.3346 36.2022 27.3222 36.0766 27.275 35.9625C27.2435 35.8865 27.1974 35.8174 27.1391 35.7593C27.0809 35.7011 27.0118 35.6551 26.9357 35.6237C26.8596 35.5924 26.7781 35.5763 26.6959 35.5766C26.6136 35.5768 26.5322 35.5932 26.4563 35.625Z" fill="#F26A21"/>
<path d="M24.175 36.3562C24.0548 36.3862 23.9463 36.4512 23.8631 36.5429C23.7799 36.6347 23.7259 36.7491 23.7078 36.8716C23.6898 36.9941 23.7085 37.1193 23.7617 37.2311C23.8149 37.3429 23.9001 37.4365 24.0065 37.4998C24.113 37.5631 24.2358 37.5934 24.3595 37.5868C24.4832 37.5802 24.6021 37.537 24.7012 37.4627C24.8002 37.3884 24.875 37.2863 24.916 37.1694C24.9569 37.0526 24.9622 36.9262 24.9312 36.8062C24.89 36.6467 24.7874 36.5099 24.6457 36.4256C24.5041 36.3413 24.3349 36.3164 24.175 36.3562Z" fill="#F26A21"/>
<path d="M35.625 13.5438C35.6964 13.6845 35.8185 13.793 35.9666 13.8475C36.1147 13.9019 36.278 13.8983 36.4236 13.8374C36.5692 13.7765 36.6863 13.6627 36.7515 13.519C36.8167 13.3752 36.8251 13.2122 36.775 13.0625C36.7036 12.9218 36.5815 12.8133 36.4334 12.7588C36.2853 12.7043 36.122 12.7079 35.9764 12.7688C35.8308 12.8298 35.7137 12.9435 35.6485 13.0873C35.5833 13.231 35.5749 13.3941 35.625 13.5438Z" fill="#F26A21"/>
<path d="M35.3688 11.6063C35.4939 11.5152 35.5808 11.3811 35.6127 11.2297C35.6446 11.0783 35.6192 10.9204 35.5415 10.7866C35.4637 10.6529 35.3391 10.5527 35.1917 10.5055C35.0444 10.4584 34.8847 10.4675 34.7438 10.5313C34.6186 10.6223 34.5317 10.7564 34.4998 10.9078C34.4679 11.0592 34.4933 11.2171 34.571 11.3509C34.6488 11.4846 34.7734 11.5848 34.9208 11.632C35.0681 11.6791 35.2278 11.67 35.3688 11.6063Z" fill="#F26A21"/>
<path d="M36.3563 15.825C36.4085 15.9716 36.5136 16.0935 36.6509 16.1667C36.7882 16.2399 36.9479 16.2593 37.0988 16.221C37.2496 16.1827 37.3808 16.0895 37.4665 15.9596C37.5523 15.8297 37.5865 15.6725 37.5625 15.5188C37.5625 14.8063 36.1188 14.9125 36.3563 15.825Z" fill="#F26A21"/>
<path d="M13.3 4.45625C13.4032 4.45617 13.5047 4.43055 13.5955 4.38168C13.6864 4.33282 13.7637 4.26223 13.8207 4.17621C13.8776 4.09018 13.9124 3.9914 13.9218 3.88868C13.9313 3.78596 13.9152 3.68249 13.875 3.5875C13.8114 3.43551 13.6904 3.31477 13.5382 3.25157C13.386 3.18836 13.2151 3.1878 13.0625 3.25C12.9266 3.30369 12.8137 3.40333 12.7436 3.5316C12.6736 3.65986 12.6506 3.80863 12.6789 3.95204C12.7071 4.09545 12.7847 4.22443 12.8982 4.31655C13.0117 4.40866 13.1539 4.4581 13.3 4.45625Z" fill="#F26A21"/>
<path d="M11.6062 4.63125C11.5152 4.50612 11.3811 4.41919 11.2297 4.38728C11.0783 4.35538 10.9204 4.38077 10.7866 4.45853C10.6529 4.5363 10.5527 4.66092 10.5055 4.80828C10.4584 4.95564 10.4675 5.11526 10.5312 5.25625C10.6223 5.38138 10.7564 5.46831 10.9078 5.50022C11.0592 5.53212 11.2171 5.50673 11.3509 5.42896C11.4846 5.3512 11.5848 5.22658 11.6319 5.07922C11.6791 4.93186 11.67 4.77224 11.6062 4.63125Z" fill="#F26A21"/>
<path d="M15.825 3.65C15.9716 3.59776 16.0935 3.49269 16.1667 3.35536C16.2399 3.21803 16.2593 3.05832 16.221 2.90746C16.1827 2.75661 16.0895 2.62547 15.9596 2.53971C15.8297 2.45395 15.6725 2.41973 15.5188 2.44375C15.3788 2.50061 15.2641 2.60625 15.196 2.74112C15.128 2.87599 15.111 3.03096 15.1484 3.17735C15.1857 3.32374 15.2749 3.45165 15.3993 3.53739C15.5237 3.62314 15.6749 3.66092 15.825 3.64375V3.65Z" fill="#F26A21"/>
</g>
<defs>
<clipPath id="clip0_1_28">
<rect width="40" height="40" fill="white"/>
</clipPath>
</defs>
</svg>
