<svg width="40" height="40" viewBox="0 0 40 40" fill="none" xmlns="http://www.w3.org/2000/svg">
<g clip-path="url(#clip0_1_195)">
<path d="M36.6188 27.2188C37.6112 24.9437 38.1235 22.4883 38.1235 20.0062C38.1235 17.5242 37.6112 15.0688 36.6188 12.7937C42.6625 9.225 40.0563 0 33.125 0C31.9317 0.00257777 30.7597 0.315686 29.7241 0.908534C28.6886 1.50138 27.8251 2.35355 27.2188 3.38125C24.9419 2.38735 22.4843 1.87432 20 1.87432C17.5157 1.87432 15.0581 2.38735 12.7813 3.38125C12.1749 2.35355 11.3114 1.50138 10.2759 0.908534C9.2403 0.315686 8.06826 0.00257777 6.875 0C-0.0624962 0 -2.65 9.23125 3.375 12.7937C2.38251 15.0688 1.87024 17.5242 1.87024 20.0062C1.87024 22.4883 2.38251 24.9437 3.375 27.2188C2.45511 27.742 1.66842 28.4705 1.07622 29.3476C0.484022 30.2246 0.102296 31.2266 -0.0392207 32.2754C-0.180737 33.3242 -0.0782238 34.3914 0.260334 35.3941C0.598892 36.3968 1.16435 37.3078 1.91267 38.0561C2.66099 38.8044 3.57197 39.3699 4.57464 39.7084C5.5773 40.047 6.6446 40.1495 7.69338 40.008C8.74216 39.8665 9.74411 39.4847 10.6212 38.8925C11.4983 38.3003 12.2268 37.5136 12.75 36.5938C15.0269 37.5877 17.4844 38.1007 19.9688 38.1007C22.4531 38.1007 24.9107 37.5877 27.1875 36.5938C30.7625 42.5938 40 40.1 40 33.125C39.9974 31.9317 39.6843 30.7597 39.0915 29.7241C38.4986 28.6886 37.6465 27.8251 36.6188 27.2188ZM29.8125 11.4062L29.9813 10.9C30.2036 10.2426 30.6266 9.6714 31.1905 9.26684C31.7544 8.86229 32.431 8.64471 33.125 8.64471C33.819 8.64471 34.4956 8.86229 35.0595 9.26684C35.6235 9.6714 36.0464 10.2426 36.2688 10.9L36.4375 11.4C35.4791 12.1094 34.3184 12.4928 33.126 12.4939C31.9336 12.4951 30.7723 12.1138 29.8125 11.4062ZM31.475 5.7375V5.16875C31.475 4.73114 31.6488 4.31146 31.9583 4.00202C32.2677 3.69259 32.6874 3.51875 33.125 3.51875C33.5626 3.51875 33.9823 3.69259 34.2917 4.00202C34.6012 4.31146 34.775 4.73114 34.775 5.16875V5.7375C34.775 6.17511 34.6012 6.59479 34.2917 6.90423C33.9823 7.21366 33.5626 7.3875 33.125 7.3875C32.6874 7.3875 32.2677 7.21366 31.9583 6.90423C31.6488 6.59479 31.475 6.17511 31.475 5.7375ZM33.125 1.25C34.1937 1.25064 35.2402 1.55572 36.1418 2.12953C37.0434 2.70334 37.7629 3.52213 38.216 4.49003C38.6691 5.45794 38.8372 6.53491 38.7004 7.59484C38.5636 8.65478 38.1277 9.65382 37.4438 10.475C37.2484 9.90317 36.9411 9.37598 36.5397 8.92421C36.1384 8.47244 35.6511 8.10514 35.1063 7.84375C35.4561 7.49949 35.7212 7.07866 35.8806 6.61444C36.0401 6.15023 36.0895 5.65532 36.025 5.16875C36.025 4.39962 35.7195 3.662 35.1756 3.11814C34.6318 2.57428 33.8941 2.26875 33.125 2.26875C32.3559 2.26875 31.6182 2.57428 31.0744 3.11814C30.5305 3.662 30.225 4.39962 30.225 5.16875C30.225 6.08125 30.225 6.9625 31.1438 7.84375C30.5995 8.10601 30.1127 8.4736 29.7115 8.92525C29.3102 9.37691 29.0026 9.90365 28.8063 10.475C28.1223 9.65382 27.6864 8.65478 27.5496 7.59484C27.4128 6.53491 27.5809 5.45794 28.034 4.49003C28.4871 3.52213 29.2066 2.70334 30.1082 2.12953C31.0099 1.55572 32.0563 1.25064 33.125 1.25ZM6.875 1.25C7.94259 1.25162 8.98768 1.55703 9.88815 2.13053C10.7886 2.70403 11.5073 3.52194 11.9602 4.4887C12.4131 5.45547 12.5815 6.53115 12.4458 7.59008C12.3101 8.64901 11.8758 9.64745 11.1938 10.4688C10.9974 9.89822 10.6896 9.37239 10.2883 8.92177C9.88706 8.47115 9.40028 8.10472 8.85625 7.84375C9.20611 7.49949 9.4712 7.07866 9.63064 6.61444C9.79008 6.15023 9.8395 5.65532 9.775 5.16875C9.775 4.39962 9.46947 3.662 8.92561 3.11814C8.38176 2.57428 7.64413 2.26875 6.875 2.26875C6.10588 2.26875 5.36825 2.57428 4.82439 3.11814C4.28054 3.662 3.975 4.39962 3.975 5.16875C3.975 6.08125 3.975 6.9625 4.89375 7.84375C4.34973 8.10472 3.86295 8.47115 3.46168 8.92177C3.06042 9.37239 2.75265 9.89822 2.55625 10.4688C1.87418 9.64745 1.43991 8.64901 1.30419 7.59008C1.16847 6.53115 1.33691 5.45547 1.78981 4.4887C2.24271 3.52194 2.96139 2.70403 3.86186 2.13053C4.76233 1.55703 5.80741 1.25162 6.875 1.25ZM3.55625 11.4125L3.75 10.9C3.9724 10.2426 4.3953 9.6714 4.95923 9.26684C5.52316 8.86229 6.19972 8.64471 6.89375 8.64471C7.58778 8.64471 8.26435 8.86229 8.82828 9.26684C9.3922 9.6714 9.81511 10.2426 10.0375 10.9L10.2125 11.4062C9.24807 12.1155 8.08253 12.4985 6.8854 12.4996C5.68828 12.5007 4.52202 12.1199 3.55625 11.4125ZM5.225 5.7375V5.16875C5.225 4.73114 5.39884 4.31146 5.70828 4.00202C6.01771 3.69259 6.4374 3.51875 6.875 3.51875C7.31261 3.51875 7.7323 3.69259 8.04173 4.00202C8.35117 4.31146 8.525 4.73114 8.525 5.16875V5.7375C8.525 6.17511 8.35117 6.59479 8.04173 6.90423C7.7323 7.21366 7.31261 7.3875 6.875 7.3875C6.4374 7.3875 6.01771 7.21366 5.70828 6.90423C5.39884 6.59479 5.225 6.17511 5.225 5.7375ZM5.225 31.9875V31.4188C5.225 30.9811 5.39884 30.5615 5.70828 30.252C6.01771 29.9426 6.4374 29.7688 6.875 29.7688C7.31261 29.7688 7.7323 29.9426 8.04173 30.252C8.35117 30.5615 8.525 30.9811 8.525 31.4188V31.9875C8.525 32.4251 8.35117 32.8448 8.04173 33.1542C7.7323 33.4637 7.31261 33.6375 6.875 33.6375C6.4374 33.6375 6.01771 33.4637 5.70828 33.1542C5.39884 32.8448 5.225 32.4251 5.225 31.9875ZM3.5625 37.6562L3.75 37.15C3.9724 36.4926 4.3953 35.9214 4.95923 35.5168C5.52316 35.1123 6.19972 34.8947 6.89375 34.8947C7.58778 34.8947 8.26435 35.1123 8.82828 35.5168C9.3922 35.9214 9.81511 36.4926 10.0375 37.15L10.2063 37.65C9.2465 38.3647 8.08205 38.7513 6.88541 38.7524C5.68877 38.7535 4.5236 38.3692 3.5625 37.6562ZM11.1938 36.725C10.9984 36.1532 10.6911 35.626 10.2897 35.1742C9.88839 34.7224 9.40108 34.3551 8.85625 34.0938C9.20611 33.7495 9.4712 33.3287 9.63064 32.8644C9.79008 32.4002 9.8395 31.9053 9.775 31.4188C9.775 30.6496 9.46947 29.912 8.92561 29.3681C8.38176 28.8243 7.64413 28.5188 6.875 28.5188C6.10588 28.5188 5.36825 28.8243 4.82439 29.3681C4.28054 29.912 3.975 30.6496 3.975 31.4188C3.975 32.3312 3.975 33.2125 4.89375 34.0938C4.34951 34.356 3.86269 34.7236 3.46146 35.1753C3.06023 35.6269 2.75256 36.1536 2.55625 36.725C1.87104 35.9039 1.43409 34.9045 1.29665 33.8439C1.15921 32.7833 1.32696 31.7055 1.78024 30.7369C2.23352 29.7682 2.95354 28.9489 3.8559 28.3749C4.75826 27.8008 5.80555 27.496 6.875 27.496C7.94446 27.496 8.99175 27.8008 9.89411 28.3749C10.7965 28.9489 11.5165 29.7682 11.9698 30.7369C12.4231 31.7055 12.5908 32.7833 12.4534 33.8439C12.3159 34.9045 11.879 35.9039 11.1938 36.725ZM13.3188 35.475C13.7666 34.2451 13.8541 32.9129 13.5709 31.635C13.2878 30.3571 12.6457 29.1866 11.7201 28.2611C10.7946 27.3356 9.62411 26.6935 8.34621 26.4103C7.06832 26.1271 5.73614 26.2146 4.50625 26.6625C3.59416 24.5542 3.1236 22.2815 3.1236 19.9844C3.1236 17.6873 3.59416 15.4145 4.50625 13.3063C5.73483 13.7525 7.06517 13.8393 8.34132 13.5565C9.61747 13.2736 10.7865 12.6328 11.7115 11.7092C12.6364 10.7856 13.2789 9.61741 13.5635 8.34167C13.8482 7.06592 13.7633 5.73546 13.3188 4.50625C15.4281 3.59399 17.7019 3.12336 20 3.12336C22.2981 3.12336 24.5719 3.59399 26.6813 4.50625C26.2317 5.73647 26.1429 7.06951 26.4253 8.34848C26.7078 9.62745 27.3497 10.7991 28.2755 11.7256C29.2013 12.6521 30.3726 13.2948 31.6513 13.5782C32.9301 13.8615 34.2632 13.7737 35.4938 13.325C36.4059 15.4333 36.8764 17.706 36.8764 20.0031C36.8764 22.3002 36.4059 24.573 35.4938 26.6812C34.2639 26.2334 32.9317 26.1459 31.6538 26.4291C30.3759 26.7122 29.2054 27.3543 28.2799 28.2799C27.3543 29.2054 26.7122 30.3759 26.4291 31.6538C26.1459 32.9317 26.2334 34.2639 26.6813 35.4938C24.5719 36.406 22.2981 36.8766 20 36.8766C17.7019 36.8766 15.4281 36.406 13.3188 35.4938V35.475ZM31.475 31.9688V31.4C31.475 30.9624 31.6488 30.5427 31.9583 30.2333C32.2677 29.9238 32.6874 29.75 33.125 29.75C33.5626 29.75 33.9823 29.9238 34.2917 30.2333C34.6012 30.5427 34.775 30.9624 34.775 31.4V31.9688C34.775 32.4064 34.6012 32.826 34.2917 33.1355C33.9823 33.4449 33.5626 33.6188 33.125 33.6188C32.6874 33.6188 32.2677 33.4449 31.9583 33.1355C31.6488 32.826 31.475 32.4064 31.475 31.9688ZM29.8125 37.6562L29.9813 37.15C30.2036 36.4926 30.6266 35.9214 31.1905 35.5168C31.7544 35.1123 32.431 34.8947 33.125 34.8947C33.819 34.8947 34.4956 35.1123 35.0595 35.5168C35.6235 35.9214 36.0464 36.4926 36.2688 37.15L36.4375 37.65C35.4795 38.3603 34.3187 38.7443 33.126 38.7455C31.9334 38.7466 30.7719 38.3648 29.8125 37.6562ZM37.4438 36.725C37.2484 36.1532 36.9411 35.626 36.5397 35.1742C36.1384 34.7224 35.6511 34.3551 35.1063 34.0938C35.4561 33.7495 35.7212 33.3287 35.8806 32.8644C36.0401 32.4002 36.0895 31.9053 36.025 31.4188C36.025 30.6496 35.7195 29.912 35.1756 29.3681C34.6318 28.8243 33.8941 28.5188 33.125 28.5188C32.3559 28.5188 31.6182 28.8243 31.0744 29.3681C30.5305 29.912 30.225 30.6496 30.225 31.4188C30.225 32.3312 30.225 33.2125 31.1438 34.0938C30.5995 34.356 30.1127 34.7236 29.7115 35.1753C29.3102 35.6269 29.0026 36.1536 28.8063 36.725C28.121 35.9039 27.6841 34.9045 27.5466 33.8439C27.4092 32.7833 27.577 31.7055 28.0302 30.7369C28.4835 29.7682 29.2035 28.9489 30.1059 28.3749C31.0083 27.8008 32.0555 27.496 33.125 27.496C34.1945 27.496 35.2418 27.8008 36.1441 28.3749C37.0465 28.9489 37.7665 29.7682 38.2198 30.7369C38.673 31.7055 38.8408 32.7833 38.7034 33.8439C38.5659 34.9045 38.129 35.9039 37.4438 36.725Z" fill="#9ECC3B"/>
<path d="M20 11.875C18.393 11.875 16.8221 12.3515 15.486 13.2443C14.1498 14.1371 13.1084 15.406 12.4935 16.8907C11.8785 18.3753 11.7176 20.009 12.0311 21.5851C12.3446 23.1612 13.1185 24.6089 14.2548 25.7452C15.3911 26.8815 16.8388 27.6554 18.4149 27.9689C19.991 28.2824 21.6247 28.1215 23.1093 27.5065C24.594 26.8916 25.8629 25.8502 26.7557 24.514C27.6485 23.1779 28.125 21.607 28.125 20C28.125 17.8451 27.269 15.7785 25.7452 14.2548C24.2215 12.731 22.1549 11.875 20 11.875ZM20 26.875C18.6403 26.875 17.311 26.4718 16.1805 25.7164C15.0499 24.9609 14.1687 23.8872 13.6483 22.6309C13.128 21.3747 12.9918 19.9924 13.2571 18.6588C13.5224 17.3251 14.1772 16.1001 15.1386 15.1386C16.1001 14.1772 17.3251 13.5224 18.6588 13.2571C19.9924 12.9918 21.3747 13.128 22.631 13.6483C23.8872 14.1687 24.9609 15.0499 25.7164 16.1805C26.4718 17.311 26.875 18.6403 26.875 20C26.875 21.8234 26.1507 23.572 24.8614 24.8614C23.5721 26.1507 21.8234 26.875 20 26.875Z" fill="#9ECC3B"/>
<path d="M19.375 18.125H21.875C22.0408 18.125 22.1997 18.0592 22.3169 17.9419C22.4342 17.8247 22.5 17.6658 22.5 17.5C22.5 17.3342 22.4342 17.1753 22.3169 17.0581C22.1997 16.9408 22.0408 16.875 21.875 16.875H20.625V16.25C20.625 16.0842 20.5592 15.9253 20.4419 15.8081C20.3247 15.6908 20.1658 15.625 20 15.625C19.8342 15.625 19.6753 15.6908 19.5581 15.8081C19.4408 15.9253 19.375 16.0842 19.375 16.25V16.875C18.8777 16.875 18.4008 17.0725 18.0492 17.4242C17.6975 17.7758 17.5 18.2527 17.5 18.75C17.5 19.2473 17.6975 19.7242 18.0492 20.0758C18.4008 20.4275 18.8777 20.625 19.375 20.625H20.625C20.7908 20.625 20.9497 20.6908 21.0669 20.8081C21.1842 20.9253 21.25 21.0842 21.25 21.25C21.25 21.4158 21.1842 21.5747 21.0669 21.6919C20.9497 21.8092 20.7908 21.875 20.625 21.875H18.125C17.9592 21.875 17.8003 21.9408 17.6831 22.0581C17.5658 22.1753 17.5 22.3342 17.5 22.5C17.5 22.6658 17.5658 22.8247 17.6831 22.9419C17.8003 23.0592 17.9592 23.125 18.125 23.125H19.375V23.75C19.375 23.9158 19.4408 24.0747 19.5581 24.1919C19.6753 24.3092 19.8342 24.375 20 24.375C20.1658 24.375 20.3247 24.3092 20.4419 24.1919C20.5592 24.0747 20.625 23.9158 20.625 23.75V23.125C21.1223 23.125 21.5992 22.9275 21.9508 22.5758C22.3025 22.2242 22.5 21.7473 22.5 21.25C22.5 20.7527 22.3025 20.2758 21.9508 19.9242C21.5992 19.5725 21.1223 19.375 20.625 19.375H19.375C19.2092 19.375 19.0503 19.3092 18.9331 19.1919C18.8158 19.0747 18.75 18.9158 18.75 18.75C18.75 18.5842 18.8158 18.4253 18.9331 18.3081C19.0503 18.1908 19.2092 18.125 19.375 18.125Z" fill="#9ECC3B"/>
</g>
<defs>
<clipPath id="clip0_1_195">
<rect width="40" height="40" fill="white"/>
</clipPath>
</defs>
</svg>
