<svg width="375" height="135" viewBox="0 0 375 135" fill="none" xmlns="http://www.w3.org/2000/svg">
<path d="M0 18.2245C0 18.2245 78.2552 0 187.5 0C296.745 0 375 18.2245 375 18.2245V134.984H0L0 18.2245Z" fill="#F4CA17"/>
</svg>
