<svg width="40" height="40" viewBox="0 0 40 40" fill="none" xmlns="http://www.w3.org/2000/svg">
<path d="M30.625 27.0813C29.9241 27.0813 29.239 27.2891 28.6562 27.6785C28.0734 28.0679 27.6192 28.6213 27.351 29.2689C27.0828 29.9164 27.0126 30.6289 27.1493 31.3164C27.2861 32.0038 27.6236 32.6352 28.1192 33.1308C28.6148 33.6264 29.2462 33.9639 29.9337 34.1007C30.6211 34.2374 31.3336 34.1672 31.9811 33.899C32.6287 33.6308 33.1821 33.1766 33.5715 32.5938C33.9609 32.011 34.1688 31.3259 34.1688 30.625C34.1671 29.6856 33.7932 28.7852 33.129 28.121C32.4648 27.4568 31.5644 27.0829 30.625 27.0813ZM30.625 32.9188C30.1713 32.9188 29.7279 32.7842 29.3507 32.5322C28.9735 32.2801 28.6795 31.9219 28.5059 31.5028C28.3322 31.0837 28.2868 30.6225 28.3753 30.1775C28.4638 29.7326 28.6823 29.3239 29.0031 29.0031C29.3239 28.6823 29.7326 28.4638 30.1775 28.3753C30.6225 28.2868 31.0837 28.3322 31.5028 28.5059C31.9219 28.6795 32.2801 28.9735 32.5322 29.3507C32.7842 29.7279 32.9188 30.1713 32.9188 30.625C32.9171 31.2328 32.6749 31.8153 32.2451 32.2451C31.8153 32.6749 31.2328 32.9171 30.625 32.9188Z" fill="#D42C70"/>
<path d="M39.45 32.8375L37.9938 31.9937C38.1688 31.0896 38.1688 30.1604 37.9938 29.2563L39.45 28.4125C39.593 28.33 39.6975 28.1944 39.7408 28.0352C39.7841 27.8759 39.7627 27.706 39.6813 27.5625L37.8063 24.3125C37.7649 24.2414 37.7099 24.1792 37.6445 24.1294C37.579 24.0796 37.5044 24.0432 37.4248 24.0223C37.3453 24.0014 37.2624 23.9964 37.1809 24.0076C37.0994 24.0187 37.021 24.0459 36.95 24.0875L36.25 24.4875V10C36.25 9.1712 35.9208 8.37634 35.3347 7.79029C34.7487 7.20424 33.9538 6.875 33.125 6.875H26.775L26.0812 3.08125C25.9246 2.21717 25.4698 1.43545 24.7959 0.87237C24.122 0.309289 23.2719 0.000559243 22.3938 0L13.8562 0C12.9781 0.000559243 12.128 0.309289 11.4541 0.87237C10.7802 1.43545 10.3254 2.21717 10.1688 3.08125L9.475 6.875H3.125C2.2962 6.875 1.50134 7.20424 0.915291 7.79029C0.32924 8.37634 0 9.1712 0 10L0 31.25C0 32.0788 0.32924 32.8737 0.915291 33.4597C1.50134 34.0458 2.2962 34.375 3.125 34.375H21.9625C23.9937 37.8937 23.3625 37.7062 25.7562 36.325C26.4568 36.9204 27.2593 37.3842 28.125 37.6938V39.375C28.125 39.5408 28.1908 39.6997 28.3081 39.8169C28.4253 39.9342 28.5842 40 28.75 40H32.5C32.6658 40 32.8247 39.9342 32.9419 39.8169C33.0592 39.6997 33.125 39.5408 33.125 39.375V37.6938C33.9907 37.3842 34.7932 36.9204 35.4938 36.325L36.95 37.1625C37.021 37.2041 37.0994 37.2313 37.1809 37.2424C37.2624 37.2536 37.3453 37.2486 37.4248 37.2277C37.5044 37.2068 37.579 37.1704 37.6445 37.1206C37.7099 37.0708 37.7649 37.0086 37.8063 36.9375L39.6813 33.6875C39.7627 33.544 39.7841 33.3741 39.7408 33.2148C39.6975 33.0556 39.593 32.9199 39.45 32.8375ZM11.3937 3.30625C11.4978 2.72911 11.8015 2.20693 12.2517 1.83104C12.7018 1.45516 13.2698 1.24948 13.8562 1.25H22.3938C22.9802 1.24948 23.5482 1.45516 23.9983 1.83104C24.4485 2.20693 24.7522 2.72911 24.8563 3.30625L25.4813 6.875H24.4375L23.925 4.0375C23.8451 3.6007 23.6128 3.20643 23.2695 2.92487C22.9261 2.64332 22.494 2.49276 22.05 2.5H14.1687C13.7248 2.49276 13.2926 2.64332 12.9493 2.92487C12.6059 3.20643 12.3736 3.6007 12.2937 4.0375L11.8125 6.875H10.75L11.3937 3.30625ZM23.1688 6.875H13.0813L13.55 4.2625C13.5766 4.1169 13.6541 3.98548 13.7685 3.89162C13.883 3.79777 14.027 3.74759 14.175 3.75H22.0813C22.2292 3.74759 22.3733 3.79777 22.4877 3.89162C22.6022 3.98548 22.6796 4.1169 22.7063 4.2625L23.1688 6.875ZM1.25 10C1.25 9.50272 1.44754 9.02581 1.79917 8.67417C2.15081 8.32254 2.62772 8.125 3.125 8.125H33.125C33.6223 8.125 34.0992 8.32254 34.4508 8.67417C34.8025 9.02581 35 9.50272 35 10V16.875C35 17.3723 34.8025 17.8492 34.4508 18.2008C34.0992 18.5525 33.6223 18.75 33.125 18.75H20.625V16.875C20.625 16.7092 20.5592 16.5503 20.4419 16.4331C20.3247 16.3158 20.1658 16.25 20 16.25H16.25C16.0842 16.25 15.9253 16.3158 15.8081 16.4331C15.6908 16.5503 15.625 16.7092 15.625 16.875V18.75H3.125C2.62772 18.75 2.15081 18.5525 1.79917 18.2008C1.44754 17.8492 1.25 17.3723 1.25 16.875V10ZM16.875 17.5H19.375V20C19.375 20.3315 19.2433 20.6495 19.0089 20.8839C18.7745 21.1183 18.4565 21.25 18.125 21.25C17.7935 21.25 17.4755 21.1183 17.2411 20.8839C17.0067 20.6495 16.875 20.3315 16.875 20V17.5ZM1.25 31.25V19.375C2.39375 20.2437 1.875 20 15.625 20C15.625 20.663 15.8884 21.2989 16.3572 21.7678C16.8261 22.2366 17.462 22.5 18.125 22.5C18.788 22.5 19.4239 22.2366 19.8928 21.7678C20.3616 21.2989 20.625 20.663 20.625 20C34.15 20 33.8625 20.225 35 19.375V24.5625C34.4244 24.1471 33.7932 23.8147 33.125 23.575V21.875C33.125 21.7092 33.0592 21.5503 32.9419 21.4331C32.8247 21.3158 32.6658 21.25 32.5 21.25H28.75C28.5842 21.25 28.4253 21.3158 28.3081 21.4331C28.1908 21.5503 28.125 21.7092 28.125 21.875V23.5562C27.2593 23.8658 26.4568 24.3296 25.7562 24.925L24.3 24.0875C24.229 24.0459 24.1506 24.0187 24.0691 24.0076C23.9876 23.9964 23.9047 24.0014 23.8252 24.0223C23.7456 24.0432 23.671 24.0796 23.6055 24.1294C23.5401 24.1792 23.4851 24.2414 23.4437 24.3125C20.9437 28.6313 20.8062 27.8438 23.2562 29.2563C23.0812 30.1604 23.0812 31.0896 23.2562 31.9937C21.6625 32.9125 21.6687 32.8563 21.55 33.125H3.125C2.62772 33.125 2.15081 32.9275 1.79917 32.5758C1.44754 32.2242 1.25 31.7473 1.25 31.25ZM37.0375 35.7687C35.725 35.0125 35.4062 34.6937 34.975 35.1062C33.125 36.875 31.875 36.3 31.875 37.2375V38.75H29.375C29.375 37.2375 29.4937 36.7938 28.9188 36.6312C26.4563 35.9375 26.3375 34.5438 25.525 35.0125L24.2125 35.7687L22.9625 33.6063C24.275 32.85 24.7188 32.7313 24.5688 32.15C24.3124 31.1495 24.3124 30.1005 24.5688 29.1C24.725 28.475 24.1563 28.3312 22.9625 27.6437L24.2125 25.4813L25.525 26.25C26.325 26.7125 26.4875 25.3188 28.9188 24.6313C29.4937 24.4688 29.375 24.0063 29.375 22.5125H31.875V24.025C31.875 24.95 33.175 24.4062 35 26.1562C35.4313 26.5687 35.7625 26.2438 37.0625 25.4938L38.3125 27.6562C35.8438 29.0562 36.875 28.2563 36.875 30.625C36.875 32.9938 35.8312 32.1875 38.2875 33.6063L37.0375 35.7687Z" fill="#D42C70"/>
</svg>
