<svg width="40" height="40" viewBox="0 0 40 40" fill="none" xmlns="http://www.w3.org/2000/svg">
<g clip-path="url(#clip0_1_82)">
<path d="M31.875 22.5C30.0641 22.4977 28.3042 23.1004 26.875 24.2125C25.7937 23.5875 26.4 24.15 26.1937 22.425C28.6937 20.9688 28.6062 21.8 26.0875 17.425C26.0461 17.3539 25.9912 17.2917 25.9257 17.2419C25.8603 17.1921 25.7856 17.1557 25.7061 17.1348C25.6265 17.1139 25.5436 17.1089 25.4622 17.1201C25.3807 17.1312 25.3022 17.1584 25.2312 17.2L23.7062 18.125C22.375 17.1125 22.5 17.7188 22.5 17.0938C31.3312 14.2438 29.1312 1.25 20 1.25C12.5 1.25 9 10.675 14.7312 15.5625C15.5449 16.2494 16.4857 16.7697 17.5 17.0938C17.5 17.7188 17.6312 17.0937 16.2937 18.1L14.7562 17.2125C14.6853 17.1709 14.6068 17.1437 14.5253 17.1326C14.4439 17.1214 14.361 17.1264 14.2814 17.1473C14.2019 17.1682 14.1272 17.2046 14.0618 17.2544C13.9963 17.3042 13.9413 17.3664 13.9 17.4375L12.025 20.6875C11.9435 20.831 11.9221 21.0009 11.9654 21.1602C12.0087 21.3194 12.1133 21.455 12.2562 21.5375L13.7937 22.425C13.5812 24.2125 14.2125 23.5813 13.1125 24.2125C11.4365 22.9046 9.3146 22.3058 7.20211 22.5444C5.08961 22.783 3.15479 23.8401 1.81272 25.4888C0.470645 27.1376 -0.171755 29.2467 0.0233333 31.3637C0.218421 33.4806 1.23546 35.4368 2.85625 36.8125C10 42.1688 17.975 35.4375 15.925 28.3625C16.6062 27.9688 15.925 28.1562 17.5 28.85V30.625C17.5 30.7908 17.5658 30.9497 17.6831 31.0669C17.8003 31.1842 17.9592 31.25 18.125 31.25H21.875C22.0408 31.25 22.1997 31.1842 22.3169 31.0669C22.4341 30.9497 22.5 30.7908 22.5 30.625V28.85C24.0312 28.1812 23.4 27.975 24.075 28.3625C21.875 35.95 30.6687 41.9938 37.1437 36.8125C42.8875 31.875 39.375 22.5 31.875 22.5ZM18.125 15C17.9875 15 17.5 15.05 17.5 15.775C16.917 15.551 16.3697 15.2437 15.875 14.8625L16.1062 14.1687C16.3796 13.3524 16.9026 12.6427 17.6013 12.1398C18.3 11.6369 19.1391 11.3663 20 11.3663C20.8609 11.3663 21.7 11.6369 22.3987 12.1398C23.0974 12.6427 23.6204 13.3524 23.8937 14.1687L24.125 14.8625C23.6303 15.2436 23.0829 15.5509 22.5 15.775C22.5 15.0562 22.025 15 21.875 15H18.125ZM17.9 8.0125V7.33125C17.9 6.77429 18.1212 6.24015 18.5151 5.84633C18.9089 5.4525 19.443 5.23125 20 5.23125C20.557 5.23125 21.0911 5.4525 21.4849 5.84633C21.8787 6.24015 22.1 6.77429 22.1 7.33125V8.0125C22.1 8.56945 21.8787 9.1036 21.4849 9.49742C21.0911 9.89125 20.557 10.1125 20 10.1125C19.443 10.1125 18.9089 9.89125 18.5151 9.49742C18.1212 9.1036 17.9 8.56945 17.9 8.0125ZM20 2.5C21.3243 2.50104 22.6202 2.88455 23.7318 3.60444C24.8434 4.32433 25.7234 5.34996 26.266 6.55802C26.8086 7.76608 26.9908 9.10516 26.7906 10.4143C26.5904 11.7234 26.0164 12.9468 25.1375 13.9375C24.9121 13.1925 24.5269 12.5057 24.0088 11.925C23.4906 11.3442 22.852 10.8835 22.1375 10.575C23.3875 9.54375 23.35 8.3875 23.35 7.33125C23.35 6.44277 22.9971 5.59069 22.3688 4.96244C21.7406 4.3342 20.8885 3.98125 20 3.98125C19.1115 3.98125 18.2594 4.3342 17.6312 4.96244C17.0029 5.59069 16.65 6.44277 16.65 7.33125C16.65 8.45625 16.65 9.55 17.8625 10.575C17.148 10.8835 16.5093 11.3442 15.9912 11.925C15.4731 12.5057 15.0879 13.1925 14.8625 13.9375C13.9836 12.9468 13.4096 11.7234 13.2094 10.4143C13.0092 9.10516 13.1914 7.76608 13.734 6.55802C14.2766 5.34996 15.1566 4.32433 16.2682 3.60444C17.3798 2.88455 18.6757 2.50104 20 2.5ZM6.025 29.2625V28.5812C6.025 28.3055 6.07931 28.0324 6.18485 27.7776C6.29038 27.5228 6.44507 27.2913 6.64007 27.0963C6.83508 26.9013 7.06658 26.7466 7.32136 26.6411C7.57615 26.5356 7.84922 26.4812 8.125 26.4812C8.40077 26.4812 8.67385 26.5356 8.92863 26.6411C9.18342 26.7466 9.41492 26.9013 9.60992 27.0963C9.80492 27.2913 9.95961 27.5228 10.0651 27.7776C10.1707 28.0324 10.225 28.3055 10.225 28.5812V29.2625C10.225 29.8195 10.0037 30.3536 9.60992 30.7474C9.21609 31.1412 8.68195 31.3625 8.125 31.3625C7.56804 31.3625 7.0339 31.1412 6.64007 30.7474C6.24625 30.3536 6.025 29.8195 6.025 29.2625ZM12.1625 36.1875C10.9886 37.0393 9.57537 37.4979 8.125 37.4979C6.67463 37.4979 5.26141 37.0393 4.0875 36.1875C3.96875 36.1 3.9625 36.1875 4.23125 35.4187C4.50459 34.6024 5.02759 33.8927 5.72631 33.3898C6.42503 32.8869 7.26413 32.6163 8.125 32.6163C8.98587 32.6163 9.82496 32.8869 10.5237 33.3898C11.2224 33.8927 11.7454 34.6024 12.0187 35.4187C12.2812 36.2125 12.2937 36.0938 12.1625 36.1875ZM13.2625 35.1875C13.0379 34.4422 12.653 33.755 12.1347 33.1741C11.6165 32.5933 10.9775 32.1328 10.2625 31.825C11.5125 30.7937 11.475 29.6375 11.475 28.5812C11.475 27.6928 11.1221 26.8407 10.4938 26.2124C9.86556 25.5842 9.01347 25.2312 8.125 25.2312C7.23652 25.2312 6.38444 25.5842 5.75619 26.2124C5.12794 26.8407 4.775 27.6928 4.775 28.5812C4.775 29.7062 4.775 30.8 5.9875 31.825C5.27227 32.1324 4.63305 32.5928 4.11476 33.1737C3.59648 33.7546 3.21171 34.442 2.9875 35.1875C1.87606 33.931 1.2624 32.3114 1.26209 30.6338C1.26179 28.9563 1.87485 27.3365 2.98582 26.0796C4.09679 24.8226 5.62901 24.0152 7.2939 23.8095C8.95879 23.6037 10.6415 24.0138 12.025 24.9625C11.8062 25.3812 11.8562 25.2687 13.9 28.8125C13.9432 28.8885 14.0019 28.9547 14.0723 29.0066C14.1427 29.0585 14.2232 29.0951 14.3087 29.114C14.3941 29.1328 14.4825 29.1335 14.5682 29.116C14.6539 29.0986 14.735 29.0633 14.8062 29.0125C15.0657 30.09 15.0608 31.2142 14.792 32.2894C14.5232 33.3646 13.9985 34.3589 13.2625 35.1875ZM23.2625 26.925C22.0125 27.9813 21.2687 27.6812 21.2687 28.425V30H18.75C18.75 28.6063 18.8875 28.0312 18.3312 27.8312C16.8 27.2937 16.675 26.4875 16.0375 26.8563L14.6687 27.6437L13.4187 25.4813C14.6312 24.7812 15.1937 24.6125 15.0875 24.0375C14.6062 21.4312 16.1812 22.3625 13.4187 20.7687L14.6687 18.6063L16.0375 19.375C16.6937 19.75 16.7625 18.9563 18.3312 18.4C18.8437 18.2188 18.75 17.9 18.75 16.2312H21.25V17.8062C21.25 18.55 22.0125 18.25 23.2437 19.3062C23.6562 19.6625 23.8687 19.4188 25.3312 18.5875L26.5812 20.75C24.325 22.0688 25 21.5063 25 23.125C25 24.7437 24.3312 24.1812 26.5812 25.4813L25.3312 27.6437C24.1187 26.95 23.6937 26.5438 23.2437 26.925H23.2625ZM29.7937 29.2625V28.5812C29.7937 28.0243 30.015 27.4902 30.4088 27.0963C30.8026 26.7025 31.3368 26.4812 31.8937 26.4812C32.4507 26.4812 32.9848 26.7025 33.3787 27.0963C33.7725 27.4902 33.9937 28.0243 33.9937 28.5812V29.2625C33.9937 29.8195 33.7725 30.3536 33.3787 30.7474C32.9848 31.1412 32.4507 31.3625 31.8937 31.3625C31.3368 31.3625 30.8026 31.1412 30.4088 30.7474C30.015 30.3536 29.7937 29.8195 29.7937 29.2625ZM35.9125 36.1875C34.7386 37.0393 33.3254 37.4979 31.875 37.4979C30.4246 37.4979 29.0114 37.0393 27.8375 36.1875C27.7187 36.1 27.7125 36.1875 27.9812 35.4187C28.2546 34.6024 28.7776 33.8927 29.4763 33.3898C30.175 32.8869 31.0141 32.6163 31.875 32.6163C32.7359 32.6163 33.575 32.8869 34.2737 33.3898C34.9724 33.8927 35.4954 34.6024 35.7687 35.4187C36.0312 36.2125 36.0437 36.0938 35.9125 36.1875ZM37.0125 35.1875C36.7879 34.4422 36.403 33.755 35.8848 33.1741C35.3665 32.5933 34.7275 32.1328 34.0125 31.825C35.2625 30.7937 35.225 29.6375 35.225 28.5812C35.225 27.6928 34.8721 26.8407 34.2438 26.2124C33.6156 25.5842 32.7635 25.2312 31.875 25.2312C30.9865 25.2312 30.1344 25.5842 29.5062 26.2124C28.8779 26.8407 28.525 27.6928 28.525 28.5812C28.525 29.7062 28.525 30.8 29.7375 31.825C29.0223 32.1324 28.383 32.5928 27.8648 33.1737C27.3465 33.7546 26.9617 34.442 26.7375 35.1875C26.0015 34.3589 25.4768 33.3646 25.208 32.2894C24.9392 31.2142 24.9343 30.09 25.1937 29.0125C25.265 29.0633 25.3461 29.0986 25.4318 29.116C25.5175 29.1335 25.6059 29.1328 25.6913 29.114C25.7768 29.0951 25.8573 29.0585 25.9277 29.0066C25.9981 28.9547 26.0568 28.8885 26.1 28.8125C28.1875 25.1937 28.1937 25.375 27.975 24.9625C29.3585 24.0138 31.0412 23.6037 32.7061 23.8095C34.371 24.0152 35.9032 24.8226 37.0142 26.0796C38.1251 27.3365 38.7382 28.9563 38.7379 30.6338C38.7376 32.3114 38.1239 33.931 37.0125 35.1875Z" fill="#3BA6DD"/>
<path d="M20 20.625C19.5055 20.625 19.0222 20.7716 18.6111 21.0463C18.2 21.321 17.8795 21.7115 17.6903 22.1683C17.5011 22.6251 17.4516 23.1278 17.548 23.6127C17.6445 24.0977 17.8826 24.5431 18.2322 24.8928C18.5819 25.2424 19.0273 25.4805 19.5123 25.577C19.9972 25.6734 20.4999 25.6239 20.9567 25.4347C21.4135 25.2455 21.804 24.925 22.0787 24.5139C22.3534 24.1028 22.5 23.6195 22.5 23.125C22.5 22.462 22.2366 21.8261 21.7678 21.3572C21.2989 20.8884 20.663 20.625 20 20.625ZM20 24.375C19.7528 24.375 19.5111 24.3017 19.3055 24.1643C19.1 24.027 18.9398 23.8318 18.8452 23.6034C18.7505 23.3749 18.7258 23.1236 18.774 22.8811C18.8223 22.6387 18.9413 22.4159 19.1161 22.2411C19.2909 22.0663 19.5137 21.9472 19.7561 21.899C19.9986 21.8508 20.2499 21.8755 20.4784 21.9702C20.7068 22.0648 20.902 22.225 21.0393 22.4305C21.1767 22.6361 21.25 22.8778 21.25 23.125C21.25 23.4565 21.1183 23.7745 20.8839 24.0089C20.6495 24.2433 20.3315 24.375 20 24.375Z" fill="#3BA6DD"/>
</g>
<defs>
<clipPath id="clip0_1_82">
<rect width="40" height="40" fill="white"/>
</clipPath>
</defs>
</svg>
