<svg width="40" height="40" viewBox="0 0 40 40" fill="none" xmlns="http://www.w3.org/2000/svg">
<path d="M38.125 33.75H37.5V11.25C37.5 10.587 37.2366 9.95107 36.7678 9.48223C36.2989 9.01339 35.663 8.75 35 8.75H31.875V0.625C31.875 0.45924 31.8092 0.300269 31.6919 0.183058C31.5747 0.065848 31.4158 0 31.25 0L8.75 0C8.58424 0 8.42527 0.065848 8.30806 0.183058C8.19085 0.300269 8.125 0.45924 8.125 0.625V8.75H5C4.33696 8.75 3.70107 9.01339 3.23223 9.48223C2.76339 9.95107 2.5 10.587 2.5 11.25V33.75H1.875C1.37772 33.75 0.900805 33.9475 0.549175 34.2992C0.197544 34.6508 0 35.1277 0 35.625L0 36.875C0 37.7038 0.32924 38.4987 0.915291 39.0847C1.50134 39.6708 2.2962 40 3.125 40H36.875C37.7038 40 38.4987 39.6708 39.0847 39.0847C39.6708 38.4987 40 37.7038 40 36.875V35.625C40 35.1277 39.8025 34.6508 39.4508 34.2992C39.0992 33.9475 38.6223 33.75 38.125 33.75ZM6.25 31.25V12.5H8.125V31.25H6.25ZM9.375 5H30.625V31.25H9.375V5ZM31.875 12.5H33.75V31.25H31.875V12.5ZM9.375 1.25H30.625V3.75H9.375V1.25ZM3.75 11.25C3.75 10.9185 3.8817 10.6005 4.11612 10.3661C4.35054 10.1317 4.66848 10 5 10H8.125V11.25H5.625C5.45924 11.25 5.30027 11.3158 5.18306 11.4331C5.06585 11.5503 5 11.7092 5 11.875V31.875C5 32.0408 5.06585 32.1997 5.18306 32.3169C5.30027 32.4342 5.45924 32.5 5.625 32.5H34.375C34.5408 32.5 34.6997 32.4342 34.8169 32.3169C34.9342 32.1997 35 32.0408 35 31.875V11.875C35 11.7092 34.9342 11.5503 34.8169 11.4331C34.6997 11.3158 34.5408 11.25 34.375 11.25H31.875V10H35C35.3315 10 35.6495 10.1317 35.8839 10.3661C36.1183 10.6005 36.25 10.9185 36.25 11.25V33.75H3.75V11.25ZM25.0813 35L24.6625 35.625H15.3375L14.9188 35H25.0813ZM38.75 36.875C38.75 37.3723 38.5525 37.8492 38.2008 38.2008C37.8492 38.5525 37.3723 38.75 36.875 38.75H3.125C2.62772 38.75 2.15081 38.5525 1.79917 38.2008C1.44754 37.8492 1.25 37.3723 1.25 36.875V35.625C1.25 35.4592 1.31585 35.3003 1.43306 35.1831C1.55027 35.0658 1.70924 35 1.875 35H13.4125L14.4812 36.5938C14.7437 36.9937 14.225 36.875 25 36.875C25.4312 36.875 25.4625 36.6875 26.5875 35H38.125C38.2908 35 38.4497 35.0658 38.5669 35.1831C38.6842 35.3003 38.75 35.4592 38.75 35.625V36.875Z" fill="#5BC2A9"/>
<path d="M11.25 1.875C11.0842 1.875 10.9253 1.94085 10.8081 2.05806C10.6908 2.17527 10.625 2.33424 10.625 2.5C10.625 2.66576 10.6908 2.82473 10.8081 2.94194C10.9253 3.05915 11.0842 3.125 11.25 3.125C11.4158 3.125 11.5747 3.05915 11.6919 2.94194C11.8092 2.82473 11.875 2.66576 11.875 2.5C11.875 2.33424 11.8092 2.17527 11.6919 2.05806C11.5747 1.94085 11.4158 1.875 11.25 1.875Z" fill="#5BC2A9"/>
<path d="M13.75 1.875C13.5842 1.875 13.4253 1.94085 13.3081 2.05806C13.1908 2.17527 13.125 2.33424 13.125 2.5C13.125 2.66576 13.1908 2.82473 13.3081 2.94194C13.4253 3.05915 13.5842 3.125 13.75 3.125C13.9158 3.125 14.0747 3.05915 14.1919 2.94194C14.3092 2.82473 14.375 2.66576 14.375 2.5C14.375 2.33424 14.3092 2.17527 14.1919 2.05806C14.0747 1.94085 13.9158 1.875 13.75 1.875Z" fill="#5BC2A9"/>
<path d="M16.25 1.875C16.0842 1.875 15.9253 1.94085 15.8081 2.05806C15.6908 2.17527 15.625 2.33424 15.625 2.5C15.625 2.66576 15.6908 2.82473 15.8081 2.94194C15.9253 3.05915 16.0842 3.125 16.25 3.125C16.4158 3.125 16.5747 3.05915 16.6919 2.94194C16.8092 2.82473 16.875 2.66576 16.875 2.5C16.875 2.33424 16.8092 2.17527 16.6919 2.05806C16.5747 1.94085 16.4158 1.875 16.25 1.875Z" fill="#5BC2A9"/>
<path d="M28.125 6.25H11.875C11.7092 6.25 11.5503 6.31585 11.4331 6.43306C11.3158 6.55027 11.25 6.70924 11.25 6.875V13.125C11.25 13.2908 11.3158 13.4497 11.4331 13.5669C11.5503 13.6842 11.7092 13.75 11.875 13.75H28.125C28.2908 13.75 28.4497 13.6842 28.5669 13.5669C28.6842 13.4497 28.75 13.2908 28.75 13.125V6.875C28.75 6.70924 28.6842 6.55027 28.5669 6.43306C28.4497 6.31585 28.2908 6.25 28.125 6.25ZM27.5 12.5H12.5V7.5H27.5V12.5Z" fill="#5BC2A9"/>
<path d="M20 20C20.4945 20 20.9778 19.8534 21.3889 19.5787C21.8 19.304 22.1205 18.9135 22.3097 18.4567C22.4989 17.9999 22.5484 17.4972 22.452 17.0123C22.3555 16.5273 22.1174 16.0819 21.7678 15.7322C21.4181 15.3826 20.9727 15.1445 20.4877 15.048C20.0028 14.9516 19.5001 15.0011 19.0433 15.1903C18.5865 15.3795 18.196 15.7 17.9213 16.1111C17.6466 16.5222 17.5 17.0055 17.5 17.5C17.5 18.163 17.7634 18.7989 18.2322 19.2678C18.7011 19.7366 19.337 20 20 20ZM20 16.25C20.2472 16.25 20.4889 16.3233 20.6945 16.4607C20.9 16.598 21.0602 16.7932 21.1548 17.0216C21.2495 17.2501 21.2742 17.5014 21.226 17.7439C21.1778 17.9863 21.0587 18.2091 20.8839 18.3839C20.7091 18.5587 20.4863 18.6778 20.2439 18.726C20.0014 18.7742 19.7501 18.7495 19.5216 18.6549C19.2932 18.5602 19.098 18.4 18.9607 18.1945C18.8233 17.9889 18.75 17.7472 18.75 17.5C18.75 17.1685 18.8817 16.8505 19.1161 16.6161C19.3505 16.3817 19.6685 16.25 20 16.25Z" fill="#5BC2A9"/>
<path d="M26.25 15C25.7555 15 25.2722 15.1466 24.8611 15.4213C24.45 15.696 24.1295 16.0865 23.9403 16.5433C23.7511 17.0001 23.7016 17.5028 23.798 17.9877C23.8945 18.4727 24.1326 18.9181 24.4822 19.2678C24.8319 19.6174 25.2773 19.8555 25.7623 19.952C26.2472 20.0484 26.7499 19.9989 27.2067 19.8097C27.6635 19.6205 28.054 19.3 28.3287 18.8889C28.6034 18.4778 28.75 17.9945 28.75 17.5C28.75 16.837 28.4866 16.2011 28.0178 15.7322C27.5489 15.2634 26.913 15 26.25 15ZM26.25 18.75C26.0028 18.75 25.7611 18.6767 25.5555 18.5393C25.35 18.402 25.1898 18.2068 25.0952 17.9784C25.0005 17.7499 24.9758 17.4986 25.024 17.2561C25.0723 17.0137 25.1913 16.7909 25.3661 16.6161C25.5409 16.4413 25.7637 16.3222 26.0061 16.274C26.2486 16.2258 26.4999 16.2505 26.7284 16.3452C26.9568 16.4398 27.152 16.6 27.2893 16.8055C27.4267 17.0111 27.5 17.2528 27.5 17.5C27.5 17.8315 27.3683 18.1495 27.1339 18.3839C26.8995 18.6183 26.5815 18.75 26.25 18.75Z" fill="#5BC2A9"/>
<path d="M13.75 20C14.2445 20 14.7278 19.8534 15.1389 19.5787C15.55 19.304 15.8705 18.9135 16.0597 18.4567C16.2489 17.9999 16.2984 17.4972 16.202 17.0123C16.1055 16.5273 15.8674 16.0819 15.5178 15.7322C15.1681 15.3826 14.7227 15.1445 14.2377 15.048C13.7528 14.9516 13.2501 15.0011 12.7933 15.1903C12.3365 15.3795 11.946 15.7 11.6713 16.1111C11.3966 16.5222 11.25 17.0055 11.25 17.5C11.25 18.163 11.5134 18.7989 11.9822 19.2678C12.4511 19.7366 13.087 20 13.75 20ZM13.75 16.25C13.9972 16.25 14.2389 16.3233 14.4445 16.4607C14.65 16.598 14.8102 16.7932 14.9048 17.0216C14.9995 17.2501 15.0242 17.5014 14.976 17.7439C14.9278 17.9863 14.8087 18.2091 14.6339 18.3839C14.4591 18.5587 14.2363 18.6778 13.9939 18.726C13.7514 18.7742 13.5001 18.7495 13.2716 18.6549C13.0432 18.5602 12.848 18.4 12.7107 18.1945C12.5733 17.9889 12.5 17.7472 12.5 17.5C12.5 17.1685 12.6317 16.8505 12.8661 16.6161C13.1005 16.3817 13.4185 16.25 13.75 16.25Z" fill="#5BC2A9"/>
<path d="M11.875 22.5H15.625C15.7908 22.5 15.9497 22.4342 16.0669 22.3169C16.1842 22.1997 16.25 22.0408 16.25 21.875C16.25 21.7092 16.1842 21.5503 16.0669 21.4331C15.9497 21.3158 15.7908 21.25 15.625 21.25H11.875C11.7092 21.25 11.5503 21.3158 11.4331 21.4331C11.3158 21.5503 11.25 21.7092 11.25 21.875C11.25 22.0408 11.3158 22.1997 11.4331 22.3169C11.5503 22.4342 11.7092 22.5 11.875 22.5Z" fill="#5BC2A9"/>
<path d="M11.875 25H15.625C15.7908 25 15.9497 24.9342 16.0669 24.8169C16.1842 24.6997 16.25 24.5408 16.25 24.375C16.25 24.2092 16.1842 24.0503 16.0669 23.9331C15.9497 23.8158 15.7908 23.75 15.625 23.75H11.875C11.7092 23.75 11.5503 23.8158 11.4331 23.9331C11.3158 24.0503 11.25 24.2092 11.25 24.375C11.25 24.5408 11.3158 24.6997 11.4331 24.8169C11.5503 24.9342 11.7092 25 11.875 25Z" fill="#5BC2A9"/>
<path d="M18.125 22.5H21.875C22.0408 22.5 22.1997 22.4342 22.3169 22.3169C22.4342 22.1997 22.5 22.0408 22.5 21.875C22.5 21.7092 22.4342 21.5503 22.3169 21.4331C22.1997 21.3158 22.0408 21.25 21.875 21.25H18.125C17.9592 21.25 17.8003 21.3158 17.6831 21.4331C17.5658 21.5503 17.5 21.7092 17.5 21.875C17.5 22.0408 17.5658 22.1997 17.6831 22.3169C17.8003 22.4342 17.9592 22.5 18.125 22.5Z" fill="#5BC2A9"/>
<path d="M18.125 25H21.875C22.0408 25 22.1997 24.9342 22.3169 24.8169C22.4342 24.6997 22.5 24.5408 22.5 24.375C22.5 24.2092 22.4342 24.0503 22.3169 23.9331C22.1997 23.8158 22.0408 23.75 21.875 23.75H18.125C17.9592 23.75 17.8003 23.8158 17.6831 23.9331C17.5658 24.0503 17.5 24.2092 17.5 24.375C17.5 24.5408 17.5658 24.6997 17.6831 24.8169C17.8003 24.9342 17.9592 25 18.125 25Z" fill="#5BC2A9"/>
<path d="M28.125 21.25H24.375C24.2092 21.25 24.0503 21.3158 23.9331 21.4331C23.8158 21.5503 23.75 21.7092 23.75 21.875C23.75 22.0408 23.8158 22.1997 23.9331 22.3169C24.0503 22.4342 24.2092 22.5 24.375 22.5H28.125C28.2908 22.5 28.4497 22.4342 28.5669 22.3169C28.6842 22.1997 28.75 22.0408 28.75 21.875C28.75 21.7092 28.6842 21.5503 28.5669 21.4331C28.4497 21.3158 28.2908 21.25 28.125 21.25Z" fill="#5BC2A9"/>
<path d="M28.125 23.75H24.375C24.2092 23.75 24.0503 23.8158 23.9331 23.9331C23.8158 24.0503 23.75 24.2092 23.75 24.375C23.75 24.5408 23.8158 24.6997 23.9331 24.8169C24.0503 24.9342 24.2092 25 24.375 25H28.125C28.2908 25 28.4497 24.9342 28.5669 24.8169C28.6842 24.6997 28.75 24.5408 28.75 24.375C28.75 24.2092 28.6842 24.0503 28.5669 23.9331C28.4497 23.8158 28.2908 23.75 28.125 23.75Z" fill="#5BC2A9"/>
<path d="M28.125 26.25H11.875C11.7092 26.25 11.5503 26.3158 11.4331 26.4331C11.3158 26.5503 11.25 26.7092 11.25 26.875V29.375C11.25 29.5408 11.3158 29.6997 11.4331 29.8169C11.5503 29.9342 11.7092 30 11.875 30H28.125C28.2908 30 28.4497 29.9342 28.5669 29.8169C28.6842 29.6997 28.75 29.5408 28.75 29.375V26.875C28.75 26.7092 28.6842 26.5503 28.5669 26.4331C28.4497 26.3158 28.2908 26.25 28.125 26.25ZM27.5 28.75H12.5V27.5H27.5V28.75Z" fill="#5BC2A9"/>
</svg>
