<svg width="365" height="217" viewBox="0 0 365 217" fill="none" xmlns="http://www.w3.org/2000/svg">
<path d="M71.3082 181V157.21H8.1732V138.544L68.1972 52.9H94.7322V136.897H111.568V157.21H94.7322V181H71.3082ZM33.2442 136.897H72.7722V78.703L33.2442 136.897ZM318.465 181V157.21H255.33V138.544L315.354 52.9H341.889V136.897H358.725V157.21H341.889V181H318.465ZM280.401 136.897H319.929V78.703L280.401 136.897Z" fill="#F1F1F1"/>

<path d="M116.829 126.158L132.753 69.6187C133.195 67.9342 134.068 66.398 135.284 65.1654C136.5 63.9329 138.015 63.0477 139.677 62.5995L195.965 48.2803C197.629 47.8724 199.369 47.9103 201.013 48.3902C202.658 48.8702 204.152 49.7757 205.347 51.0178L245.677 93.133C246.868 94.3774 247.713 95.9193 248.127 97.6021C248.54 99.2849 248.507 101.049 248.031 102.714L232.176 159.64C231.747 161.331 230.878 162.874 229.66 164.109C228.442 165.344 226.92 166.224 225.252 166.659L168.929 180.698C167.269 181.124 165.527 181.099 163.88 180.625C162.233 180.15 160.738 179.243 159.547 177.995L119.183 135.88C117.967 134.622 117.108 133.056 116.694 131.346C116.279 129.636 116.326 127.844 116.829 126.158Z" fill="#F1F1F1"/>
</svg>
