<svg width="455" height="298" viewBox="0 0 455 298" fill="none" xmlns="http://www.w3.org/2000/svg">
<mask id="mask0_833_2705" style="mask-type:alpha" maskUnits="userSpaceOnUse" x="4" y="0" width="451" height="290">
<rect x="4" width="451" height="290" rx="10" fill="white"/>
</mask>
<g mask="url(#mask0_833_2705)">
<path d="M-17.8068 265.451L-17.8044 265.444L-17.8022 265.436L25.1627 119.198L25.1653 119.189L25.1677 119.18C26.3129 114.998 28.5752 111.18 31.7291 108.115C34.8815 105.051 38.8128 102.848 43.1271 101.731C43.1294 101.73 43.1317 101.73 43.134 101.729L194.984 64.6984C194.985 64.6981 194.987 64.6978 194.988 64.6974C199.311 63.682 203.832 63.7768 208.106 64.9723C212.381 66.168 216.258 68.423 219.36 71.5126C219.361 71.513 219.361 71.5134 219.361 71.5138L328.173 180.442C331.262 183.535 333.452 187.366 334.522 191.542C335.593 195.719 335.507 200.096 334.273 204.231L334.271 204.238L291.493 351.474L291.49 351.486L291.487 351.497C290.377 355.693 288.127 359.526 284.97 362.595C281.813 365.662 277.865 367.854 273.536 368.937C273.534 368.937 273.532 368.938 273.531 368.938L121.576 405.245L121.569 405.247C117.256 406.309 112.731 406.247 108.452 405.065C104.173 403.883 100.294 401.625 97.205 398.523L97.2035 398.521L-11.7031 289.592L-11.706 289.589C-14.8584 286.461 -17.0855 282.571 -18.1577 278.326C-19.2299 274.082 -19.1088 269.635 -17.8068 265.451Z" stroke="#F7EC00" stroke-width="2"/>
<path d="M115.816 292.285L143.249 198.76C144.011 195.974 145.515 193.433 147.609 191.394C149.703 189.355 152.314 187.891 155.176 187.149L252.144 163.464C255.009 162.789 258.006 162.852 260.84 163.645C263.673 164.439 266.246 165.937 268.305 167.992L337.78 237.656C339.833 239.715 341.289 242.265 342.001 245.049C342.713 247.832 342.656 250.75 341.835 253.505L314.522 347.668C313.783 350.465 312.287 353.018 310.189 355.06C308.091 357.102 305.469 358.559 302.595 359.278L205.568 382.5C202.708 383.206 199.708 383.164 196.87 382.379C194.033 381.594 191.458 380.094 189.407 378.03L119.872 308.365C117.778 306.285 116.296 303.694 115.583 300.865C114.87 298.036 114.95 295.073 115.816 292.285V292.285Z" fill="url(#paint0_linear_833_2705)"/>
</g>
<defs>
<linearGradient id="paint0_linear_833_2705" x1="120.23" y1="299.541" x2="340.346" y2="243.058" gradientUnits="userSpaceOnUse">
<stop stop-color="#F5EB07"/>
<stop offset="1" stop-color="#F3C91A"/>
</linearGradient>
</defs>
</svg>
