<svg width="14" height="14" viewBox="0 0 14 14" fill="none" xmlns="http://www.w3.org/2000/svg">
<path d="M6.64134 5.58623L11.5913 0.63623L13.0053 2.05023L8.05534 7.00023L13.0053 11.9502L11.5913 13.3642L6.64134 8.41423L1.69134 13.3642L0.277344 11.9502L5.22734 7.00023L0.277344 2.05023L1.69134 0.63623L6.64134 5.58623Z" fill="white"/>
</svg>
