<svg width="40" height="41" viewBox="0 0 40 41" fill="none" xmlns="http://www.w3.org/2000/svg">
<path d="M39.375 21.1899C39.375 19.1218 37.6931 17.4399 35.625 17.4399C35.0238 17.4399 34.4794 17.6618 34.0475 18.0168C33.265 17.6456 32.4106 17.4399 31.5413 17.4399C29.9775 17.4399 28.5069 18.0493 27.4006 19.1549L27.1744 19.3812C26.9725 19.4412 26.7794 19.5212 26.5919 19.6118C25.9038 17.6237 24.0175 16.1899 21.7981 16.1899H18.8512C17.49 16.1899 16.2769 17.0031 15.7525 18.2399L14.8688 18.6818C14.1256 19.0537 13.5831 19.6874 13.315 20.4387C12.0669 19.3312 10.4425 18.6899 8.75 18.6899C4.95937 18.6899 1.875 21.7743 1.875 25.5649V29.7881C1.875 31.2631 2.34 32.6937 3.19375 33.8831C1.60625 35.1856 0.625 37.1537 0.625 39.3149V39.9399H39.375V39.3149C39.375 36.1481 37.2713 33.3906 34.235 32.5443L34.0563 32.0081C34.8156 31.5668 35.3806 30.8268 35.5612 29.9393H35.625C37.0037 29.9393 38.125 28.8181 38.125 27.4393C38.125 26.5962 37.7025 25.8524 37.0612 25.3993C38.45 24.5106 39.375 22.9581 39.375 21.1899ZM27.6519 20.5462L27.82 20.5043L28.2856 20.0387C29.155 19.1693 30.3112 18.6899 31.5413 18.6899C32.1456 18.6899 32.7437 18.8099 33.2994 19.0393C33.1906 19.3193 33.125 19.6218 33.125 19.9399C33.125 21.3187 34.2463 22.4399 35.625 22.4399V21.1899C34.9356 21.1899 34.375 20.6293 34.375 19.9399C34.375 19.2506 34.9356 18.6899 35.625 18.6899C37.0037 18.6899 38.125 19.8112 38.125 21.1899C38.125 23.2581 36.4431 24.9399 34.375 24.9399C32.3069 24.9399 30.625 23.2581 30.625 21.1899H29.375C29.375 21.6387 29.44 22.0712 29.5513 22.4856C28.2475 22.6756 27.1988 23.6606 26.9381 24.9399H26.875C26.875 24.4306 26.72 23.9574 26.4575 23.5618L26.7231 22.4987C26.8237 22.0968 26.875 21.6824 26.875 21.2668C26.875 21.1456 26.865 21.0274 26.8569 20.9081C27.1025 20.7493 27.3631 20.6187 27.6519 20.5462ZM28.265 32.5443C27.7281 32.6937 27.2206 32.9212 26.7362 33.1912C25.8388 31.8343 24.5512 30.7381 23.0006 30.0906L22.8063 29.5074C23.5656 29.0662 24.1306 28.3262 24.3112 27.4387H24.375C24.375 28.8174 25.4963 29.9387 26.875 29.9387H26.9381C27.1188 30.8256 27.6838 31.5662 28.4431 32.0074L28.265 32.5443ZM7.20187 36.1899H10.2975C9.98438 37.0706 9.4525 37.8656 8.74937 38.4974C8.0475 37.8656 7.515 37.0706 7.20187 36.1899ZM8.75 31.1899C7.02688 31.1899 5.625 29.7881 5.625 28.0649V25.6662C5.625 24.9031 6.03125 24.2143 6.67063 23.8399C7.565 24.9412 8.84875 25.6743 10.265 25.8768C11.1825 26.0081 11.875 26.8062 11.875 27.7331V28.0649C11.875 29.7881 10.4731 31.1899 8.75 31.1899ZM8.75 32.4399C9.23125 32.4399 9.6925 32.3587 10.1262 32.2149L10.625 33.2124V34.3149C10.625 34.5249 10.6112 34.7331 10.5881 34.9399H6.9125C6.88875 34.7331 6.875 34.5249 6.875 34.3149V33.2124L7.37375 32.2149C7.8075 32.3587 8.26875 32.4399 8.75 32.4399ZM11.875 34.3149V33.9081C12.1456 34.0093 12.4087 34.1274 12.6612 34.2681C12.155 35.3493 11.875 36.5437 11.875 37.7799V38.6899H10.2981C11.3025 37.4693 11.875 35.9193 11.875 34.3149ZM15.625 26.1899C14.9356 26.1899 14.375 25.6293 14.375 24.9399C14.375 24.2506 14.9356 23.6899 15.625 23.6899V26.1899ZM15.6881 27.4399C15.8687 28.3268 16.4338 29.0674 17.1931 29.5087L16.9988 30.0918C16.4762 30.3099 15.9869 30.5824 15.5288 30.8956C15.5875 30.5299 15.625 30.1612 15.625 29.7881V27.4399H15.6881ZM17.4769 31.2524L18.7019 31.8649L17.1656 32.7868L16.6737 31.6474C16.9306 31.4987 17.1994 31.3687 17.4769 31.2524ZM22.5231 31.2524C22.8006 31.3687 23.0694 31.4987 23.3262 31.6474L22.8344 32.7868L21.2981 31.8649L22.5231 31.2524ZM21.7356 30.2481L20 31.1162L18.2644 30.2487L18.3794 29.9031C18.5025 29.9174 18.6231 29.9399 18.75 29.9399H21.25C21.3769 29.9399 21.4975 29.9174 21.6206 29.9024L21.7356 30.2481ZM21.25 28.6899H18.75C17.7162 28.6899 16.875 27.8487 16.875 26.8149V23.0381C16.875 22.3637 17.4237 21.8149 18.0981 21.8149H21.9025C22.5763 21.8149 23.125 22.3637 23.125 23.0381V26.8149C23.125 27.8487 22.2838 28.6899 21.25 28.6899ZM13.125 37.7799C13.125 35.6737 14.0794 33.7106 15.6319 32.3868L16.5844 34.5931L20 32.5437L23.4156 34.5931L24.3681 32.3868C25.9206 33.7106 26.875 35.6737 26.875 37.7799V38.6899H13.125V37.7799ZM24.375 23.6899C25.0644 23.6899 25.625 24.2506 25.625 24.9399C25.625 25.6293 25.0644 26.1899 24.375 26.1899V23.6899ZM26.875 26.1899V28.6899C26.1856 28.6899 25.625 28.1293 25.625 27.4399C25.625 27.3068 25.6525 27.1793 25.6931 27.0549C26.0163 26.8524 26.2881 26.5812 26.4906 26.2574C26.6144 26.2174 26.7419 26.1899 26.875 26.1899ZM15.4281 19.7999L16.7612 19.1331L16.8431 18.8874C17.1319 18.0218 17.9388 17.4399 18.8512 17.4399H21.7981C23.9081 17.4399 25.625 19.1568 25.625 21.2668C25.625 21.5799 25.5863 21.8918 25.5106 22.1949L25.3938 22.6618C25.0819 22.5218 24.7388 22.4399 24.375 22.4399H24.2937C24.0244 21.3662 23.0588 20.5649 21.9025 20.5649H18.0981C16.9419 20.5649 15.9756 21.3662 15.7069 22.4399H15.625C15.2612 22.4399 14.9181 22.5218 14.6063 22.6624L14.4319 21.9649C14.3944 21.8149 14.375 21.6593 14.375 21.5031C14.375 20.7774 14.7787 20.1243 15.4281 19.7999ZM3.125 29.7881V25.5649C3.125 22.4637 5.64875 19.9399 8.75 19.9399C10.5081 19.9399 12.1175 20.7368 13.1925 22.1231C13.2025 22.1712 13.2075 22.2206 13.2194 22.2681L13.5425 23.5612C13.28 23.9574 13.125 24.4306 13.125 24.9399C13.125 25.8612 13.6313 26.6587 14.375 27.0924V29.7887C14.375 30.8599 14.0775 31.9087 13.5156 32.8212L13.5244 32.8268C13.4381 32.9431 13.3519 33.0593 13.2719 33.1799C12.7713 32.9006 12.2394 32.6818 11.6813 32.5306L11.2437 31.6556C12.3794 30.8637 13.125 29.5506 13.125 28.0649V27.7331C13.125 26.1881 11.9719 24.8581 10.4425 24.6393C9.20187 24.4618 8.09188 23.7624 7.39563 22.7181L7.13063 22.3206L6.6775 22.4718C5.3 22.9312 4.375 24.2149 4.375 25.6662V28.0649C4.375 29.5506 5.12063 30.8637 6.25625 31.6549L5.81875 32.5299C5.2525 32.6831 4.71937 32.9031 4.22437 33.1787C3.5125 32.1962 3.125 31.0106 3.125 29.7881ZM5.625 33.9181V34.3149C5.625 35.9193 6.1975 37.4693 7.20187 38.6899H1.90875C2.14187 36.5212 3.585 34.6831 5.625 33.9181ZM38.0912 38.6899H28.125V37.7799C28.125 36.5493 27.8469 35.3593 27.345 34.2824C27.7331 34.0662 28.1419 33.8918 28.5706 33.7699L28.6744 33.8737C29.3619 34.5612 30.2769 34.9399 31.25 34.9399C32.2231 34.9399 33.1381 34.5612 33.8256 33.8731L33.9294 33.7693C36.205 34.4187 37.8412 36.3662 38.0912 38.6899ZM33.035 32.8962L32.9419 32.9893C32.0381 33.8931 30.4619 33.8931 29.5581 32.9893L29.465 32.8962L29.6294 32.4024C29.7525 32.4174 29.8731 32.4399 30 32.4399H32.5C32.6269 32.4399 32.7475 32.4174 32.8706 32.4024L33.035 32.8962ZM34.375 29.3149C34.375 30.3487 33.5337 31.1899 32.5 31.1899H30C28.9662 31.1899 28.125 30.3487 28.125 29.3149V25.5649C28.125 24.5312 28.9662 23.6899 30 23.6899H30.0513C30.9175 25.1818 32.5287 26.1899 34.375 26.1899V29.3149ZM35.625 28.6899V26.1899C36.3144 26.1899 36.875 26.7506 36.875 27.4399C36.875 28.1293 36.3144 28.6899 35.625 28.6899Z" fill="#D42C70"/>
<path d="M34.1331 7.43994C31.2956 5.14619 27.9375 3.57994 24.375 2.87619V1.18994H15.625V2.87932C11.4156 3.70869 7.56812 5.70494 4.45 8.68994H0.625V17.4399H9.375V8.68994H6.30687C8.99562 6.41807 12.1812 4.87619 15.625 4.15619V9.93994H24.375V4.15244C27.1187 4.72744 29.7269 5.84744 32.0394 7.43994H30.625V16.1899H39.375V7.43994H34.1331ZM1.875 16.1899V9.93994H7.3725L4.34438 13.4006L3.56687 12.6231L2.68313 13.5068L4.40562 15.2293L8.125 10.9781V16.1899H1.875ZM16.875 8.68994V2.43994H22.3725L19.3444 5.90057L18.5669 5.12307L17.6831 6.00682L19.4056 7.72932L23.125 3.47807V8.68994H16.875ZM31.875 14.9399V8.68994H37.3725L34.3444 12.1506L33.5669 11.3731L32.6831 12.2568L34.4056 13.9793L38.125 9.72807V14.9399H31.875Z" fill="#D42C70"/>
<path d="M19.375 12.4399H20.625V13.6899H19.375V12.4399Z" fill="#D42C70"/>
<path d="M21.875 12.4399H23.125V13.6899H21.875V12.4399Z" fill="#D42C70"/>
<path d="M16.875 12.4399H18.125V13.6899H16.875V12.4399Z" fill="#D42C70"/>
</svg>
