<svg width="40" height="41" viewBox="0 0 40 41" fill="none" xmlns="http://www.w3.org/2000/svg">
<path d="M33.3333 3.86499C34.2533 3.86499 35 4.61166 35 5.53166V11.7933L31.6667 15.1267V7.19832H8.33333V33.865H31.6667V29.2683L35 25.935V35.5317C35 36.4517 34.2533 37.1983 33.3333 37.1983H6.66667C5.74667 37.1983 5 36.4517 5 35.5317V5.53166C5 4.61166 5.74667 3.86499 6.66667 3.86499H33.3333ZM36.2967 15.2117L38.6533 17.5683L25.69 30.5317L23.33 30.5283L23.3333 28.175L36.2967 15.2117ZM21.6667 20.5317V23.865H13.3333V20.5317H21.6667ZM26.6667 13.865V17.1983H13.3333V13.865H26.6667Z" fill="#F26A21"/>
</svg>
