<svg width="40" height="41" viewBox="0 0 40 41" fill="none" xmlns="http://www.w3.org/2000/svg">
<path d="M19.9218 13.1125C21.103 13.1125 22.2351 12.5172 23.1093 11.4367C23.9077 10.45 24.3655 9.20547 24.3655 8.0211C24.3655 5.63516 22.4554 3.83594 19.9218 3.83594C17.3882 3.83594 15.478 5.63281 15.478 8.0211C15.478 9.20547 15.9358 10.45 16.7343 11.4367C17.6085 12.518 18.7405 13.1125 19.9218 13.1125ZM19.9218 5.125C21.7499 5.125 23.0765 6.34297 23.0765 8.0211C23.0765 10.1305 21.3507 11.8234 19.9218 11.8234C18.1741 11.8234 16.7671 9.74297 16.7671 8.0211C16.7671 6.34609 18.0937 5.125 19.9218 5.125Z" fill="#9ECC3B"/>
<path d="M14.6634 19.2985L14.2111 25.7508C14.2051 25.8352 14.2159 25.92 14.2427 26.0003C14.2695 26.0806 14.3118 26.1548 14.3673 26.2187C14.4228 26.2827 14.4904 26.335 14.5661 26.3728C14.6419 26.4106 14.7243 26.4331 14.8087 26.4391H14.854C15.0171 26.4389 15.174 26.377 15.2933 26.2659C15.4126 26.1547 15.4854 26.0025 15.497 25.8399L15.9494 19.393C15.9553 19.3086 15.9446 19.2238 15.9178 19.1435C15.8909 19.0632 15.8486 18.989 15.7931 18.9251C15.7376 18.8612 15.67 18.8088 15.5943 18.771C15.5186 18.7332 15.4361 18.7107 15.3517 18.7047C15.2673 18.6988 15.1825 18.7095 15.1022 18.7363C15.0219 18.7631 14.9477 18.8055 14.8838 18.861C14.8199 18.9165 14.7675 18.984 14.7297 19.0598C14.6919 19.1355 14.6694 19.2179 14.6634 19.3024V19.2985Z" fill="#9ECC3B"/>
<path d="M28.6634 26.4384C28.8382 26.4229 28.9998 26.3387 29.1127 26.2043C29.2256 26.0699 29.2807 25.8961 29.2657 25.7212C29.2657 25.7212 28.5844 20.8361 28.4844 19.197C28.2993 16.254 26.5016 13.8931 23.693 13.4634C22.7055 13.3119 20.9118 13.1978 19.9743 13.197C18.6945 13.2192 17.4168 13.3076 16.1462 13.4619C14.8289 13.6422 13.6224 14.2963 12.7524 15.3017C11.8384 16.3572 11.4298 17.7064 11.3462 19.2001C11.2524 20.8408 10.6313 25.7283 10.6313 25.7283C10.6209 25.813 10.6273 25.899 10.6504 25.9812C10.6734 26.0634 10.7125 26.1402 10.7655 26.2071C10.8185 26.2741 10.8842 26.3299 10.9589 26.3712C11.0336 26.4125 11.1158 26.4386 11.2007 26.4479C11.2855 26.4572 11.3714 26.4496 11.4533 26.4255C11.5352 26.4013 11.6115 26.3611 11.6777 26.3073C11.7439 26.2534 11.7988 26.1869 11.8391 26.1116C11.8794 26.0364 11.9044 25.9539 11.9126 25.8689C11.9126 25.8689 12.543 20.9283 12.6329 19.2712C12.761 16.9228 14.1509 15.0353 16.3219 14.74C17.5337 14.5928 18.7523 14.5083 19.9727 14.4869C20.8462 14.4869 22.5798 14.5978 23.4969 14.7384C24.5054 14.8911 25.4274 15.3952 26.1001 16.1619C26.8157 16.9837 27.1259 18.0876 27.1938 19.2751C27.293 20.9345 27.9852 25.8759 27.9852 25.8759C28.0103 26.0362 28.093 26.1818 28.2179 26.2854C28.3428 26.389 28.5012 26.4434 28.6634 26.4384Z" fill="#9ECC3B"/>
<path d="M24.4734 18.7009C24.3885 18.7067 24.3056 18.7293 24.2295 18.7673C24.1535 18.8053 24.0856 18.858 24.03 18.9224C23.9744 18.9867 23.932 19.0614 23.9054 19.1422C23.8788 19.223 23.8684 19.3083 23.8749 19.3931L24.3281 25.8446C24.3393 26.0073 24.4119 26.1597 24.531 26.2711C24.6502 26.3824 24.8071 26.4444 24.9702 26.4446H25.0163C25.1868 26.4324 25.3454 26.3531 25.4575 26.2241C25.5695 26.095 25.6258 25.9268 25.614 25.7564L25.1609 19.304C25.1554 19.2192 25.1333 19.1364 25.0958 19.0602C25.0582 18.984 25.006 18.9159 24.9422 18.8599C24.8783 18.8038 24.8041 18.761 24.7236 18.7337C24.6432 18.7064 24.5581 18.6953 24.4734 18.7009Z" fill="#9ECC3B"/>
<path d="M24.0342 32.2744L27.1342 29.2525C27.2203 29.1686 27.2811 29.0622 27.3099 28.9455C27.3387 28.8288 27.3343 28.7063 27.2972 28.592C27.2601 28.4776 27.1917 28.3759 27.0998 28.2984C27.0079 28.2209 26.8961 28.1706 26.7772 28.1533L22.4936 27.5283L20.5779 23.6494C20.5247 23.5415 20.4424 23.4506 20.3402 23.387C20.2381 23.3235 20.1201 23.2898 19.9998 23.2898C19.8795 23.2898 19.7616 23.3235 19.6594 23.387C19.5572 23.4506 19.4749 23.5415 19.4217 23.6494L17.5061 27.5306L13.2225 28.1556C13.1035 28.173 12.9917 28.2232 12.8998 28.3008C12.8079 28.3783 12.7396 28.48 12.7024 28.5943C12.6653 28.7087 12.6609 28.8311 12.6897 28.9478C12.7185 29.0646 12.7794 29.1709 12.8654 29.2549L15.9654 32.2767L15.2342 36.54C15.2135 36.6589 15.2266 36.7812 15.2719 36.893C15.3173 37.0048 15.3932 37.1016 15.4908 37.1724C15.5885 37.2432 15.7041 37.2852 15.8245 37.2936C15.9448 37.3019 16.0651 37.2763 16.1717 37.2197L19.9998 35.2056L23.8279 37.2197C23.9205 37.2682 24.0234 37.2936 24.1279 37.2939C24.2218 37.2938 24.3145 37.2732 24.3996 37.2335C24.4846 37.1939 24.56 37.1362 24.6205 37.0644C24.681 36.9926 24.7251 36.9085 24.7497 36.8179C24.7743 36.7274 24.7789 36.6325 24.7631 36.54L24.0342 32.2744ZM19.6998 33.9072C18.9514 34.2884 16.7248 35.4697 16.7248 35.4697L17.2928 32.1564C17.3104 32.0535 17.3028 31.9478 17.2706 31.8484C17.2383 31.7491 17.1824 31.659 17.1076 31.5861L14.7006 29.2424L18.0271 28.7588C18.1305 28.7437 18.2286 28.7037 18.3131 28.6424C18.3976 28.581 18.466 28.5 18.5123 28.4064L19.9967 25.3916L21.4811 28.4064C21.5274 28.5 21.5957 28.581 21.6802 28.6424C21.7647 28.7037 21.8629 28.7437 21.9662 28.7588L25.2928 29.2424L22.8857 31.5861C22.811 31.659 22.7551 31.7491 22.7228 31.8484C22.6906 31.9478 22.6829 32.0535 22.7006 32.1564L23.2686 35.4697C23.2686 35.4697 21.042 34.2869 20.2936 33.9072C20.2023 33.858 20.1003 33.8322 19.9967 33.8322C19.893 33.8322 19.791 33.858 19.6998 33.9072Z" fill="#9ECC3B"/>
<path d="M37.7053 30.1127L34.5732 29.6572L33.1725 26.8197C33.1194 26.7118 33.0371 26.6209 32.935 26.5573C32.8329 26.4937 32.715 26.46 32.5947 26.46C32.4744 26.46 32.3565 26.4937 32.2544 26.5573C32.1523 26.6209 32.0701 26.7118 32.017 26.8197L30.6162 29.6572L27.4842 30.1127C27.3652 30.1301 27.2535 30.1803 27.1616 30.2578C27.0697 30.3354 27.0013 30.437 26.9641 30.5514C26.927 30.6657 26.9226 30.7882 26.9514 30.9049C26.9802 31.0216 27.0411 31.128 27.1271 31.2119L29.3928 33.4213L28.8576 36.5401C28.8369 36.6589 28.85 36.7812 28.8954 36.893C28.9407 37.0048 29.0166 37.1016 29.1143 37.1724C29.212 37.2433 29.3276 37.2852 29.4479 37.2936C29.5683 37.302 29.6886 37.2764 29.7951 37.2197L32.5959 35.7471L35.3975 37.2197C35.49 37.2682 35.5929 37.2937 35.6975 37.294C35.7913 37.2938 35.884 37.2732 35.9691 37.2336C36.0541 37.1939 36.1295 37.1362 36.19 37.0644C36.2505 36.9927 36.2946 36.9085 36.3192 36.818C36.3438 36.7274 36.3484 36.6326 36.3326 36.5401L35.7975 33.4213L38.0631 31.2119C38.1492 31.128 38.21 31.0216 38.2388 30.9049C38.2676 30.7882 38.2632 30.6657 38.2261 30.5514C38.1889 30.437 38.1206 30.3354 38.0287 30.2578C37.9368 30.1803 37.825 30.1301 37.7061 30.1127H37.7053ZM32.2951 34.4486C31.8037 34.6955 30.349 35.4713 30.349 35.4713L30.7209 33.3049C30.7386 33.202 30.7309 33.0963 30.6987 32.9969C30.6664 32.8976 30.6105 32.8075 30.5357 32.7346L28.9615 31.2002L31.1365 30.8877C31.24 30.8727 31.3383 30.8328 31.4228 30.7712C31.5074 30.7097 31.5756 30.6285 31.6217 30.5346L32.5943 28.5643L33.567 30.5346C33.6133 30.6284 33.6818 30.7095 33.7664 30.7711C33.8511 30.8326 33.9494 30.8726 34.0529 30.8877L36.2271 31.2002L34.6537 32.7346C34.5788 32.8075 34.5228 32.8975 34.4906 32.9968C34.4583 33.0962 34.4508 33.2019 34.4686 33.3049L34.8435 35.4713C34.8435 35.4713 33.3896 34.6955 32.8982 34.4486C32.8056 34.3987 32.7019 34.3726 32.5967 34.3726C32.4914 34.3726 32.3878 34.3987 32.2951 34.4486Z" fill="#9ECC3B"/>
<path d="M12.5158 30.1127L9.38379 29.6572L7.983 26.8197C7.92994 26.7118 7.84769 26.6209 7.74557 26.5573C7.64346 26.4937 7.52557 26.46 7.40527 26.46C7.28497 26.46 7.16708 26.4937 7.06497 26.5573C6.96285 26.6209 6.8806 26.7118 6.82754 26.8197L5.42675 29.6572L2.29472 30.1127C2.17575 30.1301 2.06401 30.1803 1.97211 30.2578C1.88021 30.3354 1.81183 30.437 1.77469 30.5514C1.73755 30.6657 1.73313 30.7882 1.76194 30.9049C1.79074 31.0216 1.85162 31.128 1.93769 31.2119L4.20332 33.4213L3.67207 36.5401C3.65137 36.6589 3.66445 36.7812 3.70982 36.893C3.7552 37.0048 3.83104 37.1016 3.92872 37.1724C4.02641 37.2433 4.14201 37.2852 4.26237 37.2936C4.38273 37.302 4.50303 37.2764 4.60957 37.2197L7.41113 35.7471L10.2119 37.2197C10.3045 37.2682 10.4074 37.2937 10.5119 37.294C10.6058 37.2938 10.6985 37.2732 10.7835 37.2336C10.8686 37.1939 10.944 37.1362 11.0045 37.0644C11.0649 36.9927 11.109 36.9085 11.1337 36.818C11.1583 36.7274 11.1629 36.6326 11.1471 36.5401L10.6119 33.4213L12.8775 31.2119C12.9636 31.128 13.0245 31.0216 13.0533 30.9049C13.0821 30.7882 13.0777 30.6657 13.0405 30.5514C13.0034 30.437 12.935 30.3354 12.8431 30.2578C12.7512 30.1803 12.6395 30.1301 12.5205 30.1127H12.5158ZM7.10957 34.4486L5.16035 35.4713L5.53144 33.3049C5.54924 33.2019 5.54168 33.0962 5.50942 32.9968C5.47715 32.8975 5.42116 32.8075 5.34628 32.7346L3.77285 31.2002L5.94707 30.8877C6.0506 30.8726 6.14892 30.8326 6.23357 30.7711C6.31821 30.7095 6.38665 30.6284 6.433 30.5346L7.40566 28.5643L8.37832 30.5346C8.42438 30.6285 8.49263 30.7097 8.57717 30.7712C8.66172 30.8328 8.75999 30.8727 8.86347 30.8877L11.0385 31.2002L9.46425 32.7346C9.38949 32.8075 9.33357 32.8976 9.30132 32.9969C9.26906 33.0963 9.26144 33.202 9.2791 33.3049L9.65097 35.4713L7.70488 34.4486C7.61528 34.3938 7.51227 34.3648 7.40722 34.3648C7.30218 34.3648 7.19917 34.3938 7.10957 34.4486Z" fill="#9ECC3B"/>
</svg>
