<svg width="39" height="38" viewBox="0 0 39 38" fill="none" xmlns="http://www.w3.org/2000/svg">
<path d="M37.8697 18.9998C37.8697 8.90426 29.6857 0.720215 19.5901 0.720215C9.49459 0.720215 1.31055 8.90426 1.31055 18.9998C1.31055 29.0953 9.49459 37.2794 19.5901 37.2794C29.6857 37.2794 37.8697 29.0953 37.8697 18.9998Z" stroke="#222221" stroke-width="1.5" stroke-miterlimit="10"/>
<path d="M16.8044 30.0461H21.2519V18.9036H24.3545L24.6907 15.1766H21.2519V13.0537C21.2519 12.17 21.4248 11.8242 22.2797 11.8242H24.6907V7.98193H21.6073C18.3029 7.98193 16.8044 9.44198 16.8044 12.2276V15.1573H14.4895V18.9996H16.8044V30.0461Z" fill="#222221"/>
</svg>
