<svg width="40" height="41" viewBox="0 0 40 41" fill="none" xmlns="http://www.w3.org/2000/svg">
<path d="M36.6437 5.10854C32.0231 0.46184 24.3974 0.692829 19.9981 5.5229C15.5985 0.693 7.9731 0.461755 3.35247 5.10863C-1.24234 9.68446 -1.08581 17.2195 3.64843 21.6359C1.22638 23.9492 2.61394 28.1059 5.91061 28.5111C5.71314 30.7685 7.63448 32.8386 9.90718 32.8002C10.0465 35.2853 12.5407 37.0641 14.932 36.4074C15.7165 39.368 19.4878 40.3797 21.6514 38.2007C22.8802 36.9792 23.8574 36.209 23.9198 34.359C25.9502 34.3024 27.707 32.5218 27.7379 30.4926C29.7878 30.4609 31.5738 28.6743 31.6054 26.625C33.732 26.5927 35.5759 24.6733 35.4769 22.5065L36.6435 21.34C41.1187 16.8649 41.1187 9.58349 36.6437 5.10854ZM5.40752 23.5038L6.5033 22.408C6.78652 22.1248 7.15839 21.9832 7.53044 21.9832C8.80609 21.9747 9.47196 23.5519 8.55741 24.4621L7.46162 25.5579C6.0432 26.8637 4.10152 24.9228 5.40752 23.5038ZM8.46294 28.7852C8.46294 28.3972 8.61408 28.0324 8.88842 27.7581L9.9848 26.6618C10.259 26.3878 10.6236 26.2369 11.0113 26.2369C12.2978 26.2347 12.9499 27.8082 12.0383 28.7165L11.0714 29.6833C10.7759 30.0183 10.3699 30.2449 9.91538 30.2376C9.13479 30.2537 8.44678 29.566 8.46294 28.7852ZM12.8849 33.5508C12.3214 33.0102 12.3214 32.0374 12.8849 31.4968L13.8518 30.5298C14.4155 29.8606 15.4051 29.7735 16.0349 30.4009C16.6011 30.9673 16.6011 31.8886 16.0349 32.455L14.939 33.5509C14.3727 34.1174 13.4513 34.1174 12.8849 33.5508ZM20.9338 35.2914L19.8381 36.3872C19.5637 36.6616 19.199 36.8127 18.811 36.8127C18.423 36.8127 18.0582 36.6616 17.7839 36.3872C17.2205 35.8465 17.2202 34.8737 17.784 34.3331L18.8797 33.2373C19.4459 32.671 20.3675 32.671 20.9338 33.2373C21.4973 33.778 21.4974 34.7507 20.9338 35.2914ZM32.4883 23.6403C31.9476 24.2037 30.9748 24.2038 30.4342 23.6403L24.7273 17.9334L22.9138 19.7468L28.6208 25.4537C29.187 26.0201 29.187 26.9415 28.6208 27.5078C28.0544 28.0744 27.133 28.0742 26.5666 27.5078L20.9565 21.8977L20.8597 21.8009L19.0463 23.6144L19.143 23.7112L24.7532 29.3213C25.3195 29.8877 25.3195 30.8091 24.7532 31.3755C24.1868 31.9419 23.2654 31.9419 22.699 31.3755L22.6979 31.3766C21.6559 30.3692 20.1996 30.0375 18.8843 30.3815C18.4655 28.6706 16.7456 27.3753 15.016 27.413C14.9322 25.5714 13.3753 23.9078 11.5354 23.709C11.7782 20.5494 8.30804 18.3735 5.56952 19.9299C1.75555 16.5231 1.52063 10.5424 5.1661 6.922C8.79062 3.27209 14.7794 3.51393 18.1848 7.33636L15.0144 10.5068L17.5548 13.0472C19.5063 14.9988 22.5134 15.2673 24.7555 13.853L32.4886 21.5862C33.0546 22.1525 33.0546 23.0739 32.4883 23.6403ZM34.8303 19.5265L34.4395 19.9172C34.395 19.8681 34.349 19.8199 34.3019 19.7727L24.8563 10.3271L23.9495 11.2338C22.6865 12.4968 20.6314 12.4969 19.3681 11.2338L18.6411 10.5068L22.2259 6.922C30.9338 -1.09276 42.8433 10.8243 34.8303 19.5265Z" fill="#F26A21"/>
</svg>
