<svg width="327" height="494" viewBox="0 0 327 494" fill="none" xmlns="http://www.w3.org/2000/svg">
<mask id="mask0_536_3203" style="mask-type:alpha" maskUnits="userSpaceOnUse" x="0" y="0" width="327" height="494">
<rect width="327" height="494" fill="#C4C4C4"/>
</mask>
<g mask="url(#mask0_536_3203)">
<path d="M237.742 312.872C242.754 310.336 248.298 309.029 253.915 309.062C259.532 309.095 265.061 310.465 270.043 313.06L313.749 339.155C318.424 342.286 322.294 346.478 325.043 351.387C327.792 356.297 329.343 361.787 329.57 367.409L328.689 418.523C328.284 424.141 326.575 429.587 323.699 434.429C320.822 439.271 316.857 443.377 312.118 446.42L268.45 471.445C263.414 473.937 257.862 475.206 252.244 475.15C246.626 475.093 241.1 473.713 236.115 471.121L192.023 445.028C187.346 441.881 183.463 437.693 180.677 432.793C177.89 427.894 176.277 422.415 175.964 416.787L176.094 367.458C176.39 361.806 178.009 356.303 180.82 351.391C183.631 346.48 187.555 342.296 192.278 339.178L237.742 312.872Z" fill="#F7F7F7"/>
<path d="M323.307 168.495C328.32 165.962 333.863 164.658 339.48 164.691C345.096 164.724 350.624 166.092 355.607 168.683L399.256 194.551C403.931 197.683 407.8 201.874 410.55 206.784C413.299 211.693 414.85 217.183 415.076 222.806L414.299 274.135C413.888 279.756 412.178 285.205 409.305 290.053C406.431 294.901 402.472 299.017 397.739 302.077L353.957 326.842C348.916 329.343 343.356 330.618 337.729 330.564C332.102 330.509 326.568 329.127 321.576 326.529L277.529 300.425C272.853 297.278 268.969 293.09 266.183 288.19C263.397 283.29 261.784 277.811 261.471 272.183L261.555 222.866C261.859 217.216 263.48 211.716 266.291 206.805C269.101 201.894 273.022 197.71 277.739 194.586L323.307 168.495Z" fill="#F7F7F7"/>
<path d="M328.581 76.0387C328.381 70.4285 326.856 64.9453 324.132 60.0367C321.409 55.1281 317.562 50.9334 312.908 47.795L269.26 21.9265C264.261 19.3504 258.729 17.9805 253.106 17.9262C247.484 17.872 241.926 19.1348 236.879 21.6139L192.238 46.9851C187.492 50.0312 183.523 54.1438 180.648 58.995C177.773 63.8461 176.071 69.3017 175.678 74.9271L174.963 125.178C175.182 130.802 176.729 136.295 179.479 141.206C182.229 146.116 186.103 150.307 190.783 153.432L234.83 179.537C239.832 182.142 245.371 183.546 251.01 183.638C256.648 183.729 262.231 182.506 267.314 180.065L310.581 156.493C315.406 153.531 319.464 149.472 322.425 144.646C325.385 139.82 327.165 134.363 327.618 128.719L328.581 76.0387Z" fill="#F7F7F7"/>
<path d="M500.078 76.0387C499.878 70.4285 498.353 64.9453 495.63 60.0367C492.906 55.1281 489.06 50.9334 484.405 47.795L440.757 21.9265C435.758 19.3504 430.226 17.9805 424.604 17.9262C418.981 17.872 413.423 19.1348 408.376 21.6139L363.735 46.9851C358.989 50.0312 355.021 54.1438 352.146 58.995C349.27 63.8461 347.568 69.3017 347.175 74.9271L346.46 125.178C346.679 130.802 348.227 136.295 350.976 141.206C353.726 146.116 357.6 150.307 362.28 153.432L406.327 179.537C411.329 182.142 416.868 183.546 422.507 183.638C428.145 183.729 433.728 182.506 438.811 180.065L482.078 156.493C486.903 153.531 490.961 149.472 493.922 144.646C496.882 139.82 498.662 134.363 499.116 128.719L500.078 76.0387Z" fill="#F7F7F7"/>
<path d="M496.765 370.039C496.564 364.429 495.04 358.945 492.316 354.037C489.592 349.128 485.746 344.933 481.092 341.795L437.443 315.927C432.445 313.35 426.913 311.98 421.29 311.926C415.667 311.872 410.11 313.135 405.063 315.614L360.421 340.985C355.675 344.031 351.707 348.144 348.832 352.995C345.957 357.846 344.255 363.302 343.861 368.927L343.146 419.178C343.365 424.802 344.913 430.295 347.663 435.206C350.413 440.116 354.286 444.307 358.967 447.432L403.014 473.537C408.015 476.142 413.555 477.546 419.193 477.638C424.832 477.729 430.414 476.506 435.498 474.065L478.765 450.493C483.59 447.531 487.648 443.472 490.608 438.646C493.569 433.82 495.348 428.363 495.802 422.719L496.765 370.039Z" fill="#F7F7F7"/>
<path d="M150.908 166.286C155.915 163.745 161.455 162.432 167.069 162.457C172.684 162.482 178.213 163.843 183.197 166.429L226.914 192.377C231.576 195.508 235.434 199.696 238.173 204.6C240.913 209.504 242.456 214.985 242.677 220.597L241.9 271.926C241.507 277.552 239.805 283.007 236.929 287.859C234.054 292.71 230.086 296.822 225.34 299.868L181.615 324.667C176.57 327.153 171.011 328.421 165.387 328.366C159.763 328.312 154.23 326.938 149.234 324.355L105.13 298.216C100.456 295.068 96.5763 290.878 93.7974 285.975C91.0185 281.072 89.4163 275.591 89.117 269.963L89.2016 220.646C89.5245 215.025 91.1622 209.558 93.9832 204.686C96.8041 199.813 100.729 195.671 105.443 192.592L150.908 166.286Z" fill="url(#paint0_linear_536_3203)"/>
<path d="M134.135 338.609C132.199 337.629 130.058 337.125 127.889 337.138C125.72 337.15 123.585 337.679 121.661 338.681L104.804 348.672C102.999 349.881 101.504 351.499 100.442 353.396C99.3807 355.292 98.7818 357.412 98.6943 359.583L98.9944 379.406C99.1533 381.577 99.8135 383.681 100.923 385.553C102.033 387.426 103.562 389.015 105.39 390.197L122.281 399.757C124.227 400.725 126.374 401.219 128.548 401.198C130.721 401.177 132.859 400.642 134.786 399.636L151.814 389.559C153.617 388.341 155.115 386.723 156.19 384.831C157.266 382.939 157.891 380.825 158.016 378.652L157.965 359.602C157.851 357.419 157.226 355.294 156.14 353.397C155.055 351.5 153.539 349.885 151.715 348.68L134.135 338.609Z" fill="#F6F6F6"/>
</g>
<defs>
<linearGradient id="paint0_linear_536_3203" x1="244.802" y1="225.317" x2="87.1422" y2="265.64" gradientUnits="userSpaceOnUse">
<stop stop-color="#9ECC3B"/>
<stop offset="1" stop-color="#009155"/>
</linearGradient>
</defs>
</svg>
