<svg width="40" height="41" viewBox="0 0 40 41" fill="none" xmlns="http://www.w3.org/2000/svg">
<g clip-path="url(#clip0_112_1215)">
<path d="M36.4371 7.47206C30.9336 5.96409 25.3977 3.61605 20.428 0.681836C20.164 0.525977 19.8364 0.525977 19.5725 0.681836C14.4594 3.70035 9.22266 5.92136 3.56291 7.47206C3.19728 7.57213 2.94385 7.90448 2.94385 8.28362V16.8809C2.94385 25.7343 7.02814 31.5946 10.4545 34.9517C14.1433 38.5661 18.4401 40.565 20.0002 40.565C21.5601 40.565 25.857 38.5661 29.5457 34.9517C32.9721 31.5947 37.0561 25.7344 37.0561 16.8809V8.28354C37.0561 7.90448 36.8027 7.57213 36.4371 7.47206ZM35.3733 16.8809C35.3733 25.1498 31.5639 30.6182 28.3679 33.7496C24.7405 37.3039 20.8622 38.882 20.0002 38.882C19.1383 38.882 15.2597 37.3039 11.6322 33.7496C8.43634 30.6181 4.62674 25.1498 4.62674 16.8809V8.92229C10.0391 7.38557 15.0795 5.24097 20.0004 2.38136C24.7983 5.16511 30.0903 7.41635 35.3733 8.92198V16.8809Z" fill="#D42C39"/>
<path d="M12.5419 8.82819C12.3716 8.39577 11.883 8.18335 11.4505 8.35374C9.94741 8.946 8.40461 9.49116 6.865 9.97413C6.51414 10.0843 6.27539 10.4093 6.27539 10.7769V14.0262C6.27539 14.4909 6.65219 14.8676 7.1168 14.8676C7.5814 14.8676 7.9582 14.4909 7.9582 14.0262V11.3919C9.33937 10.945 10.7191 10.4507 12.0674 9.91936C12.4998 9.74913 12.7123 9.26061 12.5419 8.82819Z" fill="#D42C39"/>
<path d="M14.1402 8.98786C14.2531 8.98786 14.3677 8.96513 14.4776 8.91716L14.4931 8.91044C14.9188 8.72388 15.1105 8.22833 14.9239 7.80278C14.7372 7.37708 14.2389 7.1845 13.8136 7.37091L13.8 7.37677C13.3741 7.56278 13.1818 8.05794 13.3678 8.48372C13.5058 8.79982 13.8156 8.98786 14.1402 8.98786Z" fill="#D42C39"/>
<path d="M30.0252 27.6964C29.6364 27.4423 29.115 27.5516 28.8605 27.9406C28.1671 29.0018 27.3537 30.0181 26.4425 30.9608C25.6931 31.736 24.8811 32.4585 24.0289 33.1081C23.6595 33.3898 23.5884 33.9178 23.87 34.2874C24.0357 34.5045 24.2863 34.6187 24.5397 34.6187C24.7177 34.6187 24.897 34.5625 25.0493 34.4463C25.9685 33.7454 26.8443 32.9663 27.6522 32.1305C28.6375 31.1114 29.5179 30.0114 30.2693 28.861C30.5236 28.472 30.4142 27.9506 30.0252 27.6964Z" fill="#D42C39"/>
<path d="M22.0748 34.4276L22.0265 34.4561C21.6244 34.689 21.487 35.2037 21.7198 35.6058C21.8758 35.8753 22.1582 36.0258 22.4487 36.0258C22.5917 36.0258 22.7369 35.9893 22.8694 35.9123L22.9251 35.8796C23.3261 35.6448 23.4608 35.1294 23.226 34.7284C22.991 34.3275 22.4755 34.193 22.0748 34.4276Z" fill="#D42C39"/>
<path d="M14.2646 18.8477C13.7479 18.331 13.0608 18.0467 12.33 18.0467C11.5993 18.0467 10.9121 18.3311 10.3952 18.8477C9.32856 19.9146 9.32856 21.6506 10.3952 22.7174L15.3636 27.6856C15.8803 28.2022 16.5674 28.4866 17.2983 28.4866C18.0292 28.4866 18.7163 28.2022 19.2331 27.6855L29.605 17.3135C30.6716 16.2463 30.6716 14.5106 29.6048 13.4442C29.0881 12.9274 28.401 12.6431 27.6701 12.6431C26.9392 12.6431 26.2521 12.9275 25.7353 13.4442L17.2982 21.8813L14.2646 18.8477ZM26.9253 14.6342C27.1241 14.4353 27.3888 14.3259 27.6702 14.3259C27.9517 14.3259 28.2161 14.4353 28.4151 14.6342C28.8256 15.0447 28.8256 15.713 28.4149 16.1237L18.0431 26.4956C17.8443 26.6944 17.5797 26.8038 17.2983 26.8038C17.0169 26.8038 16.7523 26.6944 16.5534 26.4956L11.5851 21.5274C11.1744 21.1167 11.1744 20.4484 11.585 20.0379C11.7839 19.8391 12.0485 19.7295 12.33 19.7295C12.6114 19.7295 12.8759 19.8389 13.0747 20.0377L16.7032 23.6663C16.8611 23.8241 17.075 23.9127 17.2982 23.9127C17.5214 23.9127 17.7353 23.8241 17.8931 23.6663L26.9253 14.6342Z" fill="#D42C39"/>
</g>
<defs>
<clipPath id="clip0_112_1215">
<rect width="40" height="40" fill="white" transform="translate(0 0.564941)"/>
</clipPath>
</defs>
</svg>
