<svg width="668" height="434" viewBox="0 0 668 434" fill="none" xmlns="http://www.w3.org/2000/svg">
<g opacity="0.3">
<mask id="mask0_107_13045" style="mask-type:alpha" maskUnits="userSpaceOnUse" x="0" y="0" width="668" height="434">
<path d="M0 10C0 4.47716 4.47715 0 10 0H658C663.523 0 668 4.47715 668 10V424C668 429.523 663.523 434 658 434H0V10Z" fill="#1D3142"/>
</mask>
<g mask="url(#mask0_107_13045)">
<path d="M252.387 381.597H359.243L372.577 82.2139L252.387 107.165V381.597Z" fill="#324C5E"/>
<path d="M543.288 400.815H599.825L577.796 287.602H543.288V400.815Z" fill="#324C5E"/>
<path d="M0.105469 405.223H1340.63V493H0.105469V405.223Z" fill="#4E7184"/>
<path d="M589.621 191.315V141.146H607.775V122.05H617.488V106.008H620.895V78.5H621.774V106.008H625.182V122.05H634.895V141.146H652.91V191.315H656.653V282.395H684.583V386.225H656.653H628.722H586.017V191.315H589.621Z" fill="#324C5E"/>
<path d="M485.293 248.945H573.162V250.542H569.182V399.114H489.267V250.542H485.293V248.945Z" fill="#324C5E"/>
<path d="M245.774 362.732H786.689V409.718H245.774V362.732Z" fill="#4E7184"/>
<path d="M288.966 232.667C290.594 232.667 292.164 233.279 293.363 234.381C294.562 235.484 295.303 236.997 295.439 238.62L303.052 238.377C303.052 237.63 303.052 236.884 303.052 236.132C303.04 226.809 304.654 217.555 307.819 208.786L301.456 206.443C300.785 207.995 299.536 209.224 297.974 209.869C296.412 210.514 294.659 210.524 293.089 209.897C291.52 209.27 290.257 208.055 289.568 206.512C288.88 204.968 288.822 203.216 289.405 201.63C289.988 200.043 291.167 198.747 292.691 198.016C294.215 197.285 295.964 197.178 297.566 197.717C299.168 198.256 300.497 199.398 301.27 200.901C302.042 202.404 302.198 204.15 301.704 205.766L308.068 208.08C311.74 198.264 317.309 189.267 324.457 181.602L319.476 176.939C318.259 178.09 316.641 178.72 314.967 178.697C313.292 178.673 311.693 177.998 310.508 176.814C309.324 175.629 308.648 174.03 308.624 172.356C308.601 170.681 309.231 169.063 310.381 167.846C311.532 166.629 313.111 165.908 314.785 165.837C316.458 165.766 318.093 166.351 319.342 167.466C320.591 168.582 321.356 170.141 321.474 171.811C321.592 173.482 321.054 175.133 319.974 176.413L324.949 181.076C325.464 180.532 325.984 180 326.511 179.467C333.912 172.046 342.698 166.149 352.37 162.112L349.634 155.448C348.015 155.969 346.256 155.839 344.732 155.084C343.208 154.329 342.039 153.009 341.472 151.405C340.906 149.802 340.988 148.04 341.7 146.496C342.412 144.951 343.699 143.746 345.286 143.135C346.874 142.524 348.637 142.557 350.201 143.226C351.764 143.895 353.005 145.148 353.66 146.718C354.314 148.288 354.33 150.051 353.705 151.633C353.079 153.214 351.862 154.49 350.311 155.187L353.024 161.863C361.665 158.367 370.851 156.409 380.167 156.078L379.872 146.967H379.664C377.986 146.96 376.376 146.303 375.173 145.133C373.97 143.964 373.267 142.373 373.213 140.696C373.159 139.019 373.758 137.386 374.883 136.142C376.009 134.897 377.573 134.138 379.247 134.023C380.922 133.909 382.575 134.449 383.859 135.528C385.143 136.608 385.959 138.144 386.133 139.813C386.308 141.482 385.828 143.154 384.795 144.476C383.762 145.798 382.257 146.668 380.595 146.903L380.89 156.049C381.637 156.049 382.383 156.02 383.129 156.02C392.079 156.008 400.969 157.494 409.428 160.417L412.031 153.001C410.535 152.388 409.321 151.24 408.625 149.781C407.929 148.322 407.801 146.656 408.265 145.108C408.73 143.559 409.754 142.239 411.139 141.405C412.523 140.57 414.169 140.281 415.755 140.593C417.341 140.905 418.755 141.796 419.72 143.093C420.685 144.39 421.133 145.999 420.977 147.608C420.82 149.217 420.071 150.71 418.874 151.797C417.677 152.884 416.118 153.486 414.502 153.487C413.897 153.488 413.295 153.402 412.714 153.232L410.093 160.672C420.315 164.332 429.681 170.041 437.619 177.448L442.368 172.381C441.228 171.135 440.619 169.494 440.67 167.806C440.721 166.118 441.429 164.516 442.642 163.342C443.856 162.167 445.48 161.513 447.168 161.517C448.857 161.521 450.478 162.184 451.685 163.365C452.893 164.545 453.592 166.15 453.635 167.838C453.678 169.526 453.06 171.165 451.913 172.405C450.767 173.645 449.182 174.388 447.496 174.478C445.809 174.567 444.154 173.996 442.883 172.884L438.145 177.946C438.683 178.461 439.221 178.981 439.753 179.508C446.356 186.097 451.759 193.786 455.72 202.232L461.783 199.432C461.249 197.831 461.361 196.085 462.095 194.566C462.828 193.047 464.125 191.873 465.71 191.295C467.295 190.717 469.043 190.78 470.582 191.471C472.122 192.162 473.331 193.426 473.953 194.994C474.575 196.562 474.56 198.311 473.913 199.869C473.265 201.427 472.035 202.671 470.485 203.336C468.935 204.002 467.186 204.036 465.61 203.432C464.035 202.828 462.757 201.634 462.049 200.103L456.05 202.874C460.392 212.407 462.816 222.701 463.183 233.17L470.929 232.921C471.023 231.238 471.769 229.658 473.009 228.516C474.25 227.375 475.887 226.762 477.572 226.809C479.257 226.856 480.858 227.558 482.033 228.766C483.209 229.975 483.866 231.594 483.866 233.28C483.866 234.966 483.209 236.585 482.033 237.794C480.858 239.002 479.257 239.704 477.572 239.751C475.887 239.798 474.25 239.185 473.009 238.044C471.769 236.902 471.023 235.322 470.929 233.639L463.183 233.893C463.206 234.638 463.218 235.384 463.218 236.132C463.23 245.458 461.615 254.714 458.445 263.484L464.809 265.798C465.449 264.323 466.615 263.138 468.079 262.472C469.543 261.807 471.202 261.708 472.735 262.195C474.268 262.682 475.565 263.721 476.377 265.109C477.188 266.498 477.455 268.138 477.127 269.713C476.799 271.287 475.898 272.684 474.599 273.633C473.3 274.581 471.696 275.015 470.096 274.848C468.497 274.682 467.015 273.929 465.939 272.734C464.863 271.538 464.268 269.986 464.271 268.378C464.272 267.733 464.368 267.092 464.554 266.475L458.19 264.132C454.523 273.949 448.956 282.947 441.807 290.61L446.782 295.273C448.007 294.099 449.641 293.449 451.338 293.462C453.034 293.474 454.659 294.148 455.866 295.34C457.073 296.532 457.768 298.148 457.802 299.844C457.837 301.54 457.208 303.182 456.05 304.422C454.892 305.662 453.296 306.401 451.601 306.482C449.907 306.563 448.248 305.98 446.976 304.857C445.705 303.734 444.922 302.159 444.794 300.467C444.666 298.776 445.203 297.101 446.291 295.799L441.315 291.136C440.801 291.674 440.28 292.213 439.753 292.745C434.751 297.752 429.11 302.078 422.977 305.611L462.171 377.855H469.205V379.92H472.676V384.021H293.594V379.92H297.065V377.855H304.099L343.293 305.611C338.019 302.575 333.108 298.948 328.657 294.798L322.293 301.579C323.582 302.691 324.386 304.262 324.534 305.957C324.683 307.653 324.164 309.34 323.088 310.659C322.012 311.978 320.465 312.825 318.774 313.021C317.083 313.217 315.382 312.745 314.034 311.707C312.685 310.668 311.795 309.145 311.552 307.46C311.309 305.775 311.733 304.062 312.733 302.685C313.734 301.308 315.232 300.375 316.909 300.086C318.586 299.796 320.31 300.172 321.715 301.133L328.113 294.307C327.569 293.792 327.037 293.271 326.505 292.745C319.902 286.156 314.499 278.466 310.538 270.021L303.463 273.284C303.594 273.806 303.66 274.342 303.66 274.88C303.654 276.503 303.041 278.064 301.943 279.258C300.845 280.452 299.34 281.193 297.724 281.334C296.107 281.475 294.497 281.007 293.208 280.022C291.919 279.037 291.045 277.605 290.758 276.008C290.47 274.412 290.79 272.765 291.655 271.392C292.519 270.019 293.865 269.019 295.429 268.588C296.993 268.157 298.662 268.326 300.108 269.062C301.553 269.798 302.672 271.048 303.243 272.566L310.214 269.396C305.867 259.865 303.443 249.569 303.081 239.1L295.468 239.343C295.434 240.621 295.024 241.861 294.288 242.907C293.553 243.954 292.526 244.76 291.335 245.226C290.144 245.691 288.842 245.795 287.592 245.524C286.342 245.254 285.2 244.621 284.308 243.704C283.416 242.788 282.814 241.629 282.578 240.372C282.341 239.115 282.48 237.816 282.978 236.638C283.476 235.46 284.31 234.455 285.376 233.749C286.442 233.043 287.693 232.666 288.971 232.667H288.966ZM305.164 236.138C305.164 236.867 305.164 237.59 305.199 238.313L327.622 237.584C327.622 237.104 327.622 236.624 327.622 236.138C327.616 229.717 328.73 223.345 330.913 217.307L309.821 209.538C306.742 218.066 305.174 227.065 305.187 236.132L305.164 236.138ZM328.726 237.526L378.756 235.901C378.773 235.582 378.823 235.266 378.906 234.958L331.937 217.66C329.796 223.579 328.704 229.826 328.709 236.12C328.721 236.603 328.726 237.071 328.726 237.526ZM437.486 234.715L387.462 236.34C387.446 236.661 387.394 236.98 387.306 237.289L434.281 254.581C436.418 248.661 437.508 242.414 437.503 236.12C437.518 235.662 437.513 235.197 437.486 234.726V234.715ZM379.67 233.407L343.166 199.206C338.391 204.368 334.659 210.405 332.174 216.983L379.143 234.281C379.295 233.975 379.479 233.686 379.693 233.419L379.67 233.407ZM380.214 232.898C380.497 232.641 380.814 232.423 381.156 232.25L362.141 185.97C355.184 188.893 348.908 193.226 343.71 198.697L380.214 232.898ZM381.822 231.973C382.088 231.891 382.361 231.833 382.637 231.799L381.012 181.776C374.765 182.012 368.607 183.331 362.812 185.675L381.822 231.973ZM383.361 231.776C383.661 231.788 383.96 231.832 384.251 231.909L400.889 184.703C395.18 182.731 389.181 181.726 383.141 181.729C382.674 181.729 382.205 181.729 381.735 181.729L383.361 231.776ZM384.928 232.152C385.26 232.305 385.571 232.5 385.854 232.73L420.061 196.227C414.706 191.272 408.411 187.442 401.549 184.963L384.928 232.152ZM386.386 233.211C386.606 233.448 386.799 233.708 386.965 233.986L432.401 213.009C429.513 206.891 425.513 201.363 420.605 196.707L386.386 233.211ZM387.248 234.64C387.365 234.961 387.445 235.295 387.485 235.635L437.486 234.003C437.215 226.973 435.578 220.062 432.667 213.657L387.248 234.64ZM387.103 237.983C386.989 238.234 386.849 238.472 386.687 238.695L386.982 239.273L423.023 273.052C427.803 267.891 431.535 261.852 434.015 255.269L387.103 237.983ZM388.075 241.258L410.73 283.014C415.097 280.436 419.085 277.262 422.578 273.585L388.075 241.258ZM385.611 239.748C385.457 239.852 385.297 239.947 385.131 240.031L404.146 286.312C405.969 285.544 407.75 284.679 409.48 283.72L385.611 239.748ZM384.454 240.326C384.186 240.408 383.911 240.466 383.632 240.5L385.258 290.523C391.507 290.285 397.667 288.964 403.464 286.618L384.454 240.326ZM383.129 290.564C383.604 290.564 384.072 290.564 384.541 290.564L382.909 240.54C382.61 240.524 382.314 240.477 382.024 240.401L365.386 287.608C371.089 289.565 377.077 290.556 383.106 290.541L383.129 290.564ZM381.342 240.147C381.104 240.038 380.876 239.91 380.659 239.765L356.796 283.732C359.332 285.138 361.977 286.342 364.704 287.33L381.342 240.147ZM377.327 242.877L346.215 276.084C349.066 278.724 352.193 281.052 355.54 283.026L377.327 242.877ZM378.686 240.372L379.577 238.683C379.482 238.554 379.395 238.418 379.317 238.278L333.881 259.255C336.767 265.374 340.765 270.904 345.671 275.563L378.686 240.372ZM379.022 237.654C378.908 237.331 378.831 236.998 378.79 236.659L328.767 238.284C329.031 245.316 330.668 252.227 333.586 258.63L379.022 237.654ZM404.511 287.324L413.073 308.104C415.68 307.02 418.225 305.794 420.697 304.431L409.972 284.663C408.203 285.651 406.379 286.54 404.511 287.324ZM403.84 287.602C397.923 289.994 391.636 291.34 385.258 291.582L385.999 314.011C395.058 313.694 403.992 311.793 412.396 308.393L403.84 287.602ZM384.541 291.605C384.061 291.605 383.58 291.605 383.094 291.605C376.933 291.61 370.815 290.584 364.993 288.568L357.519 309.764C365.748 312.615 374.397 314.068 383.106 314.063C383.835 314.063 384.558 314.063 385.281 314.063L384.541 291.605ZM364.293 288.348C361.51 287.346 358.813 286.119 356.229 284.68L345.503 304.448C349.133 306.448 352.917 308.155 356.819 309.55L364.293 288.348ZM310.035 208.855L331.133 216.625C333.665 209.905 337.479 203.742 342.362 198.477L325.967 183.112C319.032 190.567 313.632 199.315 310.075 208.855H310.035ZM327.969 181.029C327.454 181.544 326.95 182.059 326.453 182.585L342.848 197.945C348.164 192.352 354.584 187.923 361.701 184.94L353.163 164.114C343.753 168.051 335.209 173.799 328.015 181.029H327.969ZM353.787 163.871L362.326 184.697C368.243 182.306 374.53 180.96 380.908 180.717L380.214 158.271C371.161 158.586 362.233 160.481 353.834 163.871H353.787ZM383.071 158.201C382.346 158.201 381.623 158.213 380.902 158.236L381.631 180.659C382.109 180.659 382.589 180.659 383.071 180.659C389.234 180.653 395.355 181.68 401.179 183.696L408.653 162.494C400.436 159.65 391.801 158.199 383.106 158.201H383.071ZM409.33 162.72L401.861 183.916C408.857 186.449 415.274 190.36 420.732 195.417L436.097 179.022C428.391 171.827 419.299 166.28 409.376 162.72H409.33ZM438.18 181.029C437.665 180.514 437.144 180.011 436.624 179.514L421.287 195.908C426.297 200.663 430.379 206.306 433.326 212.552L453.742 203.128C449.895 194.915 444.644 187.437 438.226 181.029H438.18ZM454.014 203.782L433.65 213.229C436.627 219.763 438.298 226.816 438.568 233.992L460.996 233.263C460.647 223.075 458.29 213.057 454.06 203.782H454.014ZM461.002 236.132C461.002 235.409 461.002 234.686 460.973 233.963L438.55 234.692C438.55 235.17 438.55 235.65 438.55 236.132C438.556 242.554 437.442 248.929 435.258 254.968L456.351 262.732C459.45 254.205 461.039 245.204 461.048 236.132H461.002ZM456.119 263.414L435.021 255.645C432.484 262.362 428.671 268.525 423.792 273.793L440.187 289.158C447.153 281.71 452.583 272.962 456.166 263.414H456.119ZM438.186 291.241C438.695 290.726 439.198 290.205 439.696 289.684L423.306 274.319C419.732 278.079 415.654 281.325 411.187 283.963L421.912 303.736C427.874 300.303 433.359 296.102 438.226 291.241H438.186ZM305.661 377.884H460.539L421.727 306.369C419.188 307.771 416.573 309.032 413.894 310.146L416.659 316.782C418.281 316.259 420.043 316.39 421.57 317.146C423.097 317.902 424.268 319.224 424.836 320.831C425.403 322.437 425.321 324.202 424.608 325.749C423.894 327.296 422.605 328.504 421.015 329.116C419.425 329.728 417.658 329.695 416.092 329.024C414.525 328.354 413.282 327.099 412.627 325.526C411.971 323.954 411.955 322.187 412.582 320.603C413.209 319.018 414.429 317.741 415.983 317.042L413.252 310.389C404.613 313.891 395.425 315.849 386.108 316.174L386.328 322.995C388.017 323.089 389.603 323.838 390.748 325.083C391.894 326.328 392.508 327.971 392.461 329.662C392.414 331.353 391.709 332.959 390.496 334.139C389.283 335.318 387.658 335.978 385.967 335.978C384.275 335.978 382.65 335.318 381.437 334.139C380.225 332.959 379.52 331.353 379.473 329.662C379.425 327.971 380.04 326.328 381.185 325.083C382.33 323.838 383.916 323.089 385.605 322.995L385.385 316.174C384.639 316.174 383.893 316.209 383.141 316.209C374.193 316.219 365.306 314.733 356.848 311.812L354.534 318.436C355.984 319.115 357.133 320.305 357.76 321.779C358.387 323.252 358.448 324.906 357.932 326.422C357.416 327.938 356.359 329.21 354.962 329.994C353.566 330.779 351.93 331.02 350.366 330.673C348.803 330.326 347.423 329.413 346.49 328.111C345.558 326.81 345.139 325.209 345.313 323.617C345.488 322.025 346.243 320.554 347.436 319.485C348.628 318.415 350.173 317.824 351.774 317.823C352.485 317.822 353.19 317.939 353.862 318.17L356.177 311.569C352.164 310.138 348.273 308.385 344.543 306.328L305.661 377.884ZM344.248 303.736L354.973 283.963C351.559 281.943 348.37 279.563 345.463 276.865L330.098 293.26C334.417 297.277 339.177 300.791 344.288 303.736H344.248ZM327.974 291.241C328.489 291.75 329.004 292.253 329.53 292.751L344.925 276.361C339.917 271.607 335.837 265.963 332.892 259.718L312.476 269.142C316.331 277.355 321.59 284.834 328.015 291.241H327.974ZM312.135 268.488L332.55 259.064C329.573 252.528 327.903 245.473 327.633 238.296L305.204 239.025C305.569 249.208 307.938 259.22 312.175 268.488H312.135Z" fill="#4E7184"/>
<path d="M479.045 324.03H525.904V386.225H479.045V324.03Z" fill="#95A9A7"/>
<path d="M41.0348 377.889H109.281V409.718H41.0348V377.889Z" fill="#95A9A7"/>
<path d="M18.0745 377.889H1294.82V408.254H18.0745V377.889Z" fill="#4E7184"/>
<path d="M189.753 287.329H273.283V409.712H189.753V287.329Z" fill="#4E7184"/>
<path d="M118.445 334.912H201.976V409.024H118.445V334.912Z" fill="#4E7184"/>
<path d="M172.432 170.939H231.515V409.712H172.432V170.939Z" fill="#4E7184"/>
<path d="M75.1553 409.713H153.08V270.287H93.9971L75.1553 409.713Z" fill="#4E7184"/>
<path d="M185.679 121.061H187.716V185.946H185.679V121.061Z" fill="#4E7184"/>
<path d="M178.802 134.979H180.838V199.865H178.802V134.979Z" fill="#4E7184"/>
<path d="M191.916 143.94H193.952V208.826H191.916V143.94Z" fill="#4E7184"/>
<path d="M122.142 259.018H150.026V280.983H122.142V259.018Z" fill="#4E7184"/>
<path d="M125.197 251.19H146.972V263.536H125.197V251.19Z" fill="#4E7184"/>
<path d="M105.719 265.456H111.064V274.325H105.719V265.456Z" fill="#4E7184"/>
<path d="M96.1783 257.363H103.82V274.325H96.1783V257.363Z" fill="#4E7184"/>
<path d="M193.517 205.228C193.568 204.937 193.7 204.666 193.899 204.448C194.098 204.23 194.356 204.074 194.641 203.997C194.926 203.92 195.227 203.926 195.509 204.015C195.79 204.103 196.041 204.27 196.231 204.496C196.421 204.722 196.543 204.998 196.581 205.29C196.62 205.583 196.574 205.881 196.45 206.148C196.325 206.416 196.127 206.642 195.878 206.801C195.629 206.96 195.339 207.044 195.044 207.044C194.602 207.003 194.194 206.789 193.908 206.449C193.622 206.109 193.482 205.67 193.517 205.228Z" fill="#658280"/>
<path d="M27.3069 426.032L36.7711 362.732H56.1279V310.204H53.733V305.454H63.1279V284.992H64.2792V305.454H70.77V288.689H71.9154V305.454H111.063V310.204H108.39V416.782H153.08V369.044H178.534V251.734H176.203V245.978H181.288V238.608H187.137V235.842V227.414V220.107H194.2V207.044H195.051H195.895V220.107H199.702L202.004 227.414H217.404V238.608H257.72V245.978H262.805V251.734H260.474V328.056H294.207V403.054L331.636 386.468V313.675H325.596V308.329H336.224V293.815H381.717V308.329H396.579V293.815H404.215V308.329H411.857V293.815H420.257V308.329H437.832V313.675H435.16V414.566H452.22V413.508H455.309V384.762H452.22V382.453H455.309V353.702H452.22V351.393H455.309V322.647H452.22V320.339H455.309V291.587H452.22V289.279H455.309V260.533H452.22V258.225H455.309V228.472H450.016V226.158H447.326V219.847H497.581V212.835H495.943V210.805H523.301V212.835H521.67V219.847H534.119V226.158H531.429V228.472H526.136V258.225H529.225V260.533H526.136V289.279H529.225V291.587H526.136V320.339H529.225V322.647H526.136V351.393H529.225V353.702H526.136V382.453H529.225V384.762H526.136V413.508H529.225V415.816H526.136V439.309H543.288V348.524H612.304V414.566H623.51V208.826H631.8V214.12L647.096 217.863V214.426H655.386V219.893L670.681 223.636V219.691H678.971V225.661L694.273 229.404V226.147H702.563V231.428L717.859 235.171V232.371H726.149V434.415H737.811V326.697H781.008V392.936H825.293V336.451H830.748V317.898H827.509V316.035H841.844V310.204H843.371V316.035H847.953V286.097H849.099V316.035H855.069V317.898H851.557V336.451H880.783V379.538H909.24L924.096 434.415H953.912V255.246H993.39V248.83H991.151V246.58H1021.05V248.83H1018.7V255.246V265.572V388.273H1037.31V341.912H1030.7V337.718H1077.53V309.706H1086.47V303.95H1106.41V309.706H1122.64V409.713H1175.88V335.542H1220.71V394.128H1259.61V431.609H1287.66V384.49H1324.55V424.667H1357.95V493H1324.55H1313.26H1294.82H1287.66H1259.61H1220.71H1207.63H1200.63H1175.88H1122.64H1106.41H1086.47H1077.53H1042.59H1037.31H1018.7H987.483H972.101H953.912H880.783H863.897H835.388H825.293H780.251H768.148H726.149H722.001H717.859H702.563H694.273H678.971H672.047H670.681H655.386H647.096H633.946H631.8H627.652H623.51H612.304H555.258H547.112H543.288H526.136H495.943H468.302H455.309H435.16H385.113H332.191H331.636H294.207H273.282H260.474H252.386H189.751H178.534H165.119H153.08H108.39H75.1552H68.3518H56.1279H-18.2333V426.032H27.3069Z" fill="#5C889B"/>
</g>
</g>
</svg>
