<svg width="73" height="73" viewBox="0 0 73 73" fill="none" xmlns="http://www.w3.org/2000/svg">
<path d="M68.3497 39.9816L58.1719 35.7396V32.6941C59.5729 31.89 60.786 30.7961 61.7302 29.4854C62.6744 28.1748 63.3278 26.6777 63.6469 25.0941H63.875C64.7826 25.1066 65.6579 24.7579 66.3083 24.125C66.9588 23.492 67.3313 22.6266 67.3437 21.719C67.3561 20.8115 67.0074 19.9362 66.3745 19.2857C65.7415 18.6352 64.8761 18.2628 63.9686 18.2504L65.0864 15.6589C66.0415 13.4444 66.0903 10.9438 65.2224 8.69369C64.3544 6.44362 62.6389 4.62354 60.444 3.62416L57.2594 2.17557C55.375 1.33893 53.3029 1.01559 51.2532 1.23835C49.2035 1.46111 47.2492 2.22204 45.5885 3.44394L43.8137 4.78304C42.0015 5.24975 40.4451 6.40932 39.4793 8.01215C38.946 8.89756 38.6132 9.88912 38.5044 10.917C38.3956 11.9449 38.5135 12.9842 38.8497 13.9616C37.1277 13.6172 35.3506 13.6605 33.6473 14.0883C34.1349 12.0187 33.8889 9.84413 32.9513 7.93585C32.0137 6.02757 30.4426 4.50398 28.5065 3.6253L25.3219 2.17557C23.4375 1.33893 21.3654 1.01559 19.3157 1.23835C17.266 1.46111 15.3117 2.22204 13.651 3.44394L11.8762 4.78304C10.8482 5.04571 9.89216 5.53523 9.07811 6.21567C8.26406 6.89611 7.6127 7.7502 7.17185 8.71525C6.73101 9.68031 6.51185 10.7318 6.53047 11.7926C6.5491 12.8535 6.80503 13.8966 7.27948 14.8456L8.98357 18.2504C8.07603 18.2692 7.21312 18.6477 6.58465 19.3026C5.95619 19.9576 5.61366 20.8355 5.63242 21.743C5.65117 22.6505 6.02968 23.5134 6.68466 24.1419C7.33965 24.7704 8.21747 25.1129 9.12501 25.0941H9.35313C9.67346 26.6769 10.3275 28.1732 11.2715 29.4833C12.2156 30.7934 13.4281 31.8872 14.8281 32.6918V35.7396L4.65034 39.9816C3.6099 40.413 2.72095 41.1435 2.09613 42.0806C1.47132 43.0177 1.13877 44.1193 1.14063 45.2456V60.4535C1.14063 60.756 1.26081 61.0462 1.47471 61.2601C1.68862 61.474 1.97875 61.5941 2.28126 61.5941H10.2656V70.7191C10.2656 71.0217 10.3858 71.3118 10.5997 71.5257C10.8136 71.7396 11.1037 71.8598 11.4063 71.8598H61.5938C61.8963 71.8598 62.1864 71.7396 62.4003 71.5257C62.6142 71.3118 62.7344 71.0217 62.7344 70.7191V61.5941H70.7188C71.0213 61.5941 71.3114 61.474 71.5253 61.2601C71.7392 61.0462 71.8594 60.756 71.8594 60.4535V45.2456C71.8613 44.1193 71.5287 43.0177 70.9039 42.0806C70.2791 41.1435 69.3901 40.413 68.3497 39.9816ZM40.3473 16.7984L43.5308 18.2504C45.1821 19.0026 46.4726 20.3722 47.1254 22.0653C47.7781 23.7583 47.7411 25.6398 47.0223 27.3058L46.6801 28.0871L45.511 25.7249C45.4364 25.5745 45.3296 25.4423 45.1981 25.338C45.0666 25.2336 44.9136 25.1595 44.7502 25.1211C44.5868 25.0826 44.4169 25.0807 44.2526 25.1155C44.0884 25.1503 43.9338 25.2209 43.8 25.3223L41.975 26.691C40.3955 27.8756 38.4744 28.516 36.5 28.516C34.5256 28.516 32.6045 27.8756 31.025 26.691L29.2 25.3223C29.0668 25.2214 28.9129 25.1514 28.7494 25.1173C28.5859 25.0832 28.4168 25.0858 28.2544 25.1249C28.0916 25.1631 27.9391 25.2367 27.8078 25.3403C27.6765 25.444 27.5697 25.5753 27.4948 25.7249L26.2344 28.2548L25.2922 26.3716C24.9247 25.6365 24.7511 24.8195 24.788 23.9984C24.8248 23.1773 25.0709 22.3792 25.5028 21.6799C25.9348 20.9806 26.5382 20.4033 27.2559 20.0027C27.9737 19.6021 28.7819 19.3915 29.6038 19.391C30.4825 19.3902 31.3477 19.6067 32.1225 20.0212C32.8972 20.4357 33.5574 21.0355 34.0443 21.7669L34.4024 22.3053L36.3004 21.0392L35.9422 20.502C34.9285 18.983 33.4015 17.88 31.641 17.3949C32.9348 16.5964 34.4036 16.1249 35.9204 16.0209C37.4373 15.917 38.9567 16.1838 40.3473 16.7984ZM47.9063 33.0785H49.0469C49.3494 33.0785 49.6395 33.1987 49.8534 33.4126C50.0673 33.6265 50.1875 33.9166 50.1875 34.2191C50.1875 34.5217 50.0673 34.8118 49.8534 35.0257C49.6395 35.2396 49.3494 35.3598 49.0469 35.3598H47.9063V33.0785ZM33.0781 46.2402C35.3055 46.9413 37.6945 46.9413 39.9219 46.2402V48.5751L36.5 51.9969L33.0781 48.5751V46.2402ZM36.5 44.4848C34.0807 44.4821 31.7613 43.5198 30.0507 41.8091C28.34 40.0984 27.3777 37.779 27.375 35.3598V31.0665L28.924 27.9674L29.6563 28.516C31.6306 29.9968 34.032 30.7973 36.5 30.7973C38.968 30.7973 41.3694 29.9968 43.3438 28.516L44.076 27.9674L45.625 31.0665V35.3598C45.6223 37.779 44.66 40.0984 42.9494 41.8091C41.2387 43.5198 38.9193 44.4821 36.5 44.4848ZM25.0938 35.3598H23.9531C23.6506 35.3598 23.3605 35.2396 23.1466 35.0257C22.9327 34.8118 22.8125 34.5217 22.8125 34.2191C22.8125 33.9166 22.9327 33.6265 23.1466 33.4126C23.3605 33.1987 23.6506 33.0785 23.9531 33.0785H25.0938V35.3598ZM10.2656 58.2179V59.3129H3.42188V45.2456C3.42147 44.5703 3.62128 43.91 3.99607 43.3482C4.37085 42.7864 4.90378 42.3484 5.52748 42.0895L16.4079 37.5566C16.6162 37.4697 16.7941 37.323 16.9189 37.135C17.0438 36.9469 17.1101 36.7261 17.1094 36.5004V32.0109C17.1034 31.7948 17.0387 31.5844 16.9224 31.4022C16.8061 31.22 16.6424 31.0728 16.449 30.9763C15.0854 30.2981 13.9141 29.288 13.0428 28.039C12.1714 26.7899 11.6279 25.342 11.4622 23.8281C11.4313 23.549 11.2985 23.2911 11.0893 23.1037C10.8801 22.9164 10.6092 22.8129 10.3284 22.8129H9.12501C8.8225 22.8129 8.53237 22.6927 8.31847 22.4788C8.10456 22.2649 7.98438 21.9748 7.98438 21.6723C7.98438 21.3698 8.10456 21.0796 8.31847 20.8657C8.53237 20.6518 8.8225 20.5316 9.12501 20.5316H10.2656C10.4161 20.5317 10.5651 20.5019 10.704 20.4441C10.8429 20.3862 10.969 20.3015 11.075 20.1947C11.181 20.088 11.2649 19.9613 11.3217 19.822C11.3786 19.6827 11.4073 19.5335 11.4063 19.383L11.3983 18.2424C11.3972 18.0682 11.3562 17.8965 11.2785 17.7405L9.32006 13.8248C8.99199 13.1674 8.81848 12.4437 8.81277 11.709C8.80705 10.9743 8.96929 10.248 9.28708 9.58552C9.60488 8.92308 10.0698 8.34201 10.6465 7.88667C11.2231 7.43133 11.8961 7.11376 12.6142 6.95821C12.7756 6.92245 12.9276 6.85286 13.0602 6.75404L15.022 5.27122C16.3533 4.29275 17.9195 3.68352 19.562 3.50525C21.2045 3.32698 22.865 3.586 24.3752 4.25607L27.5621 5.70352C29.2133 6.45575 30.5038 7.82537 31.1566 9.5184C31.8094 11.2114 31.7724 13.0929 31.0535 14.7589L30.8687 15.1867C30.4356 15.4265 30.0191 15.6951 29.622 15.9908L27.8233 17.3379C26.7974 17.6014 25.8436 18.0913 25.0317 18.7716C24.2198 19.4518 23.5705 20.3052 23.1315 21.2691C22.6924 22.233 22.4747 23.2829 22.4943 24.3419C22.5139 25.4009 22.7704 26.4421 23.2448 27.3891L24.9512 30.7973H23.9531C23.0456 30.7973 22.1752 31.1578 21.5335 31.7995C20.8918 32.4412 20.5313 33.3116 20.5313 34.2191C20.5313 35.1267 20.8918 35.9971 21.5335 36.6388C22.1752 37.2805 23.0456 37.641 23.9531 37.641H25.3219C25.6486 39.2193 26.3052 40.7106 27.2488 42.0173C28.1923 43.3239 29.4015 44.4163 30.7969 45.2228V48.1804L14.4426 52.7235C13.243 53.0594 12.1858 53.7779 11.4319 54.7696C10.6779 55.7613 10.2684 56.9721 10.2656 58.2179ZM60.4531 69.5785H53.6094V60.4535H51.3281V69.5785H21.6719V60.4535H19.3906V69.5785H12.5469V58.2179C12.5485 57.47 12.7946 56.7431 13.2477 56.148C13.7007 55.5529 14.3358 55.1222 15.0563 54.9215L31.6056 50.3248L35.697 54.4162C35.9109 54.63 36.201 54.7502 36.5034 54.7502C36.8059 54.7502 37.096 54.63 37.3099 54.4162L41.4013 50.3248L57.9438 54.9215C58.6642 55.1222 59.2994 55.5529 59.7524 56.148C60.2054 56.7431 60.4515 57.47 60.4531 58.2179V69.5785ZM69.5781 59.3129H62.7344V58.2179C62.7316 56.9721 62.3221 55.7613 61.5682 54.7696C60.8142 53.7779 59.7571 53.0594 58.5574 52.7235L42.2031 48.1804V45.2228C43.5986 44.4163 44.8077 43.3239 45.7513 42.0173C46.6948 40.7106 47.3515 39.2193 47.6781 37.641H49.0469C49.9544 37.641 50.8248 37.2805 51.4665 36.6388C52.1082 35.9971 52.4688 35.1267 52.4688 34.2191C52.4688 33.3116 52.1082 32.4412 51.4665 31.7995C50.8248 31.1578 49.9544 30.7973 49.0469 30.7973H47.9998L49.1176 28.2069C50.0727 25.9924 50.1216 23.4918 49.2536 21.2417C48.3857 18.9916 46.6701 17.1716 44.4753 16.1722L41.829 14.9665L41.2587 13.8259C40.9304 13.1685 40.7567 12.4448 40.7508 11.71C40.7449 10.9753 40.907 10.2488 41.2247 9.58628C41.5424 8.9237 42.0073 8.34249 42.5839 7.88702C43.1605 7.43154 43.8336 7.11385 44.5517 6.95821C44.7131 6.92245 44.8651 6.85286 44.9977 6.75404L46.9595 5.27122C48.2908 4.29275 49.857 3.68352 51.4995 3.50525C53.142 3.32698 54.8025 3.586 56.3127 4.25607L59.4996 5.70352C61.1508 6.45575 62.4413 7.82537 63.0941 9.5184C63.7469 11.2114 63.7099 13.0929 62.991 14.7589L61.6793 17.7941C61.6171 17.9382 61.5853 18.0935 61.5858 18.2504L61.5938 19.391C61.5938 19.6935 61.7139 19.9837 61.9279 20.1976C62.1418 20.4115 62.4319 20.5316 62.7344 20.5316H63.875C64.1775 20.5316 64.4677 20.6518 64.6816 20.8657C64.8955 21.0796 65.0156 21.3698 65.0156 21.6723C65.0156 21.9748 64.8955 22.2649 64.6816 22.4788C64.4677 22.6927 64.1775 22.8129 63.875 22.8129H62.6717C62.3909 22.8129 62.1199 22.9164 61.9107 23.1037C61.7015 23.2911 61.5688 23.549 61.5379 23.8281C61.3716 25.3477 60.8244 26.8008 59.9471 28.0528C59.0698 29.3047 57.8907 30.315 56.5191 30.99C56.3291 31.0845 56.1692 31.23 56.0573 31.4104C55.9455 31.5907 55.8862 31.7987 55.8861 32.0109V36.5004C55.8861 36.7255 55.9527 36.9456 56.0775 37.133C56.2023 37.3203 56.3798 37.4665 56.5876 37.5532L67.4725 42.0895C68.0963 42.3484 68.6292 42.7864 69.004 43.3482C69.3787 43.91 69.5786 44.5703 69.5781 45.2456V59.3129Z" fill="#3BA6DD"/>
</svg>
