<svg width="750" height="205" viewBox="0 0 750 205" fill="none" xmlns="http://www.w3.org/2000/svg">
<path d="M6 204.301L0.226497 194.301H11.7735L6 204.301ZM5 191.275V182.591H7V191.275H5ZM5 173.908V165.224H7V173.908H5ZM5 156.54V152.198H7V156.54H5ZM5 152.198C5 150.851 5.05228 149.515 5.15494 148.194L7.14893 148.349C7.05027 149.619 7 150.902 7 152.198H5ZM6.39839 140.288C7.02571 137.666 7.8555 135.123 8.8703 132.676L10.7178 133.442C9.74302 135.792 8.94603 138.235 8.3435 140.753L6.39839 140.288ZM12.5094 125.547C13.9108 123.265 15.4868 121.101 17.2187 119.075L18.7389 120.375C17.0746 122.322 15.5602 124.401 14.2137 126.593L12.5094 125.547ZM22.8774 113.417C24.9033 111.685 27.0666 110.109 29.3487 108.707L30.3953 110.412C28.2026 111.758 26.1239 113.273 24.177 114.937L22.8774 113.417ZM36.4775 105.068C38.9247 104.054 41.468 103.224 44.09 102.596L44.5554 104.542C42.037 105.144 39.5942 105.941 37.2437 106.916L36.4775 105.068ZM51.9957 101.353C53.3172 101.25 54.6526 101.198 56 101.198V103.198C54.7043 103.198 53.4206 103.248 52.1506 103.347L51.9957 101.353ZM56 101.198H60.0125V103.198H56V101.198ZM68.0375 101.198H76.0625V103.198H68.0375V101.198ZM84.0875 101.198H92.1125V103.198H84.0875V101.198ZM100.137 101.198H108.162V103.198H100.137V101.198ZM116.188 101.198H124.213V103.198H116.188V101.198ZM132.238 101.198H140.262V103.198H132.238V101.198ZM148.288 101.198H156.313V103.198H148.288V101.198ZM164.338 101.198H172.363V103.198H164.338V101.198ZM180.388 101.198H188.413V103.198H180.388V101.198ZM196.438 101.198H204.462V103.198H196.438V101.198ZM212.487 101.198H220.512V103.198H212.487V101.198ZM228.537 101.198H236.562V103.198H228.537V101.198ZM244.587 101.198H252.612V103.198H244.587V101.198ZM260.637 101.198H268.662V103.198H260.637V101.198ZM276.687 101.198H284.712V103.198H276.687V101.198ZM292.737 101.198H300.762V103.198H292.737V101.198ZM308.787 101.198H316.812V103.198H308.787V101.198ZM324.837 101.198H332.862V103.198H324.837V101.198ZM340.887 101.198H348.912V103.198H340.887V101.198ZM356.937 101.198H364.962V103.198H356.937V101.198ZM372.987 101.198H377V103.198H372.987V101.198Z" fill="black"/>
<path d="M749.5 0.300781V4.64268H747.5V0.300781H749.5ZM749.5 13.3265V22.0103H747.5V13.3265H749.5ZM749.5 30.6941V39.3778H747.5V30.6941H749.5ZM749.5 48.0616V52.4035H747.5V48.0616H749.5ZM749.5 52.4035C749.5 53.751 749.448 55.0864 749.345 56.4078L747.351 56.2529C747.45 54.9829 747.5 53.6992 747.5 52.4035H749.5ZM748.102 64.3135C747.474 66.9355 746.644 69.4788 745.63 71.926L743.782 71.1599C744.757 68.8093 745.554 66.3665 746.157 63.8482L748.102 64.3135ZM741.991 79.0548C740.589 81.337 739.013 83.5002 737.281 85.5261L735.761 84.2265C737.425 82.2796 738.94 80.2009 740.286 78.0082L741.991 79.0548ZM731.623 91.1848C729.597 92.9167 727.433 94.4927 725.151 95.8941L724.105 94.1898C726.297 92.8433 728.376 91.329 730.323 89.6646L731.623 91.1848ZM718.022 99.5332C715.575 100.548 713.032 101.378 710.41 102.005L709.945 100.06C712.463 99.4575 714.906 98.6605 717.256 97.6858L718.022 99.5332ZM702.504 103.249C701.183 103.351 699.847 103.404 698.5 103.404V101.404C699.796 101.404 701.079 101.353 702.349 101.255L702.504 103.249ZM698.5 103.404H694.488V101.404H698.5V103.404ZM686.463 103.404H678.438V101.404H686.463V103.404ZM670.412 103.404H662.388V101.404H670.412V103.404ZM654.363 103.404H646.338V101.404H654.363V103.404ZM638.312 103.404H630.287V101.404H638.312V103.404ZM622.262 103.404H614.238V101.404H622.262V103.404ZM606.212 103.404H598.187V101.404H606.212V103.404ZM590.162 103.404H582.137V101.404H590.162V103.404ZM574.112 103.404H566.087V101.404H574.112V103.404ZM558.062 103.404H550.038V101.404H558.062V103.404ZM542.013 103.404H533.988V101.404H542.013V103.404ZM525.963 103.404H517.938V101.404H525.963V103.404ZM509.913 103.404H501.888V101.404H509.913V103.404ZM493.863 103.404H485.838V101.404H493.863V103.404ZM477.813 103.404H469.788V101.404H477.813V103.404ZM461.763 103.404H453.738V101.404H461.763V103.404ZM445.713 103.404H437.688V101.404H445.713V103.404ZM429.663 103.404H421.638V101.404H429.663V103.404ZM413.613 103.404H405.588V101.404H413.613V103.404ZM397.563 103.404H389.538V101.404H397.563V103.404ZM381.513 103.404H377.5V101.404H381.513V103.404Z" fill="black"/>
<circle r="39.5" transform="matrix(-1 0 0 1 377.5 101.48)" fill="#F8F8F8"/>
<path d="M358.11 99.8915L372.887 85.1143C373.309 84.6925 373.871 84.4609 374.471 84.4609C375.071 84.4609 375.633 84.6928 376.054 85.1143L377.396 86.4562C377.817 86.8774 378.05 87.4399 378.05 88.0397C378.05 88.6392 377.817 89.2207 377.396 89.6418L368.775 98.2814H396.163C397.398 98.2814 398.374 99.2481 398.374 100.483V102.38C398.374 103.616 397.398 104.68 396.163 104.68H368.678L377.396 113.368C377.817 113.789 378.049 114.337 378.049 114.936C378.049 115.536 377.817 116.091 377.396 116.512L376.054 117.85C375.632 118.272 375.07 118.502 374.47 118.502C373.871 118.502 373.309 118.269 372.887 117.847L358.11 103.07C357.687 102.647 357.455 102.082 357.456 101.482C357.455 100.879 357.687 100.314 358.11 99.8915Z" fill="#D4D4D4"/>
</svg>
