<svg width="750" height="205" viewBox="0 0 750 205" fill="none" xmlns="http://www.w3.org/2000/svg">
<path d="M1 0.300781V52.4035C1 80.0178 23.3858 102.404 51 102.404H372" stroke="black" stroke-width="2" stroke-dasharray="8 8"/>
<path d="M743.5 204.301L749.274 194.301H737.726L743.5 204.301ZM744.5 191.275V182.591H742.5V191.275H744.5ZM744.5 173.908V165.224H742.5V173.908H744.5ZM744.5 156.54V152.198H742.5V156.54H744.5ZM744.5 152.198C744.5 150.851 744.448 149.515 744.345 148.194L742.351 148.349C742.45 149.619 742.5 150.902 742.5 152.198H744.5ZM743.102 140.288C742.474 137.666 741.644 135.123 740.63 132.676L738.782 133.442C739.757 135.792 740.554 138.235 741.157 140.753L743.102 140.288ZM736.991 125.547C735.589 123.265 734.013 121.101 732.281 119.075L730.761 120.375C732.425 122.322 733.94 124.401 735.286 126.593L736.991 125.547ZM726.623 113.417C724.597 111.685 722.433 110.109 720.151 108.707L719.105 110.412C721.297 111.758 723.376 113.273 725.323 114.937L726.623 113.417ZM713.022 105.068C710.575 104.054 708.032 103.224 705.41 102.596L704.945 104.542C707.463 105.144 709.906 105.941 712.256 106.916L713.022 105.068ZM697.504 101.353C696.183 101.25 694.847 101.198 693.5 101.198V103.198C694.796 103.198 696.079 103.248 697.349 103.347L697.504 101.353ZM693.5 101.198H689.488V103.198H693.5V101.198ZM681.463 101.198H673.438V103.198H681.463V101.198ZM665.412 101.198H657.388V103.198H665.412V101.198ZM649.363 101.198H641.338V103.198H649.363V101.198ZM633.312 101.198H625.287V103.198H633.312V101.198ZM617.262 101.198H609.238V103.198H617.262V101.198ZM601.212 101.198H593.187V103.198H601.212V101.198ZM585.162 101.198H577.137V103.198H585.162V101.198ZM569.112 101.198H561.087V103.198H569.112V101.198ZM553.062 101.198H545.038V103.198H553.062V101.198ZM537.013 101.198H528.988V103.198H537.013V101.198ZM520.963 101.198H512.938V103.198H520.963V101.198ZM504.913 101.198H496.888V103.198H504.913V101.198ZM488.863 101.198H480.838V103.198H488.863V101.198ZM472.813 101.198H464.788V103.198H472.813V101.198ZM456.763 101.198H448.738V103.198H456.763V101.198ZM440.713 101.198H432.688V103.198H440.713V101.198ZM424.663 101.198H416.638V103.198H424.663V101.198ZM408.613 101.198H400.588V103.198H408.613V101.198ZM392.563 101.198H384.538V103.198H392.563V101.198ZM376.513 101.198H372.5V103.198H376.513V101.198Z" fill="black"/>
<circle cx="372.5" cy="102.641" r="39.5" fill="#F8F8F8"/>
<path d="M391.89 101.052L377.113 86.2744C376.691 85.8526 376.129 85.6211 375.529 85.6211C374.929 85.6211 374.367 85.853 373.946 86.2744L372.604 87.6164C372.183 88.0376 371.95 88.6001 371.95 89.1999C371.95 89.7993 372.183 90.3808 372.604 90.802L381.225 99.4415H353.837C352.602 99.4415 351.626 100.408 351.626 101.643V103.541C351.626 104.776 352.602 105.84 353.837 105.84H381.322L372.604 114.528C372.183 114.95 371.951 115.497 371.951 116.097C371.951 116.696 372.183 117.251 372.604 117.672L373.946 119.01C374.368 119.432 374.93 119.662 375.53 119.662C376.129 119.662 376.691 119.429 377.113 119.007L391.89 104.23C392.313 103.807 392.545 103.242 392.544 102.642C392.545 102.039 392.313 101.474 391.89 101.052Z" fill="#D4D4D4"/>
</svg>
