<svg width="79" height="73" viewBox="0 0 79 73" fill="none" xmlns="http://www.w3.org/2000/svg">
<path d="M69.3139 36.8986L60.8143 23.7732C60.1555 22.7559 59.0386 22.1484 57.8266 22.1484H20.3256C19.1155 22.1484 17.9996 22.7544 17.3406 23.7691L8.81458 36.8962C7.94331 38.2374 8.07789 40.0084 9.14188 41.2025L36.4035 71.8085C37.0782 72.566 38.0468 73.0005 39.0612 73.0005C39.0614 73.0005 39.0612 73.0005 39.0614 73.0005C40.0756 73.0005 41.0446 72.5661 41.7193 71.8087L68.984 41.2008C70.0464 40.008 70.1821 38.2389 69.3139 36.8986ZM56.1048 25.2L48.9567 36.2535L41.8043 25.2H56.1048ZM46.1523 37.537H31.9702L39.0612 26.5784L46.1523 37.537ZM36.3182 25.2003L29.1855 36.2234L22.0552 25.2003H36.3182ZM19.2337 26.4569L26.4008 37.537H12.0372L19.2337 26.4569ZM12.6818 40.5888H28.0389L36.159 66.946L12.6818 40.5888ZM39.0612 66.0012L31.2321 40.5888H46.8904L39.0612 66.0012ZM41.9633 66.9469L50.0837 40.5889H65.4422L41.9633 66.9469ZM51.7611 37.537L58.9216 26.4645L66.0915 37.537H51.7611Z" fill="#F4CA17"/>
<path d="M4.62844 37.5361H1.52588C0.683287 37.5361 0 38.2193 0 39.062C0 39.9047 0.683287 40.5879 1.52588 40.5879H4.62844C5.47103 40.5879 6.15431 39.9047 6.15431 39.062C6.15431 38.2193 5.47103 37.5361 4.62844 37.5361Z" fill="#F4CA17"/>
<path d="M76.5972 37.5361H73.4946C72.652 37.5361 71.9688 38.2193 71.9688 39.062C71.9688 39.9047 72.652 40.5879 73.4946 40.5879H76.5972C77.4398 40.5879 78.1231 39.9047 78.1231 39.062C78.1231 38.2193 77.4398 37.5361 76.5972 37.5361Z" fill="#F4CA17"/>
<path d="M66.7027 11.4488C66.1067 10.853 65.1408 10.853 64.5447 11.4488L59.4762 16.5173C58.8803 17.1132 58.8803 18.0794 59.4762 18.6752C59.7743 18.9732 60.1648 19.1222 60.5553 19.1222C60.9459 19.1222 61.3362 18.9731 61.6342 18.6752L66.7027 13.6067C67.2986 13.0109 67.2986 12.0449 66.7027 11.4488Z" fill="#F4CA17"/>
<path d="M18.7143 16.4902L13.646 11.4215C13.0502 10.8256 12.0844 10.8256 11.4879 11.4215C10.8921 12.0174 10.8921 12.9835 11.4879 13.5794L16.5564 18.6479C16.8544 18.9459 17.2449 19.0948 17.6354 19.0948C18.0258 19.0948 18.4163 18.9457 18.7143 18.6479C19.3102 18.0522 19.3102 17.0859 18.7143 16.4902Z" fill="#F4CA17"/>
<path d="M39.102 0C38.2595 0 37.5762 0.683134 37.5762 1.52588V11.4697C37.5762 12.3124 38.2593 12.9956 39.102 12.9956C39.9446 12.9956 40.6279 12.3124 40.6279 11.4697V1.52588C40.6279 0.683287 39.9446 0 39.102 0Z" fill="#F4CA17"/>
<path d="M40.1787 15.5526C39.8951 15.2687 39.5014 15.1055 39.1001 15.1055C38.6988 15.1055 38.3051 15.2687 38.0213 15.5526C37.7375 15.8364 37.5742 16.23 37.5742 16.6313C37.5742 17.0342 37.7373 17.4263 38.0213 17.7101C38.3051 17.9955 38.6988 18.1572 39.1001 18.1572C39.5014 18.1572 39.8951 17.9955 40.1787 17.7101C40.4641 17.4263 40.626 17.0326 40.626 16.6313C40.626 16.23 40.4641 15.8365 40.1787 15.5526Z" fill="#F4CA17"/>
</svg>
